<?xml version="1.0" encoding="UTF-8" standalone="no"?>
<svg
   xmlns:osb="http://www.openswatchbook.org/uri/2009/osb"
   xmlns:dc="http://purl.org/dc/elements/1.1/"
   xmlns:cc="http://creativecommons.org/ns#"
   xmlns:rdf="http://www.w3.org/1999/02/22-rdf-syntax-ns#"
   xmlns:svg="http://www.w3.org/2000/svg"
   xmlns="http://www.w3.org/2000/svg"
   xmlns:xlink="http://www.w3.org/1999/xlink"
   xmlns:sodipodi="http://sodipodi.sourceforge.net/DTD/sodipodi-0.dtd"
   xmlns:inkscape="http://www.inkscape.org/namespaces/inkscape"
   width="210mm"
   height="297mm"
   viewBox="0 0 210 297"
   version="1.1"
   id="svg8"
   inkscape:version="1.0.2 (e86c870879, 2021-01-15)"
   sodipodi:docname="ab_effect_foucault_pendulum.svg">
  <defs
     id="defs2">
    <linearGradient
       id="linearGradient2858"
       osb:paint="solid">
      <stop
         style="stop-color:#000000;stop-opacity:1;"
         offset="0"
         id="stop2856" />
    </linearGradient>
    <clipPath
       clipPathUnits="userSpaceOnUse"
       id="clipPath3060">
      <circle
         style="fill:none;fill-opacity:0.878431;stroke:#000000;stroke-width:0.799994;stroke-linecap:round;stroke-miterlimit:4;stroke-dasharray:none;stroke-opacity:1"
         id="circle3062"
         cx="64.716415"
         cy="47.908955"
         r="10.018691" />
    </clipPath>
    <path
       d="M6.36812 -4.79801C6.44782 -5.10884 6.46376 -5.18057 7.02167 -5.18057C7.20498 -5.18057 7.30062 -5.18057 7.30062 -5.332C7.30062 -5.33998 7.29265 -5.44359 7.16513 -5.44359C7.0137 -5.44359 6.82242 -5.42765 6.67098 -5.41968H6.16887C5.40374 -5.41968 5.19651 -5.44359 5.14072 -5.44359C5.10884 -5.44359 4.98132 -5.44359 4.98132 -5.29215C4.98132 -5.18057 5.08493 -5.18057 5.21245 -5.18057C5.47547 -5.18057 5.7066 -5.18057 5.7066 -5.05305C5.7066 -5.02117 5.69863 -5.0132 5.67472 -4.90959L5.19651 -2.96488H2.63014L3.0924 -4.82192C3.16413 -5.10884 3.18007 -5.18057 3.76189 -5.18057C3.9213 -5.18057 4.01694 -5.18057 4.01694 -5.332C4.01694 -5.33998 4.00897 -5.44359 3.88144 -5.44359C3.73001 -5.44359 3.53873 -5.42765 3.3873 -5.41968H2.88518C2.12005 -5.41968 1.91283 -5.44359 1.85704 -5.44359C1.82516 -5.44359 1.69763 -5.44359 1.69763 -5.29215C1.69763 -5.18057 1.80125 -5.18057 1.92877 -5.18057C2.19178 -5.18057 2.42291 -5.18057 2.42291 -5.05305C2.42291 -5.02117 2.41494 -5.0132 2.39103 -4.90959L1.32304 -0.629639C1.25131 -0.326775 1.23537 -0.263014 0.645579 -0.263014C0.494147 -0.263014 0.398506 -0.263014 0.398506 -0.111582C0.398506 -0.0797011 0.422416 0 0.526027 0C0.67746 0 0.868742 -0.0159402 1.02017 -0.0239103H1.53026C2.29539 -0.0239103 2.50262 0 2.55841 0C2.60623 0 2.71781 0 2.71781 -0.151432C2.71781 -0.263014 2.6142 -0.263014 2.4787 -0.263014C2.45479 -0.263014 2.31133 -0.263014 2.17584 -0.278954C2.00847 -0.294894 1.99253 -0.318804 1.99253 -0.390535C1.99253 -0.430386 2.00847 -0.478207 2.01644 -0.518057L2.55841 -2.70187H5.12478C4.89365 -1.76139 4.58281 -0.518057 4.57484 -0.518057C4.50311 -0.270984 4.35965 -0.270984 3.88144 -0.263014C3.7858 -0.263014 3.68219 -0.263014 3.68219 -0.111582C3.68219 -0.0797011 3.7061 0 3.80971 0C3.96115 0 4.15243 -0.0159402 4.30386 -0.0239103H4.81395C5.57908 -0.0239103 5.7863 0 5.84209 0C5.88991 0 6.00149 0 6.00149 -0.151432C6.00149 -0.263014 5.89788 -0.263014 5.76239 -0.263014C5.73848 -0.263014 5.59502 -0.263014 5.45953 -0.278954C5.29215 -0.294894 5.27621 -0.318804 5.27621 -0.390535C5.27621 -0.430386 5.29215 -0.478207 5.30012 -0.518057L6.36812 -4.79801Z"
       id="g2-72" />
    <path
       d="M0.466252 -8.20125V-7.68717H1.7335V-0.514072H0.466252V0H5.86999C7.84259 0 8.81096 -1.06401 8.81096 -2.21171C8.81096 -3.34745 7.81868 -4.17235 6.3721 -4.27995C8.09365 -4.60274 8.42839 -5.58306 8.42839 -6.14496C8.42839 -7.24483 7.42416 -8.20125 5.51133 -8.20125H0.466252ZM3.20399 -4.45928V-7.68717H5.36787C6.59925 -7.68717 6.85031 -6.75467 6.85031 -6.15691C6.85031 -5.32005 6.38406 -4.45928 4.98531 -4.45928H3.20399ZM3.20399 -0.514072V-4.06476H5.58306C6.98182 -4.06476 7.18506 -2.7736 7.18506 -2.23562C7.18506 -1.48244 6.77858 -0.514072 5.40374 -0.514072H3.20399Z"
       id="g0-66" />
    <path
       d="M5.57111 -1.80922C5.69863 -1.80922 5.87397 -1.80922 5.87397 -1.99253S5.69863 -2.17584 5.57111 -2.17584H1.00423C0.876712 -2.17584 0.70137 -2.17584 0.70137 -1.99253S0.876712 -1.80922 1.00423 -1.80922H5.57111Z"
       id="g1-0" />
    <path
       d="M4.3995 -7.2807C4.5071 -7.69913 4.53101 -7.81868 5.40374 -7.81868C5.66675 -7.81868 5.76239 -7.81868 5.76239 -8.04583C5.76239 -8.16538 5.63088 -8.16538 5.59502 -8.16538C5.37983 -8.16538 5.11681 -8.14147 4.90162 -8.14147H3.43113C3.19203 -8.14147 2.91706 -8.16538 2.67796 -8.16538C2.58232 -8.16538 2.45081 -8.16538 2.45081 -7.93823C2.45081 -7.81868 2.54645 -7.81868 2.78555 -7.81868C3.52677 -7.81868 3.52677 -7.72304 3.52677 -7.59153C3.52677 -7.50785 3.50286 -7.43611 3.47895 -7.32852L1.86501 -0.884682C1.75741 -0.466252 1.7335 -0.3467 0.860772 -0.3467C0.597758 -0.3467 0.490162 -0.3467 0.490162 -0.119552C0.490162 0 0.609714 0 0.669489 0C0.884682 0 1.1477 -0.0239103 1.36289 -0.0239103H2.83337C3.07248 -0.0239103 3.33549 0 3.5746 0C3.67024 0 3.8137 0 3.8137 -0.215193C3.8137 -0.3467 3.74197 -0.3467 3.47895 -0.3467C2.73773 -0.3467 2.73773 -0.442341 2.73773 -0.585803C2.73773 -0.609714 2.73773 -0.669489 2.78555 -0.860772L4.3995 -7.2807Z"
       id="g3-73" />
    <path
       d="M7.40025 -6.83836C7.80672 -7.48394 8.17733 -7.77086 8.78705 -7.81868C8.9066 -7.83064 9.00224 -7.83064 9.00224 -8.04583C9.00224 -8.09365 8.97833 -8.16538 8.87073 -8.16538C8.65554 -8.16538 8.14147 -8.14147 7.92628 -8.14147C7.57958 -8.14147 7.22092 -8.16538 6.88618 -8.16538C6.79054 -8.16538 6.67098 -8.16538 6.67098 -7.93823C6.67098 -7.83064 6.77858 -7.81868 6.8264 -7.81868C7.26874 -7.78281 7.31656 -7.56762 7.31656 -7.42416C7.31656 -7.24483 7.14919 -6.96986 7.13724 -6.95791L3.38331 -1.00423L2.54645 -7.44807C2.54645 -7.79477 3.16812 -7.81868 3.29963 -7.81868C3.47895 -7.81868 3.58655 -7.81868 3.58655 -8.04583C3.58655 -8.16538 3.45504 -8.16538 3.41918 -8.16538C3.21594 -8.16538 2.97684 -8.14147 2.7736 -8.14147H2.10411C1.23138 -8.14147 0.872727 -8.16538 0.860772 -8.16538C0.789041 -8.16538 0.645579 -8.16538 0.645579 -7.95019C0.645579 -7.81868 0.729265 -7.81868 0.920548 -7.81868C1.53026 -7.81868 1.56613 -7.71108 1.60199 -7.4122L2.55841 -0.0358655C2.59427 0.215193 2.59427 0.251059 2.76164 0.251059C2.90511 0.251059 2.96488 0.215193 3.08443 0.0239103L7.40025 -6.83836Z"
       id="g3-86" />
    <path
       d="M2.13998 -2.7736C2.46276 -2.7736 3.27572 -2.79751 3.84956 -3.0127C4.75816 -3.3594 4.84184 -4.0528 4.84184 -4.268C4.84184 -4.79402 4.38755 -5.27223 3.59851 -5.27223C2.34321 -5.27223 0.537983 -4.13649 0.537983 -2.00847C0.537983 -0.753176 1.25529 0.119552 2.34321 0.119552C3.96912 0.119552 4.99726 -1.1477 4.99726 -1.30311C4.99726 -1.37484 4.92553 -1.43462 4.87771 -1.43462C4.84184 -1.43462 4.82989 -1.42267 4.72229 -1.31507C3.95716 -0.298879 2.82142 -0.119552 2.36712 -0.119552C1.68568 -0.119552 1.32702 -0.657534 1.32702 -1.54222C1.32702 -1.70959 1.32702 -2.00847 1.50635 -2.7736H2.13998ZM1.56613 -3.0127C2.0802 -4.8538 3.21594 -5.03313 3.59851 -5.03313C4.12453 -5.03313 4.48319 -4.72229 4.48319 -4.268C4.48319 -3.0127 2.57036 -3.0127 2.06824 -3.0127H1.56613Z"
       id="g3-101" />
    <clipPath
       clipPathUnits="userSpaceOnUse"
       id="clipPath3060-6">
      <circle
         style="fill:none;fill-opacity:0.878431;stroke:#000000;stroke-width:0.799994;stroke-linecap:round;stroke-miterlimit:4;stroke-dasharray:none;stroke-opacity:1"
         id="circle3062-0"
         cx="64.716415"
         cy="47.908955"
         r="10.018691" />
    </clipPath>
    <clipPath
       clipPathUnits="userSpaceOnUse"
       id="clipPath14510">
      <rect
         style="fill:#ffffff;fill-opacity:1;stroke:#000000;stroke-width:0.264999;stroke-linecap:round;stroke-miterlimit:4;stroke-dasharray:none;stroke-opacity:1"
         id="rect14512"
         width="66.03022"
         height="11.726995"
         x="98.122345"
         y="-38.892227" />
    </clipPath>
  </defs>
  <sodipodi:namedview
     id="base"
     pagecolor="#ffffff"
     bordercolor="#666666"
     borderopacity="1.0"
     inkscape:pageopacity="0.0"
     inkscape:pageshadow="2"
     inkscape:zoom="2.6263686"
     inkscape:cx="479.04108"
     inkscape:cy="63.144088"
     inkscape:document-units="mm"
     inkscape:current-layer="layer1"
     inkscape:document-rotation="0"
     showgrid="false"
     inkscape:window-width="1920"
     inkscape:window-height="1023"
     inkscape:window-x="1440"
     inkscape:window-y="33"
     inkscape:window-maximized="1" />
  <metadata
     id="metadata5">
    <rdf:RDF>
      <cc:Work
         rdf:about="">
        <dc:format>image/svg+xml</dc:format>
        <dc:type
           rdf:resource="http://purl.org/dc/dcmitype/StillImage" />
        <dc:title></dc:title>
      </cc:Work>
    </rdf:RDF>
  </metadata>
  <g
     inkscape:label="Calque 1"
     inkscape:groupmode="layer"
     id="layer1">
    <g
       id="g14338-5"
       transform="translate(-0.9817713,48.07133)"
       clip-path="url(#clipPath14510)"
       style="stroke-width:0.4;stroke-miterlimit:4;stroke-dasharray:none">
      <path
         style="fill:none;stroke:#000000;stroke-width:0.4;stroke-linecap:butt;stroke-linejoin:miter;stroke-miterlimit:4;stroke-dasharray:none;stroke-opacity:1"
         d="M 94.247899,-21.410044 133.71803,-87.804766"
         id="path2910-6-0" />
      <path
         style="fill:none;stroke:#000000;stroke-width:0.4;stroke-linecap:butt;stroke-linejoin:miter;stroke-miterlimit:4;stroke-dasharray:none;stroke-opacity:1"
         d="M 96.521042,-20.058713 135.99118,-86.453435"
         id="path2910-5-1-3" />
      <path
         style="fill:none;stroke:#000000;stroke-width:0.4;stroke-linecap:butt;stroke-linejoin:miter;stroke-miterlimit:4;stroke-dasharray:none;stroke-opacity:1"
         d="M 91.974749,-22.761383 131.44488,-89.1561"
         id="path2910-3-8-6" />
      <path
         style="fill:none;stroke:#000000;stroke-width:0.4;stroke-linecap:butt;stroke-linejoin:miter;stroke-miterlimit:4;stroke-dasharray:none;stroke-opacity:1"
         d="m 103.34051,-16.004695 39.47014,-66.394719"
         id="path2910-56-7-1" />
      <path
         style="fill:none;stroke:#000000;stroke-width:0.4;stroke-linecap:butt;stroke-linejoin:miter;stroke-miterlimit:4;stroke-dasharray:none;stroke-opacity:1"
         d="M 98.794203,-18.707373 138.26434,-85.102092"
         id="path2910-2-9-0" />
      <path
         style="fill:none;stroke:#000000;stroke-width:0.4;stroke-linecap:butt;stroke-linejoin:miter;stroke-miterlimit:4;stroke-dasharray:none;stroke-opacity:1"
         d="M 89.701588,-24.112722 129.17172,-90.507444"
         id="path2910-9-20-6" />
      <path
         style="fill:none;stroke:#000000;stroke-width:0.4;stroke-linecap:butt;stroke-linejoin:miter;stroke-miterlimit:4;stroke-dasharray:none;stroke-opacity:1"
         d="m 105.61366,-14.653366 39.47013,-66.394716"
         id="path2910-9-1-2-3" />
      <path
         style="fill:none;stroke:#000000;stroke-width:0.4;stroke-linecap:butt;stroke-linejoin:miter;stroke-miterlimit:4;stroke-dasharray:none;stroke-opacity:1"
         d="m 101.06735,-17.356038 39.47014,-66.394717"
         id="path2910-9-2-3-2" />
      <path
         style="fill:none;stroke:#000000;stroke-width:0.4;stroke-linecap:butt;stroke-linejoin:miter;stroke-miterlimit:4;stroke-dasharray:none;stroke-opacity:1"
         d="m 112.43312,-10.599349 39.47013,-66.394722"
         id="path2910-6-5-0" />
      <path
         style="fill:none;stroke:#000000;stroke-width:0.4;stroke-linecap:butt;stroke-linejoin:miter;stroke-miterlimit:4;stroke-dasharray:none;stroke-opacity:1"
         d="M 114.70626,-9.2480176 154.1764,-75.64274"
         id="path2910-5-1-9-6" />
      <path
         style="fill:none;stroke:#000000;stroke-width:0.4;stroke-linecap:butt;stroke-linejoin:miter;stroke-miterlimit:4;stroke-dasharray:none;stroke-opacity:1"
         d="M 110.15997,-11.950687 149.6301,-78.345406"
         id="path2910-3-8-2-1" />
      <path
         style="fill:none;stroke:#000000;stroke-width:0.4;stroke-linecap:butt;stroke-linejoin:miter;stroke-miterlimit:4;stroke-dasharray:none;stroke-opacity:1"
         d="M 121.52573,-5.1939999 160.99587,-71.58872"
         id="path2910-56-7-2-5" />
      <path
         style="fill:none;stroke:#000000;stroke-width:0.4;stroke-linecap:butt;stroke-linejoin:miter;stroke-miterlimit:4;stroke-dasharray:none;stroke-opacity:1"
         d="M 116.97941,-7.8966827 156.44955,-74.291403"
         id="path2910-2-9-8-5" />
      <path
         style="fill:none;stroke:#000000;stroke-width:0.4;stroke-linecap:butt;stroke-linejoin:miter;stroke-miterlimit:4;stroke-dasharray:none;stroke-opacity:1"
         d="m 107.88681,-13.302026 39.47013,-66.394723"
         id="path2910-9-20-9-4" />
      <path
         style="fill:none;stroke:#000000;stroke-width:0.4;stroke-linecap:butt;stroke-linejoin:miter;stroke-miterlimit:4;stroke-dasharray:none;stroke-opacity:1"
         d="M 123.79888,-3.8426696 163.26901,-70.237388"
         id="path2910-9-1-2-7-7" />
      <path
         style="fill:none;stroke:#000000;stroke-width:0.4;stroke-linecap:butt;stroke-linejoin:miter;stroke-miterlimit:4;stroke-dasharray:none;stroke-opacity:1"
         d="M 119.25257,-6.5453414 158.72271,-72.940061"
         id="path2910-9-2-3-3-6" />
      <path
         style="fill:none;stroke:#000000;stroke-width:0.4;stroke-linecap:butt;stroke-linejoin:miter;stroke-miterlimit:4;stroke-dasharray:none;stroke-opacity:1"
         d="M 130.61832,0.21133635 170.08846,-66.183386"
         id="path2910-6-6-5" />
      <path
         style="fill:none;stroke:#000000;stroke-width:0.4;stroke-linecap:butt;stroke-linejoin:miter;stroke-miterlimit:4;stroke-dasharray:none;stroke-opacity:1"
         d="m 132.8915,1.562688 39.47014,-66.394722"
         id="path2910-5-1-1-6" />
      <path
         style="fill:none;stroke:#000000;stroke-width:0.4;stroke-linecap:butt;stroke-linejoin:miter;stroke-miterlimit:4;stroke-dasharray:none;stroke-opacity:1"
         d="M 128.34518,-1.1399967 167.81531,-67.534715"
         id="path2910-3-8-29-9" />
      <path
         style="fill:none;stroke:#000000;stroke-width:0.4;stroke-linecap:butt;stroke-linejoin:miter;stroke-miterlimit:4;stroke-dasharray:none;stroke-opacity:1"
         d="M 139.71095,5.6166904 179.18108,-60.77803"
         id="path2910-56-7-3-3" />
      <path
         style="fill:none;stroke:#000000;stroke-width:0.4;stroke-linecap:butt;stroke-linejoin:miter;stroke-miterlimit:4;stroke-dasharray:none;stroke-opacity:1"
         d="M 135.16464,2.9140178 174.63478,-63.480702"
         id="path2910-2-9-1-7" />
      <path
         style="fill:none;stroke:#000000;stroke-width:0.4;stroke-linecap:butt;stroke-linejoin:miter;stroke-miterlimit:4;stroke-dasharray:none;stroke-opacity:1"
         d="M 126.07203,-2.4913311 165.54216,-68.886053"
         id="path2910-9-20-94-4" />
      <path
         style="fill:none;stroke:#000000;stroke-width:0.4;stroke-linecap:butt;stroke-linejoin:miter;stroke-miterlimit:4;stroke-dasharray:none;stroke-opacity:1"
         d="M 141.9841,6.9680253 181.45423,-59.426692"
         id="path2910-9-1-2-78-5" />
      <path
         style="fill:none;stroke:#000000;stroke-width:0.4;stroke-linecap:butt;stroke-linejoin:miter;stroke-miterlimit:4;stroke-dasharray:none;stroke-opacity:1"
         d="M 137.4378,4.2653535 176.90793,-62.129365"
         id="path2910-9-2-3-4-2" />
    </g>
    <g
       id="g3074"
       transform="matrix(0.83584375,0,0,0.83584375,-28.793534,-48.528403)">
      <g
         id="g3014"
         transform="translate(16.241758,36.986822)"
         clip-path="url(#clipPath3060)">
        <path
           style="fill:none;stroke:#000000;stroke-width:0.565;stroke-linecap:butt;stroke-linejoin:miter;stroke-miterlimit:4;stroke-dasharray:none;stroke-opacity:1"
           d="M 48.522465,57.906789 72.660881,33.768373"
           id="path2910" />
        <path
           style="fill:none;stroke:#000000;stroke-width:0.565;stroke-linecap:butt;stroke-linejoin:miter;stroke-miterlimit:4;stroke-dasharray:none;stroke-opacity:1"
           d="M 50.684929,60.069253 74.823344,35.930836"
           id="path2910-5" />
        <path
           style="fill:none;stroke:#000000;stroke-width:0.565;stroke-linecap:butt;stroke-linejoin:miter;stroke-miterlimit:4;stroke-dasharray:none;stroke-opacity:1"
           d="M 46.360003,55.744326 70.498417,31.605911"
           id="path2910-3" />
        <path
           style="fill:none;stroke:#000000;stroke-width:0.565;stroke-linecap:butt;stroke-linejoin:miter;stroke-miterlimit:4;stroke-dasharray:none;stroke-opacity:1"
           d="M 57.172319,66.556641 81.310733,42.418226"
           id="path2910-56" />
        <path
           style="fill:none;stroke:#000000;stroke-width:0.565;stroke-linecap:butt;stroke-linejoin:miter;stroke-miterlimit:4;stroke-dasharray:none;stroke-opacity:1"
           d="M 52.847393,62.231715 76.985807,38.0933"
           id="path2910-2" />
        <path
           style="fill:none;stroke:#000000;stroke-width:0.565;stroke-linecap:butt;stroke-linejoin:miter;stroke-miterlimit:4;stroke-dasharray:none;stroke-opacity:1"
           d="M 44.197539,53.581863 68.335954,29.443447"
           id="path2910-9" />
        <path
           style="fill:none;stroke:#000000;stroke-width:0.565;stroke-linecap:butt;stroke-linejoin:miter;stroke-miterlimit:4;stroke-dasharray:none;stroke-opacity:1"
           d="M 59.334783,68.719105 83.473196,44.58069"
           id="path2910-9-1" />
        <path
           style="fill:none;stroke:#000000;stroke-width:0.565;stroke-linecap:butt;stroke-linejoin:miter;stroke-miterlimit:4;stroke-dasharray:none;stroke-opacity:1"
           d="M 55.009856,64.394179 79.14827,40.255764"
           id="path2910-9-2" />
      </g>
      <circle
         style="fill:none;fill-opacity:0.878431;stroke:#000000;stroke-width:0.799993;stroke-linecap:round;stroke-miterlimit:4;stroke-dasharray:none;stroke-opacity:1"
         id="path875-7"
         cx="80.697914"
         cy="85.139137"
         r="10.018691" />
    </g>
    <path
       style="fill:none;stroke:#000000;stroke-width:0.300388px;stroke-linecap:butt;stroke-linejoin:miter;stroke-opacity:1"
       d="m 28.397014,2.8352905 0.02827,4.9244794"
       id="path833"
       sodipodi:nodetypes="cc" />
    <path
       style="fill:none;stroke:#000000;stroke-width:0.300388px;stroke-linecap:butt;stroke-linejoin:miter;stroke-opacity:1"
       d="m 28.425283,10.07719 0.02827,25.954243"
       id="path833-3"
       sodipodi:nodetypes="cc" />
    <path
       style="fill:none;stroke:#000000;stroke-width:0.300388px;stroke-linecap:butt;stroke-linejoin:miter;stroke-opacity:1"
       d="m 28.453553,38.396893 0.02827,5.488369"
       id="path833-3-6"
       sodipodi:nodetypes="cc" />
    <path
       style="fill:none;stroke:#000000;stroke-width:0.300388px;stroke-linecap:butt;stroke-linejoin:miter;stroke-opacity:1"
       d="M 80.121346,21.716721 28.370834,8.7841089 6.3595647,23.644873 28.440829,37.249455 Z"
       id="path3080" />
    <circle
       style="fill:#ffffff;fill-opacity:1;stroke:#000000;stroke-width:0.300861;stroke-linecap:round;stroke-miterlimit:4;stroke-dasharray:none;stroke-opacity:1"
       id="path3078"
       cx="80.073547"
       cy="21.741133"
       r="1.4429237" />
    <circle
       style="fill:#ffffff;fill-opacity:1;stroke:#000000;stroke-width:0.300861;stroke-linecap:round;stroke-miterlimit:4;stroke-dasharray:none;stroke-opacity:1"
       id="path3076"
       cx="6.2236714"
       cy="23.629906"
       r="1.6596955" />
    <path
       sodipodi:type="star"
       style="fill:#ffffff;fill-opacity:1;stroke:#000000;stroke-width:0.564999;stroke-linecap:round;stroke-miterlimit:4;stroke-dasharray:none;stroke-opacity:1"
       id="path3082"
       sodipodi:sides="3"
       sodipodi:cx="36.570423"
       sodipodi:cy="40.05106"
       sodipodi:r1="0.28668091"
       sodipodi:r2="0.14334045"
       sodipodi:arg1="0.52359878"
       sodipodi:arg2="1.5707963"
       inkscape:flatsided="true"
       inkscape:rounded="0"
       inkscape:randomized="0"
       d="m 36.818696,40.1944 -0.496546,0 0.248273,-0.430021 z"
       inkscape:transform-center-y="0.062265052"
       transform="matrix(0.69121123,0.90066226,-0.90066226,0.69121123,27.618214,-44.017331)"
       inkscape:transform-center-x="0.021253771" />
    <path
       sodipodi:type="star"
       style="fill:#ffffff;fill-opacity:1;stroke:#000000;stroke-width:0.564999;stroke-linecap:round;stroke-miterlimit:4;stroke-dasharray:none;stroke-opacity:1"
       id="path3082-0"
       sodipodi:sides="3"
       sodipodi:cx="36.570423"
       sodipodi:cy="40.05106"
       sodipodi:r1="0.28668091"
       sodipodi:r2="0.14334045"
       sodipodi:arg1="0.52359878"
       sodipodi:arg2="1.5707963"
       inkscape:flatsided="true"
       inkscape:rounded="0"
       inkscape:randomized="0"
       inkscape:transform-center-y="-0.065420441"
       transform="matrix(-0.67207518,0.91503028,-0.91503028,-0.67207518,77.283106,23.067493)"
       inkscape:transform-center-x="0.017849726"
       d="m 36.818696,40.1944 -0.496546,0 0.248273,-0.430021 z" />
    <path
       sodipodi:type="star"
       style="fill:#ffffff;fill-opacity:1;stroke:#000000;stroke-width:0.564999;stroke-linecap:round;stroke-miterlimit:4;stroke-dasharray:none;stroke-opacity:1"
       id="path3082-9"
       sodipodi:sides="3"
       sodipodi:cx="36.570423"
       sodipodi:cy="40.05106"
       sodipodi:r1="0.28668091"
       sodipodi:r2="0.14334045"
       sodipodi:arg1="0.52359878"
       sodipodi:arg2="1.5707963"
       inkscape:flatsided="true"
       inkscape:rounded="0"
       inkscape:randomized="0"
       inkscape:transform-center-y="0.047236929"
       transform="matrix(0.77611494,-0.82861998,0.82861998,0.77611494,-11.938218,30.083887)"
       inkscape:transform-center-x="-0.036955842"
       d="m 36.818696,40.1944 -0.496546,0 0.248273,-0.430021 z" />
    <path
       sodipodi:type="star"
       style="fill:#ffffff;fill-opacity:1;stroke:#000000;stroke-width:0.564999;stroke-linecap:round;stroke-miterlimit:4;stroke-dasharray:none;stroke-opacity:1"
       id="path3082-3"
       sodipodi:sides="3"
       sodipodi:cx="36.570423"
       sodipodi:cy="40.05106"
       sodipodi:r1="0.28668091"
       sodipodi:r2="0.14334045"
       sodipodi:arg1="0.52359878"
       sodipodi:arg2="1.5707963"
       inkscape:flatsided="true"
       inkscape:rounded="0"
       inkscape:randomized="0"
       inkscape:transform-center-y="-0.047510321"
       transform="matrix(1.1061132,-0.25588883,0.25588883,1.1061132,-1.3315633,-20.938276)"
       inkscape:transform-center-x="-0.036680031"
       d="m 36.818696,40.1944 -0.496546,0 0.248273,-0.430021 z" />
    <use
       x="211.592"
       xlink:href="#g0-66"
       y="92.154404"
       id="use14110"
       width="100%"
       height="100%"
       transform="matrix(0.50064731,0,0,0.50064731,-57.266789,-21.774714)" />
    <g
       id="g14338"
       transform="translate(-9.2478413,-46.701461)">
      <path
         style="fill:none;stroke:#000000;stroke-width:0.777003;stroke-linecap:butt;stroke-linejoin:miter;stroke-miterlimit:4;stroke-dasharray:none;stroke-opacity:1"
         d="M 94.247899,-21.410044 133.71803,-87.804766"
         id="path2910-6" />
      <path
         style="fill:none;stroke:#000000;stroke-width:0.777003;stroke-linecap:butt;stroke-linejoin:miter;stroke-miterlimit:4;stroke-dasharray:none;stroke-opacity:1"
         d="M 96.521042,-20.058713 135.99118,-86.453435"
         id="path2910-5-1" />
      <path
         style="fill:none;stroke:#000000;stroke-width:0.777003;stroke-linecap:butt;stroke-linejoin:miter;stroke-miterlimit:4;stroke-dasharray:none;stroke-opacity:1"
         d="M 91.974749,-22.761383 131.44488,-89.1561"
         id="path2910-3-8" />
      <path
         style="fill:none;stroke:#000000;stroke-width:0.777003;stroke-linecap:butt;stroke-linejoin:miter;stroke-miterlimit:4;stroke-dasharray:none;stroke-opacity:1"
         d="m 103.34051,-16.004695 39.47014,-66.394719"
         id="path2910-56-7" />
      <path
         style="fill:none;stroke:#000000;stroke-width:0.777003;stroke-linecap:butt;stroke-linejoin:miter;stroke-miterlimit:4;stroke-dasharray:none;stroke-opacity:1"
         d="M 98.794203,-18.707373 138.26434,-85.102092"
         id="path2910-2-9" />
      <path
         style="fill:none;stroke:#000000;stroke-width:0.777003;stroke-linecap:butt;stroke-linejoin:miter;stroke-miterlimit:4;stroke-dasharray:none;stroke-opacity:1"
         d="M 89.701588,-24.112722 129.17172,-90.507444"
         id="path2910-9-20" />
      <path
         style="fill:none;stroke:#000000;stroke-width:0.777003;stroke-linecap:butt;stroke-linejoin:miter;stroke-miterlimit:4;stroke-dasharray:none;stroke-opacity:1"
         d="m 105.61366,-14.653366 39.47013,-66.394716"
         id="path2910-9-1-2" />
      <path
         style="fill:none;stroke:#000000;stroke-width:0.777003;stroke-linecap:butt;stroke-linejoin:miter;stroke-miterlimit:4;stroke-dasharray:none;stroke-opacity:1"
         d="m 101.06735,-17.356038 39.47014,-66.394717"
         id="path2910-9-2-3" />
      <path
         style="fill:none;stroke:#000000;stroke-width:0.777003;stroke-linecap:butt;stroke-linejoin:miter;stroke-miterlimit:4;stroke-dasharray:none;stroke-opacity:1"
         d="m 112.43312,-10.599349 39.47013,-66.394722"
         id="path2910-6-5" />
      <path
         style="fill:none;stroke:#000000;stroke-width:0.777003;stroke-linecap:butt;stroke-linejoin:miter;stroke-miterlimit:4;stroke-dasharray:none;stroke-opacity:1"
         d="M 114.70626,-9.2480176 154.1764,-75.64274"
         id="path2910-5-1-9" />
      <path
         style="fill:none;stroke:#000000;stroke-width:0.777003;stroke-linecap:butt;stroke-linejoin:miter;stroke-miterlimit:4;stroke-dasharray:none;stroke-opacity:1"
         d="M 110.15997,-11.950687 149.6301,-78.345406"
         id="path2910-3-8-2" />
      <path
         style="fill:none;stroke:#000000;stroke-width:0.777003;stroke-linecap:butt;stroke-linejoin:miter;stroke-miterlimit:4;stroke-dasharray:none;stroke-opacity:1"
         d="M 121.52573,-5.1939999 160.99587,-71.58872"
         id="path2910-56-7-2" />
      <path
         style="fill:none;stroke:#000000;stroke-width:0.777003;stroke-linecap:butt;stroke-linejoin:miter;stroke-miterlimit:4;stroke-dasharray:none;stroke-opacity:1"
         d="M 116.97941,-7.8966827 156.44955,-74.291403"
         id="path2910-2-9-8" />
      <path
         style="fill:none;stroke:#000000;stroke-width:0.777003;stroke-linecap:butt;stroke-linejoin:miter;stroke-miterlimit:4;stroke-dasharray:none;stroke-opacity:1"
         d="m 107.88681,-13.302026 39.47013,-66.394723"
         id="path2910-9-20-9" />
      <path
         style="fill:none;stroke:#000000;stroke-width:0.777003;stroke-linecap:butt;stroke-linejoin:miter;stroke-miterlimit:4;stroke-dasharray:none;stroke-opacity:1"
         d="M 123.79888,-3.8426696 163.26901,-70.237388"
         id="path2910-9-1-2-7" />
      <path
         style="fill:none;stroke:#000000;stroke-width:0.777003;stroke-linecap:butt;stroke-linejoin:miter;stroke-miterlimit:4;stroke-dasharray:none;stroke-opacity:1"
         d="M 119.25257,-6.5453414 158.72271,-72.940061"
         id="path2910-9-2-3-3" />
      <path
         style="fill:none;stroke:#000000;stroke-width:0.777003;stroke-linecap:butt;stroke-linejoin:miter;stroke-miterlimit:4;stroke-dasharray:none;stroke-opacity:1"
         d="M 130.61832,0.21133635 170.08846,-66.183386"
         id="path2910-6-6" />
      <path
         style="fill:none;stroke:#000000;stroke-width:0.777003;stroke-linecap:butt;stroke-linejoin:miter;stroke-miterlimit:4;stroke-dasharray:none;stroke-opacity:1"
         d="m 132.8915,1.562688 39.47014,-66.394722"
         id="path2910-5-1-1" />
      <path
         style="fill:none;stroke:#000000;stroke-width:0.777003;stroke-linecap:butt;stroke-linejoin:miter;stroke-miterlimit:4;stroke-dasharray:none;stroke-opacity:1"
         d="M 128.34518,-1.1399967 167.81531,-67.534715"
         id="path2910-3-8-29" />
      <path
         style="fill:none;stroke:#000000;stroke-width:0.777003;stroke-linecap:butt;stroke-linejoin:miter;stroke-miterlimit:4;stroke-dasharray:none;stroke-opacity:1"
         d="M 139.71095,5.6166904 179.18108,-60.77803"
         id="path2910-56-7-3" />
      <path
         style="fill:none;stroke:#000000;stroke-width:0.777003;stroke-linecap:butt;stroke-linejoin:miter;stroke-miterlimit:4;stroke-dasharray:none;stroke-opacity:1"
         d="M 135.16464,2.9140178 174.63478,-63.480702"
         id="path2910-2-9-1" />
      <path
         style="fill:none;stroke:#000000;stroke-width:0.777003;stroke-linecap:butt;stroke-linejoin:miter;stroke-miterlimit:4;stroke-dasharray:none;stroke-opacity:1"
         d="M 126.07203,-2.4913311 165.54216,-68.886053"
         id="path2910-9-20-94" />
      <path
         style="fill:none;stroke:#000000;stroke-width:0.777003;stroke-linecap:butt;stroke-linejoin:miter;stroke-miterlimit:4;stroke-dasharray:none;stroke-opacity:1"
         d="M 141.9841,6.9680253 181.45423,-59.426692"
         id="path2910-9-1-2-78" />
      <path
         style="fill:none;stroke:#000000;stroke-width:0.777003;stroke-linecap:butt;stroke-linejoin:miter;stroke-miterlimit:4;stroke-dasharray:none;stroke-opacity:1"
         d="M 137.4378,4.2653535 176.90793,-62.129365"
         id="path2910-9-2-3-4" />
    </g>
    <path
       style="fill:none;stroke:#000000;stroke-width:0.765;stroke-linecap:butt;stroke-linejoin:miter;stroke-miterlimit:4;stroke-dasharray:none;stroke-opacity:1"
       d="m 97.136813,20.60275 66.027057,0.0314"
       id="path14514"
       sodipodi:nodetypes="cc" />
  </g>
</svg>
