<?xml version="1.0" encoding="UTF-8" standalone="no"?>
<svg
   width="100.52695mm"
   height="53.466187mm"
   viewBox="0 0 100.52695 53.466187"
   version="1.1"
   id="svg2270"
   inkscape:version="1.3.2 (091e20e, 2023-11-25)"
   sodipodi:docname="atom_between_plates.svg"
   xml:space="preserve"
   xmlns:inkscape="http://www.inkscape.org/namespaces/inkscape"
   xmlns:sodipodi="http://sodipodi.sourceforge.net/DTD/sodipodi-0.dtd"
   xmlns:xlink="http://www.w3.org/1999/xlink"
   xmlns="http://www.w3.org/2000/svg"
   xmlns:svg="http://www.w3.org/2000/svg"
   xmlns:rdf="http://www.w3.org/1999/02/22-rdf-syntax-ns#"
   xmlns:cc="http://creativecommons.org/ns#"
   xmlns:dc="http://purl.org/dc/elements/1.1/"><defs
     id="defs2264"><linearGradient
       id="linearGradient40"
       inkscape:collect="always"><stop
         style="stop-color:#ff6600;stop-opacity:0.48550919;"
         offset="0"
         id="stop40" /><stop
         style="stop-color:#ffd500;stop-opacity:0;"
         offset="1"
         id="stop41" /></linearGradient><marker
       style="overflow:visible"
       id="marker40"
       refX="0"
       refY="0"
       orient="256"
       inkscape:stockid="Stylized triangle arrow"
       markerWidth="1"
       markerHeight="1"
       viewBox="0 0 1 1"
       inkscape:isstock="true"
       inkscape:collect="always"
       preserveAspectRatio="xMidYMid"><path
         transform="scale(0.5)"
         style="fill:context-stroke;fill-rule:evenodd;stroke:context-stroke;stroke-width:1pt"
         d="m 6,0 c -3,1 -7,3 -9,5 0,0 0,-4 2,-5 -2,-1 -2,-5 -2,-5 2,2 6,4 9,5 z"
         id="path40" /></marker><inkscape:path-effect
       effect="rough_hatches"
       id="path-effect39"
       is_visible="true"
       lpeversion="1.2"
       direction="42.938805,111.8468 , 4.3625031,0"
       dist_rdm="0;1"
       growth="0"
       do_bend="false"
       bender="42.938805,116.8468 , 5,0"
       bottom_edge_variation="0;1"
       top_edge_variation="0;1"
       bottom_tgt_variation="0;1"
       top_tgt_variation="0;1"
       scale_bf="1"
       scale_bb="1"
       scale_tf="1"
       scale_tb="1"
       top_smth_variation="0;1"
       bottom_smth_variation="0;1"
       fat_output="false"
       stroke_width_top="1"
       stroke_width_bottom="1"
       front_thickness="1"
       back_thickness="0.1" /><marker
       style="overflow:visible"
       id="marker39"
       refX="0"
       refY="0"
       orient="auto"
       inkscape:stockid="Dot"
       markerWidth="1"
       markerHeight="1"
       viewBox="0 0 1 1"
       inkscape:isstock="true"
       inkscape:collect="always"
       preserveAspectRatio="xMidYMid"><path
         transform="scale(0.5)"
         style="fill:context-stroke;fill-rule:evenodd;stroke:none"
         d="M 5,0 C 5,2.76 2.76,5 0,5 -2.76,5 -5,2.76 -5,0 c 0,-2.76 2.3,-5 5,-5 2.76,0 5,2.24 5,5 z"
         sodipodi:nodetypes="sssss"
         id="path39" /></marker><marker
       style="overflow:visible"
       id="Dot"
       refX="0"
       refY="0"
       orient="auto"
       inkscape:stockid="Dot"
       markerWidth="1"
       markerHeight="1"
       viewBox="0 0 1 1"
       inkscape:isstock="true"
       inkscape:collect="always"
       preserveAspectRatio="xMidYMid"><path
         transform="scale(0.5)"
         style="fill:context-stroke;fill-rule:evenodd;stroke:none"
         d="M 5,0 C 5,2.76 2.76,5 0,5 -2.76,5 -5,2.76 -5,0 c 0,-2.76 2.3,-5 5,-5 2.76,0 5,2.24 5,5 z"
         sodipodi:nodetypes="sssss"
         id="path30" /></marker><marker
       style="overflow:visible"
       id="marker1"
       refX="0"
       refY="0"
       orient="auto-start-reverse"
       inkscape:stockid="Stylized triangle arrow"
       markerWidth="1"
       markerHeight="1"
       viewBox="0 0 1 1"
       inkscape:isstock="true"
       inkscape:collect="always"
       preserveAspectRatio="xMidYMid"><path
         transform="scale(0.5)"
         style="fill:context-stroke;fill-rule:evenodd;stroke:context-stroke;stroke-width:1pt"
         d="m 6,0 c -3,1 -7,3 -9,5 0,0 0,-4 2,-5 -2,-1 -2,-5 -2,-5 2,2 6,4 9,5 z"
         id="path1" /></marker><marker
       style="overflow:visible"
       id="ArrowTriangleStylized"
       refX="0"
       refY="0"
       orient="auto-start-reverse"
       inkscape:stockid="Stylized triangle arrow"
       markerWidth="1"
       markerHeight="1"
       viewBox="0 0 1 1"
       inkscape:isstock="true"
       inkscape:collect="always"
       preserveAspectRatio="xMidYMid"><path
         transform="scale(0.5)"
         style="fill:context-stroke;fill-rule:evenodd;stroke:context-stroke;stroke-width:1pt"
         d="m 6,0 c -3,1 -7,3 -9,5 0,0 0,-4 2,-5 -2,-1 -2,-5 -2,-5 2,2 6,4 9,5 z"
         id="path4" /></marker><marker
       style="overflow:visible"
       id="Arrow1Send"
       refX="0"
       refY="0"
       orient="auto"
       inkscape:stockid="Arrow1Send"
       inkscape:isstock="true"><path
         transform="matrix(-0.2,0,0,-0.2,-1.2,0)"
         style="fill:#000000;fill-opacity:1;fill-rule:evenodd;stroke:#000000;stroke-width:1pt;stroke-opacity:1"
         d="M 0,0 5,-5 -12.5,0 5,5 Z"
         id="path5651" /></marker><marker
       style="overflow:visible"
       id="Arrow1Lend"
       refX="0"
       refY="0"
       orient="auto"
       inkscape:stockid="Arrow1Lend"
       inkscape:isstock="true"><path
         transform="matrix(-0.8,0,0,-0.8,-10,0)"
         style="fill:#000000;fill-opacity:1;fill-rule:evenodd;stroke:#000000;stroke-width:1pt;stroke-opacity:1"
         d="M 0,0 5,-5 -12.5,0 5,5 Z"
         id="path5639" /></marker><inkscape:perspective
       sodipodi:type="inkscape:persp3d"
       inkscape:vp_x="406.32975 : -46.812127 : 1"
       inkscape:vp_y="0 : 1000 : 0"
       inkscape:vp_z="152.49993 : -55.474827 : 1"
       inkscape:persp3d-origin="105.00001 : -144.53382 : 1"
       id="perspective2871" /><radialGradient
       inkscape:collect="always"
       xlink:href="#linearGradient1088"
       id="radialGradient1090"
       cx="105.49506"
       cy="109.75511"
       fx="105.49506"
       fy="109.75511"
       r="27.111309"
       gradientUnits="userSpaceOnUse"
       gradientTransform="matrix(0.99915906,-0.04099841,0.04198652,1.0232397,37.796022,-67.366026)" /><linearGradient
       inkscape:collect="always"
       id="linearGradient1088"><stop
         style="stop-color:#fdffff;stop-opacity:1"
         offset="0"
         id="stop1084" /><stop
         style="stop-color:#a5bcf2;stop-opacity:1"
         offset="1"
         id="stop1086" /></linearGradient><filter
       inkscape:collect="always"
       style="color-interpolation-filters:sRGB"
       id="filter1080"
       x="-1.08e-05"
       width="1.0000216"
       y="-1.08e-05"
       height="1.0000216"><feGaussianBlur
         inkscape:collect="always"
         stdDeviation="0.00024399653"
         id="feGaussianBlur1082" /></filter><path
       d="m 5.12877,-8.52403 c 0,-0.01196 0.07173,-0.19129 0.07173,-0.2152 0,-0.14346 -0.11955,-0.22715 -0.21519,-0.22715 -0.05978,0 -0.16738,0 -0.26302,0.26302 L 0.71731,2.54645 c 0,0.01196 -0.071731,0.19128 -0.071731,0.21519 0,0.14347 0.119552,0.22715 0.215193,0.22715 0.071731,0 0.179328,-0.01195 0.263018,-0.26301 z"
       id="g0-61" /><path
       d="m 6.01345,-7.99801 c 0.01195,-0.04782 0.03587,-0.11955 0.03587,-0.17932 0,-0.11956 -0.11956,-0.11956 -0.14347,-0.11956 -0.01195,0 -0.59776,0.04782 -0.65753,0.05978 -0.20324,0.01195 -0.38257,0.03586 -0.59776,0.04782 -0.29888,0.02391 -0.38256,0.03587 -0.38256,0.25106 0,0.11955 0.09564,0.11955 0.26301,0.11955 0.5858,0 0.59776,0.1076 0.59776,0.22715 0,0.07173 -0.02391,0.16737 -0.03587,0.20324 l -0.72926,2.9051 c -0.13151,-0.31083 -0.4543,-0.78904 -1.07597,-0.78904 -1.35093,0 -2.809463,1.74546 -2.809463,3.51482 0,1.183562 0.693403,1.876962 1.506353,1.876962 0.65753,0 1.21943,-0.514073 1.55417,-0.908593 0.11955,0.7053548 0.68144,0.908593 1.0401,0.908593 0.35866,0 0.64558,-0.2151933 0.86077,-0.645579 0.19128,-0.406476 0.35866,-1.135743 0.35866,-1.183563 0,-0.05977 -0.04782,-0.1076 -0.11956,-0.1076 -0.10759,0 -0.11955,0.05978 -0.16737,0.23911 -0.17933,0.705353 -0.40647,1.458528 -0.89664,1.458528 -0.34669,0 -0.37061,-0.310834 -0.37061,-0.549937 0,-0.047821 0,-0.29888 0.08369,-0.633621 z m -2.41494,6.57534 c -0.05978,0.20324 -0.05978,0.22715 -0.22715,0.454301 -0.26302,0.334745 -0.78904,0.848817 -1.35094,0.848817 -0.49016,0 -0.76513,-0.442341 -0.76513,-1.147698 0,-0.65753 0.37061,-1.99651 0.59776,-2.49863 0.40648,-0.83686 0.96837,-1.26725 1.43462,-1.26725 0.78904,0 0.94446,0.98033 0.94446,1.07597 0,0.01195 -0.03587,0.16737 -0.04782,0.19128 z"
       id="g0-100" /><path
       d="m 1.51831,-0.968369 c 0.51407,-0.585801 0.9325,-0.956411 1.53026,-1.494391 0.71731,-0.62167 1.02814,-0.92055 1.19551,-1.09988 0.83687,-0.82491 1.2553,-1.51831 1.2553,-1.61395 0,-0.09564 -0.09564,-0.09564 -0.11955,-0.09564 -0.08369,0 -0.1076,0.04782 -0.16738,0.13151 -0.29888,0.51407 -0.5858,0.76513 -0.89663,0.76513 -0.25106,0 -0.38257,-0.1076 -0.60972,-0.39452 -0.25106,-0.29888 -0.45429,-0.50212 -0.80099,-0.50212 -0.87273,0 -1.39876,1.08792 -1.39876,1.33898 0,0.03587 0.01196,0.1076 0.11955,0.1076 0.09564,0 0.1076,-0.04782 0.14346,-0.13151 0.20324,-0.47821 0.77709,-0.56189 1.00424,-0.56189 0.25106,0 0.49016,0.08368 0.74122,0.19128 0.4543,0.19128 0.64558,0.19128 0.76513,0.19128 0.08369,0 0.13151,0 0.19128,-0.01195 -0.39452,0.46625 -1.0401,1.0401 -1.57808,1.53026 l -1.20747,1.11183 c -0.729267,0.741219 -1.171608,1.4465742 -1.171608,1.5302603 0,0.071731 0.059776,0.0956417 0.131507,0.0956417 0.071731,0 0.083686,-0.011955 0.167372,-0.1554175 C 1.00423,-0.334745 1.3868,-0.777086 1.82914,-0.777086 c 0.25106,0 0.37061,0.083686 0.60971,0.382565 0.22715,0.263014 0.43039,0.514073 0.81296,0.514073 1.1716,0 1.84109,-1.518302 1.84109,-1.793272 0,-0.04782 -0.01195,-0.11956 -0.13151,-0.11956 -0.09564,0 -0.10759,0.04783 -0.14346,0.16738 -0.26301,0.705352 -0.96837,0.992276 -1.43462,0.992276 -0.25106,0 -0.49016,-0.083686 -0.74122,-0.191283 C 2.16389,-1.01619 2.03238,-1.01619 1.87696,-1.01619 c -0.11955,0 -0.25106,0 -0.35865,0.047821 z"
       id="g0-122" /><path
       d="m 5.35592,-3.82565 c 0,-0.99228 -0.05978,-1.96065 -0.49017,-2.86924 -0.49016,-0.99228 -1.35093,-1.2553 -1.93673,-1.2553 -0.6934,0 -1.54222,0.3467 -1.984562,1.33898 -0.334744,0.75318 -0.454296,1.4944 -0.454296,2.78556 0,1.15965 0.083686,2.03237 0.514068,2.881192 0.46626,0.9085925 1.29116,1.195517 1.91283,1.195517 1.0401,0 1.63786,-0.621669 1.98456,-1.315069 0.43038,-0.89664 0.4543,-2.06824 0.4543,-2.76164 z M 2.91706,0.0119552 c -0.38256,0 -1.15965,-0.2151932 -1.3868,-1.5183052 -0.13151,-0.71731 -0.13151,-1.6259 -0.13151,-2.46277 0,-0.98032 0,-1.865 0.19129,-2.57036 0.20324,-0.80099 0.81295,-1.1716 1.32702,-1.1716 0.4543,0 1.1477,0.27497 1.37485,1.30311 0.15541,0.68144 0.15541,1.6259 0.15541,2.43885 0,0.801 0,1.70959 -0.1315,2.43886 -0.22715,1.315067 -0.98033,1.5422152 -1.39876,1.5422152 z"
       id="g1-48" /><path
       d="M 5.26027,-2.00847 H 4.99726 C 4.96139,-1.80523 4.86575,-1.1477 4.7462,-0.956413 4.66252,-0.848817 3.98107,-0.848817 3.62242,-0.848817 H 1.41071 C 1.7335,-1.12379 2.46276,-1.88892 2.7736,-2.17584 c 1.81718,-1.67372 2.48667,-2.29539 2.48667,-3.47895 0,-1.37485 -1.08792,-2.2954 -2.47472,-2.2954 -1.3868,0 -2.199747,1.18356 -2.199747,2.21171 0,0.60971 0.526027,0.60971 0.561897,0.60971 0.25105,0 0.56189,-0.17932 0.56189,-0.56189 0,-0.33474 -0.22715,-0.56189 -0.56189,-0.56189 -0.1076,0 -0.13151,0 -0.167376,0.01195 0.227146,-0.81295 0.872726,-1.36289 1.649816,-1.36289 1.01619,0 1.63786,0.84882 1.63786,1.9487 0,1.01618 -0.58581,1.90087 -1.26725,2.666 L 0.585803,-0.286924 V 0 H 4.94944 Z"
       id="g1-50" /><path
       d="m 8.06974,-3.87347 c 0.16737,0 0.38256,0 0.38256,-0.2152 0,-0.22715 -0.20323,-0.22715 -0.38256,-0.22715 h -7.0416 c -0.167368,0 -0.382561,0 -0.382561,0.2152 0,0.22715 0.203238,0.22715 0.382561,0.22715 z m 0,2.22366 c 0.16737,0 0.38256,0 0.38256,-0.2152 0,-0.22714 -0.20323,-0.22714 -0.38256,-0.22714 h -7.0416 c -0.167368,0 -0.382561,0 -0.382561,0.21519 0,0.22715 0.203238,0.22715 0.382561,0.22715 z"
       id="g1-61" /><marker
       style="overflow:visible"
       id="marker1-3"
       refX="0"
       refY="0"
       orient="auto-start-reverse"
       inkscape:stockid="Stylized triangle arrow"
       markerWidth="1"
       markerHeight="1"
       viewBox="0 0 1 1"
       inkscape:isstock="true"
       inkscape:collect="always"
       preserveAspectRatio="xMidYMid"><path
         transform="scale(0.5)"
         style="fill:context-stroke;fill-rule:evenodd;stroke:context-stroke;stroke-width:1pt"
         d="m 6,0 c -3,1 -7,3 -9,5 0,0 0,-4 2,-5 -2,-1 -2,-5 -2,-5 2,2 6,4 9,5 z"
         id="path1-6" /></marker><marker
       style="overflow:visible"
       id="ArrowTriangleStylized-7"
       refX="0"
       refY="0"
       orient="auto-start-reverse"
       inkscape:stockid="Stylized triangle arrow"
       markerWidth="1"
       markerHeight="1"
       viewBox="0 0 1 1"
       inkscape:isstock="true"
       inkscape:collect="always"
       preserveAspectRatio="xMidYMid"><path
         transform="scale(0.5)"
         style="fill:context-stroke;fill-rule:evenodd;stroke:context-stroke;stroke-width:1pt"
         d="m 6,0 c -3,1 -7,3 -9,5 0,0 0,-4 2,-5 -2,-1 -2,-5 -2,-5 2,2 6,4 9,5 z"
         id="path4-5" /></marker><g
       id="g8"><g
         id="glyph-0-0"><path
           d="m 2.480469,-1.660156 h 3.21875 V -12.78125 l -3.5,0.703125 v -1.800781 l 3.480469,-0.699219 h 1.980468 v 12.917969 h 3.21875 V 0 H 2.480469 Z m 0,0"
           id="path1-9" /></g><g
         id="glyph-0-1"><path
           d="m 6.359375,-13.28125 c -1.019531,0 -1.78125,0.5 -2.300781,1.5 -0.519532,1 -0.757813,2.5 -0.757813,4.5 0,2 0.238281,3.5 0.757813,4.5 0.519531,1 1.28125,1.5 2.300781,1.5 1.019531,0 1.78125,-0.5 2.300781,-1.5 0.5,-1 0.761719,-2.5 0.761719,-4.5 0,-2 -0.261719,-3.5 -0.761719,-4.5 -0.519531,-1 -1.28125,-1.5 -2.300781,-1.5 z m 0,-1.558594 c 1.621094,0 2.859375,0.660156 3.742187,1.941406 0.859376,1.296876 1.296876,3.179688 1.296876,5.617188 0,2.460938 -0.4375,4.339844 -1.296876,5.621094 -0.882812,1.28125 -2.121093,1.921875 -3.761718,1.921875 -1.640625,0 -2.878906,-0.640625 -3.738282,-1.921875 -0.863281,-1.28125 -1.28125,-3.160156 -1.28125,-5.621094 0,-2.4375 0.417969,-4.320312 1.28125,-5.617188 0.859376,-1.28125 2.117188,-1.941406 3.757813,-1.941406 z m 0,0"
           id="path2" /></g><g
         id="glyph-0-2"><path
           d="M 3.839844,-1.660156 H 10.71875 V 0 H 1.460938 V -1.660156 C 2.199219,-2.421875 3.21875,-3.460938 4.519531,-4.78125 5.800781,-6.078125 6.621094,-6.921875 6.960938,-7.300781 7.601562,-8 8.039062,-8.601562 8.28125,-9.101562 c 0.238281,-0.476563 0.378906,-0.976563 0.378906,-1.457032 0,-0.761718 -0.28125,-1.402344 -0.820312,-1.882812 -0.539063,-0.480469 -1.238282,-0.738282 -2.121094,-0.738282 -0.617188,0 -1.277344,0.121094 -1.957031,0.320313 -0.683594,0.21875 -1.421875,0.539063 -2.203125,0.980469 v -2 c 0.800781,-0.320313 1.542968,-0.5625 2.222656,-0.722656 0.679688,-0.160157 1.320312,-0.238282 1.898438,-0.238282 1.5,0 2.699218,0.378906 3.601562,1.140625 0.898438,0.757813 1.359375,1.757813 1.359375,3.019531 0,0.601563 -0.121094,1.179688 -0.339844,1.699219 -0.222656,0.539063 -0.621093,1.179688 -1.222656,1.902344 -0.15625,0.199219 -0.679687,0.738281 -1.558594,1.636719 -0.878906,0.902344 -2.097656,2.160156 -3.679687,3.78125 z m 0,0"
           id="path3" /></g><g
         id="glyph-0-3"><path
           d="m 8.121094,-7.859375 c 0.9375,0.199219 1.679687,0.621094 2.199218,1.257813 0.519532,0.640624 0.800782,1.441406 0.800782,2.363281 0,1.4375 -0.5,2.558593 -1.480469,3.339843 -1,0.777344 -2.402344,1.160157 -4.21875,1.160157 -0.621094,0 -1.261719,-0.0625 -1.902344,-0.183594 -0.640625,-0.0976562 -1.320312,-0.277344 -2,-0.519531 v -1.898438 c 0.539063,0.320313 1.140625,0.558594 1.800781,0.71875 0.640626,0.160156 1.320313,0.242188 2.039063,0.242188 1.242187,0 2.179687,-0.242188 2.820313,-0.722656 0.640624,-0.476563 0.980468,-1.199219 0.980468,-2.136719 0,-0.839844 -0.300781,-1.523438 -0.898437,-2 C 7.660156,-6.71875 6.820312,-6.980469 5.738281,-6.980469 H 4.039062 v -1.621093 h 1.78125 c 0.960938,0 1.699219,-0.179688 2.21875,-0.578126 0.519532,-0.378906 0.78125,-0.941406 0.78125,-1.679687 0,-0.742187 -0.28125,-1.320313 -0.800781,-1.71875 -0.539062,-0.402344 -1.300781,-0.601563 -2.28125,-0.601563 -0.539062,0 -1.117187,0.05859 -1.738281,0.179688 -0.621094,0.121094 -1.300781,0.300781 -2.039062,0.539062 v -1.757812 c 0.738281,-0.203125 1.4375,-0.359375 2.097656,-0.460938 0.640625,-0.101562 1.261718,-0.160156 1.863281,-0.160156 1.476563,0 2.65625,0.339844 3.539063,1.019532 0.878906,0.679687 1.320312,1.601562 1.320312,2.761718 0,0.796875 -0.242188,1.480469 -0.703125,2.039063 -0.457031,0.558593 -1.117187,0.960937 -1.957031,1.160156 z m 0,0"
           id="path4-1" /></g><g
         id="glyph-0-4"><path
           d="m 7.558594,-12.859375 -4.980469,7.78125 h 4.980469 z m -0.519532,-1.71875 h 2.480469 v 9.5 h 2.082031 v 1.636719 H 9.519531 V 0 H 7.558594 V -3.441406 H 0.980469 v -1.898438 z m 0,0"
           id="path5" /></g><g
         id="glyph-0-5"><path
           d="m 2.160156,-14.578125 h 7.738282 v 1.65625 h -5.9375 v 3.582031 c 0.277343,-0.101562 0.578124,-0.179687 0.859374,-0.21875 0.28125,-0.042968 0.578126,-0.082031 0.859376,-0.082031 1.621093,0 2.898437,0.460937 3.859374,1.339844 0.960938,0.902343 1.441407,2.101562 1.441407,3.621093 0,1.578126 -0.5,2.800782 -1.480469,3.660157 C 8.519531,-0.160156 7.140625,0.261719 5.378906,0.261719 4.761719,0.261719 4.140625,0.199219 3.5,0.121094 2.859375,0.0195312 2.21875,-0.121094 1.539062,-0.339844 V -2.320312 C 2.121094,-2 2.71875,-1.761719 3.359375,-1.601562 c 0.621094,0.160156 1.28125,0.222656 1.980469,0.222656 1.121094,0 2.019531,-0.28125 2.679687,-0.882813 C 8.660156,-2.859375 9,-3.660156 9,-4.679688 c 0,-1 -0.339844,-1.800781 -0.980469,-2.398437 -0.660156,-0.601563 -1.558593,-0.902344 -2.679687,-0.902344 -0.519532,0 -1.058594,0.058594 -1.578125,0.179688 C 3.238281,-7.679688 2.699219,-7.5 2.160156,-7.261719 Z m 0,0"
           id="path6" /></g><g
         id="glyph-0-6"><path
           d="m 6.601562,-8.078125 c -0.882812,0 -1.582031,0.316406 -2.101562,0.917969 -0.519531,0.601562 -0.78125,1.441406 -0.78125,2.480468 0,1.058594 0.261719,1.898438 0.78125,2.5 0.519531,0.601563 1.21875,0.898438 2.101562,0.898438 0.878907,0 1.578126,-0.296875 2.097657,-0.898438 0.519531,-0.601562 0.78125,-1.441406 0.78125,-2.5 0,-1.039062 -0.261719,-1.878906 -0.78125,-2.480468 -0.519531,-0.601563 -1.21875,-0.917969 -2.097657,-0.917969 z m 3.917969,-6.183594 v 1.800781 c -0.5,-0.238281 -1,-0.417968 -1.5,-0.539062 C 8.5,-13.121094 8,-13.179688 7.519531,-13.179688 c -1.320312,0 -2.320312,0.441407 -3,1.320313 -0.679687,0.878906 -1.078125,2.21875 -1.160156,3.980469 0.378906,-0.5625 0.859375,-1 1.441406,-1.300782 0.578125,-0.300781 1.21875,-0.460937 1.917969,-0.460937 1.460938,0 2.621094,0.460937 3.460938,1.339844 0.839843,0.878906 1.28125,2.101562 1.28125,3.621093 0,1.5 -0.460938,2.699219 -1.339844,3.601563 -0.882813,0.898437 -2.0625,1.339844 -3.519532,1.339844 -1.679687,0 -2.980468,-0.640625 -3.863281,-1.921875 -0.898437,-1.28125 -1.339843,-3.160156 -1.339843,-5.621094 0,-2.296875 0.542968,-4.140625 1.640624,-5.5 1.082032,-1.359375 2.5625,-2.058594 4.402344,-2.058594 0.480469,0 0.980469,0.05859 1.5,0.140625 0.5,0.09766 1.019532,0.238281 1.578125,0.4375 z m 0,0"
           id="path7" /></g><g
         id="glyph-0-7"><path
           d="m 1.640625,-14.578125 h 9.378906 v 0.839844 L 5.71875,0 H 3.660156 l 4.980469,-12.921875 h -7 z m 0,0"
           id="path8" /></g></g><clipPath
       id="clip-0"><path
         clip-rule="nonzero"
         d="M 0,0 H 420.72266 V 314.47266 H 0 Z m 0,0"
         id="path9" /></clipPath><radialGradient
       inkscape:collect="always"
       xlink:href="#linearGradient40"
       id="radialGradient41"
       cx="54.674858"
       cy="118.38565"
       fx="54.674858"
       fy="118.38565"
       r="5.3688216"
       gradientTransform="matrix(0.57858073,0.14010906,-0.11651598,0.48115302,36.558809,54.105734)"
       gradientUnits="userSpaceOnUse" /><path
       d="m 6.01345,-7.99801 c 0.01195,-0.04782 0.03587,-0.11955 0.03587,-0.17932 0,-0.11956 -0.11956,-0.11956 -0.14347,-0.11956 -0.01195,0 -0.59776,0.04782 -0.65753,0.05978 -0.20324,0.01195 -0.38257,0.03586 -0.59776,0.04782 -0.29888,0.02391 -0.38256,0.03587 -0.38256,0.25106 0,0.11955 0.09564,0.11955 0.26301,0.11955 0.5858,0 0.59776,0.1076 0.59776,0.22715 0,0.07173 -0.02391,0.16737 -0.03587,0.20324 l -0.72926,2.9051 c -0.13151,-0.31083 -0.4543,-0.78904 -1.07597,-0.78904 -1.35093,0 -2.809463,1.74546 -2.809463,3.51482 0,1.183562 0.693403,1.876962 1.506353,1.876962 0.65753,0 1.21943,-0.514073 1.55417,-0.908593 0.11955,0.7053548 0.68144,0.908593 1.0401,0.908593 0.35866,0 0.64558,-0.2151933 0.86077,-0.645579 0.19128,-0.406476 0.35866,-1.135743 0.35866,-1.183563 0,-0.05977 -0.04782,-0.1076 -0.11956,-0.1076 -0.10759,0 -0.11955,0.05978 -0.16737,0.23911 -0.17933,0.705353 -0.40647,1.458528 -0.89664,1.458528 -0.34669,0 -0.37061,-0.310834 -0.37061,-0.549937 0,-0.047821 0,-0.29888 0.08369,-0.633621 z m -2.41494,6.57534 c -0.05978,0.20324 -0.05978,0.22715 -0.22715,0.454301 -0.26302,0.334745 -0.78904,0.848817 -1.35094,0.848817 -0.49016,0 -0.76513,-0.442341 -0.76513,-1.147698 0,-0.65753 0.37061,-1.99651 0.59776,-2.49863 0.40648,-0.83686 0.96837,-1.26725 1.43462,-1.26725 0.78904,0 0.94446,0.98033 0.94446,1.07597 0,0.01195 -0.03587,0.16737 -0.04782,0.19128 z"
       id="g0-100-2" /><path
       d="M 6.50361,-8.14147 H 0.490162 v 0.3467 h 0.239103 c 0.860775,0 0.896635,0.11955 0.896635,0.56189 v 6.324287 c 0,0.442341 -0.03586,0.561893 -0.896635,0.561893 H 0.490162 V 0 C 0.777086,-0.0239103 1.8411,-0.0239103 2.19975,-0.0239103 c 0.41843,0 1.47049,0 1.81719,0.0239103 V -0.3467 H 3.65828 c -1.0401,0 -1.06401,-0.143462 -1.06401,-0.573848 V -7.31656 c 0,-0.39452 0.02391,-0.47821 0.54994,-0.47821 h 1.2792 c 1.64982,0 1.96065,0.64558 2.12802,2.3193 h 0.26302 z"
       id="g1-0" /><path
       d="m 3.88543,2.90511 c 0,-0.03587 0,-0.05978 -0.20324,-0.26302 -1.19552,-1.20747 -1.865,-3.180073 -1.865,-5.61893 0,-2.3193 0.56189,-4.31581 1.94869,-5.72652 0.11955,-0.1076 0.11955,-0.13151 0.11955,-0.16737 0,-0.07174 -0.05978,-0.09565 -0.1076,-0.09565 -0.15541,0 -1.13574,0.86078 -1.72154,2.03238 -0.60971,1.20747 -0.88468,2.48668 -0.88468,3.95716 0,1.06401 0.16737,2.486678 0.78904,3.765881 C 2.666,2.22366 3.64633,3.00075 3.77783,3.00075 c 0.04782,0 0.1076,-0.02391 0.1076,-0.09564 z"
       id="g1-40" /><path
       d="m 3.37136,-2.97684 c 0,-0.90859 -0.11955,-2.39103 -0.78904,-3.77783 -0.70536,-1.43462 -1.685682,-2.21171 -1.817189,-2.21171 -0.047821,0 -0.107597,0.02391 -0.107597,0.09565 0,0.03586 0,0.05977 0.203238,0.26301 1.195518,1.20747 1.865008,3.18007 1.865008,5.61893 0,2.319301 -0.56189,4.31581 -1.948694,5.72652 -0.119552,0.1076 -0.119552,0.13151 -0.119552,0.16738 0,0.07173 0.059776,0.09564 0.107597,0.09564 0.155417,0 1.135739,-0.86077 1.721539,-2.032381 0.60972,-1.219428 0.88469,-2.510589 0.88469,-3.945209 z"
       id="g1-41" /></defs><sodipodi:namedview
     id="base"
     pagecolor="#ffffff"
     bordercolor="#666666"
     borderopacity="1.0"
     inkscape:pageopacity="0.0"
     inkscape:pageshadow="2"
     inkscape:zoom="1.8101934"
     inkscape:cx="179.26262"
     inkscape:cy="112.97136"
     inkscape:document-units="mm"
     inkscape:current-layer="layer1"
     inkscape:document-rotation="0"
     showgrid="false"
     fit-margin-top="0"
     fit-margin-left="0"
     fit-margin-right="0"
     fit-margin-bottom="0"
     inkscape:window-width="1920"
     inkscape:window-height="1023"
     inkscape:window-x="0"
     inkscape:window-y="33"
     inkscape:window-maximized="1"
     inkscape:showpageshadow="2"
     inkscape:pagecheckerboard="0"
     inkscape:deskcolor="#d1d1d1" /><metadata
     id="metadata2267"><rdf:RDF><cc:Work
         rdf:about=""><dc:format>image/svg+xml</dc:format><dc:type
           rdf:resource="http://purl.org/dc/dcmitype/StillImage" /></cc:Work></rdf:RDF></metadata><g
     inkscape:label="Calque 1"
     inkscape:groupmode="layer"
     id="layer1"
     transform="translate(-20.413905,-79.301088)"><path
       style="fill:none;stroke:#000000;stroke-width:0.265;stroke-linecap:butt;stroke-linejoin:miter;stroke-miterlimit:4;stroke-dasharray:1.06, 1.06;stroke-dashoffset:0;stroke-opacity:1"
       d="M 20.767872,106.03418 H 120.56055"
       id="path5505" /><circle
       style="fill:url(#radialGradient1090);fill-opacity:1;stroke:none;stroke-width:0.2;stroke-linecap:round;stroke-linejoin:round;stroke-dasharray:none;stroke-dashoffset:0;stroke-opacity:1;filter:url(#filter1080)"
       id="path1-36"
       r="27.110725"
       cy="50.834347"
       cx="139.56726"
       transform="matrix(0.27546713,0,0,0.27546713,31.742166,92.03099)" /><g
       id="g5383"
       style="fill:#605f60;fill-opacity:1;stroke:none;stroke-opacity:1"
       transform="translate(-2.3945574)"><rect
         style="fill:#605f60;fill-opacity:1;stroke:none;stroke-width:3;stroke-linecap:round;stroke-linejoin:round;stroke-miterlimit:4;stroke-dasharray:none;stroke-opacity:1"
         id="rect4837"
         width="96.189934"
         height="0.88092041"
         x="22.862444"
         y="87.027626"
         ry="0.40350431"
         rx="0" /><rect
         style="fill:#605f60;fill-opacity:1;stroke:none;stroke-width:3;stroke-linecap:round;stroke-linejoin:round;stroke-miterlimit:4;stroke-dasharray:none;stroke-opacity:1"
         id="rect4837-3-28"
         width="9.1804905"
         height="0.94970381"
         x="-64.106552"
         y="63.328636"
         ry="0.19008298"
         rx="0.19008298"
         transform="rotate(-60)" /><rect
         style="fill:#605f60;fill-opacity:1;stroke:none;stroke-width:3;stroke-linecap:round;stroke-linejoin:round;stroke-miterlimit:4;stroke-dasharray:none;stroke-opacity:1"
         id="rect4837-3-28-5"
         width="9.1804905"
         height="0.94970381"
         x="-62.036961"
         y="66.913269"
         ry="0.19008298"
         rx="0.19008298"
         transform="rotate(-60)" /><rect
         style="fill:#605f60;fill-opacity:1;stroke:none;stroke-width:3;stroke-linecap:round;stroke-linejoin:round;stroke-miterlimit:4;stroke-dasharray:none;stroke-opacity:1"
         id="rect4837-3-28-0"
         width="9.1804905"
         height="0.94970381"
         x="-59.967369"
         y="70.49791"
         ry="0.19008298"
         rx="0.19008298"
         transform="rotate(-60)" /><rect
         style="fill:#605f60;fill-opacity:1;stroke:none;stroke-width:3;stroke-linecap:round;stroke-linejoin:round;stroke-miterlimit:4;stroke-dasharray:none;stroke-opacity:1"
         id="rect4837-3-28-3"
         width="9.1804905"
         height="0.94970381"
         x="-57.897778"
         y="74.082542"
         ry="0.19008298"
         rx="0.19008298"
         transform="rotate(-60)" /><rect
         style="fill:#605f60;fill-opacity:1;stroke:none;stroke-width:3;stroke-linecap:round;stroke-linejoin:round;stroke-miterlimit:4;stroke-dasharray:none;stroke-opacity:1"
         id="rect4837-3-28-1"
         width="9.1804905"
         height="0.94970381"
         x="-55.82819"
         y="77.667175"
         ry="0.19008298"
         rx="0.19008298"
         transform="rotate(-60)" /><rect
         style="fill:#605f60;fill-opacity:1;stroke:none;stroke-width:3;stroke-linecap:round;stroke-linejoin:round;stroke-miterlimit:4;stroke-dasharray:none;stroke-opacity:1"
         id="rect4837-3-28-32"
         width="9.1804905"
         height="0.94970381"
         x="-53.758591"
         y="81.251823"
         ry="0.19008298"
         rx="0.19008298"
         transform="rotate(-60)" /><rect
         style="fill:#605f60;fill-opacity:1;stroke:none;stroke-width:3;stroke-linecap:round;stroke-linejoin:round;stroke-miterlimit:4;stroke-dasharray:none;stroke-opacity:1"
         id="rect4837-3-28-061"
         width="9.1804905"
         height="0.94970381"
         x="-51.689007"
         y="84.836449"
         ry="0.19008298"
         rx="0.19008298"
         transform="rotate(-60)" /><rect
         style="fill:#605f60;fill-opacity:1;stroke:none;stroke-width:3;stroke-linecap:round;stroke-linejoin:round;stroke-miterlimit:4;stroke-dasharray:none;stroke-opacity:1"
         id="rect4837-3-28-7"
         width="9.1804905"
         height="0.94970381"
         x="-49.619415"
         y="88.421089"
         ry="0.19008298"
         rx="0.19008298"
         transform="rotate(-60)" /><rect
         style="fill:#605f60;fill-opacity:1;stroke:none;stroke-width:3;stroke-linecap:round;stroke-linejoin:round;stroke-miterlimit:4;stroke-dasharray:none;stroke-opacity:1"
         id="rect4837-3-28-65"
         width="9.1804905"
         height="0.94970381"
         x="-47.549824"
         y="92.005722"
         ry="0.19008298"
         rx="0.19008298"
         transform="rotate(-60)" /><rect
         style="fill:#605f60;fill-opacity:1;stroke:none;stroke-width:3;stroke-linecap:round;stroke-linejoin:round;stroke-miterlimit:4;stroke-dasharray:none;stroke-opacity:1"
         id="rect4837-3-28-37"
         width="9.1804905"
         height="0.94970381"
         x="-45.480232"
         y="95.590363"
         ry="0.19008298"
         rx="0.19008298"
         transform="rotate(-60)" /><rect
         style="fill:#605f60;fill-opacity:1;stroke:none;stroke-width:3;stroke-linecap:round;stroke-linejoin:round;stroke-miterlimit:4;stroke-dasharray:none;stroke-opacity:1"
         id="rect4837-3-28-2"
         width="9.1804905"
         height="0.94970381"
         x="-43.410641"
         y="99.175003"
         ry="0.19008298"
         rx="0.19008298"
         transform="rotate(-60)" /><rect
         style="fill:#605f60;fill-opacity:1;stroke:none;stroke-width:3;stroke-linecap:round;stroke-linejoin:round;stroke-miterlimit:4;stroke-dasharray:none;stroke-opacity:1"
         id="rect4837-3-28-74"
         width="9.1804905"
         height="0.94970381"
         x="-41.341049"
         y="102.75964"
         ry="0.19008298"
         rx="0.19008298"
         transform="rotate(-60)" /><rect
         style="fill:#605f60;fill-opacity:1;stroke:none;stroke-width:3;stroke-linecap:round;stroke-linejoin:round;stroke-miterlimit:4;stroke-dasharray:none;stroke-opacity:1"
         id="rect4837-3-28-07"
         width="9.1804905"
         height="0.94970381"
         x="-39.271458"
         y="106.34428"
         ry="0.19008298"
         rx="0.19008298"
         transform="rotate(-60)" /><rect
         style="fill:#605f60;fill-opacity:1;stroke:none;stroke-width:3;stroke-linecap:round;stroke-linejoin:round;stroke-miterlimit:4;stroke-dasharray:none;stroke-opacity:1"
         id="rect4837-3-28-8"
         width="9.1804905"
         height="0.94970381"
         x="-35.132278"
         y="113.51354"
         ry="0.19008298"
         rx="0.19008298"
         transform="rotate(-60)" /><rect
         style="fill:#605f60;fill-opacity:1;stroke:none;stroke-width:3;stroke-linecap:round;stroke-linejoin:round;stroke-miterlimit:4;stroke-dasharray:none;stroke-opacity:1"
         id="rect4837-3-28-68"
         width="9.1804905"
         height="0.94970381"
         x="-33.062687"
         y="117.09818"
         ry="0.19008298"
         rx="0.19008298"
         transform="rotate(-60)" /><rect
         style="fill:#605f60;fill-opacity:1;stroke:none;stroke-width:3;stroke-linecap:round;stroke-linejoin:round;stroke-miterlimit:4;stroke-dasharray:none;stroke-opacity:1"
         id="rect4837-3-28-84"
         width="9.1804905"
         height="0.94970381"
         x="-28.923502"
         y="124.26746"
         ry="0.19008298"
         rx="0.19008298"
         transform="rotate(-60)" /><rect
         style="fill:#605f60;fill-opacity:1;stroke:none;stroke-width:3;stroke-linecap:round;stroke-linejoin:round;stroke-miterlimit:4;stroke-dasharray:none;stroke-opacity:1"
         id="rect4837-3-28-31"
         width="9.1804905"
         height="0.94970381"
         x="-26.853918"
         y="127.85209"
         ry="0.19008298"
         rx="0.19008298"
         transform="rotate(-60)" /><rect
         style="fill:#605f60;fill-opacity:1;stroke:none;stroke-width:3;stroke-linecap:round;stroke-linejoin:round;stroke-miterlimit:4;stroke-dasharray:none;stroke-opacity:1"
         id="rect4837-3-28-49"
         width="9.1804905"
         height="0.94970381"
         x="-24.784328"
         y="131.43672"
         ry="0.19008298"
         rx="0.19008298"
         transform="rotate(-60)" /><rect
         style="fill:#605f60;fill-opacity:1;stroke:none;stroke-width:3;stroke-linecap:round;stroke-linejoin:round;stroke-miterlimit:4;stroke-dasharray:none;stroke-opacity:1"
         id="rect4837-3-28-20"
         width="9.1804905"
         height="0.94970381"
         x="-22.714735"
         y="135.02136"
         ry="0.19008298"
         rx="0.19008298"
         transform="rotate(-60)" /><rect
         style="fill:#605f60;fill-opacity:1;stroke:none;stroke-width:3;stroke-linecap:round;stroke-linejoin:round;stroke-miterlimit:4;stroke-dasharray:none;stroke-opacity:1"
         id="rect4837-3-28-689"
         width="9.1804905"
         height="0.94970381"
         x="-20.645144"
         y="138.606"
         ry="0.19008298"
         rx="0.19008298"
         transform="rotate(-60)" /><rect
         style="fill:#605f60;fill-opacity:1;stroke:none;stroke-width:3;stroke-linecap:round;stroke-linejoin:round;stroke-miterlimit:4;stroke-dasharray:none;stroke-opacity:1"
         id="rect4837-3-28-26"
         width="9.1804905"
         height="0.94970381"
         x="-18.57555"
         y="142.19064"
         ry="0.19008298"
         rx="0.19008298"
         transform="rotate(-60)" /><rect
         style="fill:#605f60;fill-opacity:1;stroke:none;stroke-width:3;stroke-linecap:round;stroke-linejoin:round;stroke-miterlimit:4;stroke-dasharray:none;stroke-opacity:1"
         id="rect4837-3-28-64"
         width="9.1804905"
         height="0.94970381"
         x="-16.505964"
         y="145.77527"
         ry="0.19008298"
         rx="0.19008298"
         transform="rotate(-60)" /><rect
         style="fill:#605f60;fill-opacity:1;stroke:none;stroke-width:3;stroke-linecap:round;stroke-linejoin:round;stroke-miterlimit:4;stroke-dasharray:none;stroke-opacity:1"
         id="rect4837-3-28-9"
         width="9.1804905"
         height="0.94970381"
         x="-30.993093"
         y="120.68282"
         ry="0.19008298"
         rx="0.19008298"
         transform="rotate(-60)" /><rect
         style="fill:#605f60;fill-opacity:1;stroke:none;stroke-width:3;stroke-linecap:round;stroke-linejoin:round;stroke-miterlimit:4;stroke-dasharray:none;stroke-opacity:1"
         id="rect4837-3-28-50"
         width="9.1804905"
         height="0.94970381"
         x="-37.20187"
         y="109.92891"
         ry="0.19008298"
         rx="0.19008298"
         transform="rotate(-60)" /></g><g
       id="g5383-7"
       style="fill:#605f60;fill-opacity:1;stroke:none;stroke-opacity:1"
       transform="rotate(180,71.874656,106.03418)"><rect
         style="fill:#605f60;fill-opacity:1;stroke:none;stroke-width:3;stroke-linecap:round;stroke-linejoin:round;stroke-miterlimit:4;stroke-dasharray:none;stroke-opacity:1"
         id="rect4837-1"
         width="96.189934"
         height="0.88092041"
         x="22.862444"
         y="87.027626"
         ry="0.40350431"
         rx="0" /><rect
         style="fill:#605f60;fill-opacity:1;stroke:none;stroke-width:3;stroke-linecap:round;stroke-linejoin:round;stroke-miterlimit:4;stroke-dasharray:none;stroke-opacity:1"
         id="rect4837-3-28-72"
         width="9.1804905"
         height="0.94970381"
         x="-64.106552"
         y="63.328636"
         ry="0.19008298"
         rx="0.19008298"
         transform="rotate(-60)" /><rect
         style="fill:#605f60;fill-opacity:1;stroke:none;stroke-width:3;stroke-linecap:round;stroke-linejoin:round;stroke-miterlimit:4;stroke-dasharray:none;stroke-opacity:1"
         id="rect4837-3-28-5-7"
         width="9.1804905"
         height="0.94970381"
         x="-62.036961"
         y="66.913269"
         ry="0.19008298"
         rx="0.19008298"
         transform="rotate(-60)" /><rect
         style="fill:#605f60;fill-opacity:1;stroke:none;stroke-width:3;stroke-linecap:round;stroke-linejoin:round;stroke-miterlimit:4;stroke-dasharray:none;stroke-opacity:1"
         id="rect4837-3-28-0-2"
         width="9.1804905"
         height="0.94970381"
         x="-59.967369"
         y="70.49791"
         ry="0.19008298"
         rx="0.19008298"
         transform="rotate(-60)" /><rect
         style="fill:#605f60;fill-opacity:1;stroke:none;stroke-width:3;stroke-linecap:round;stroke-linejoin:round;stroke-miterlimit:4;stroke-dasharray:none;stroke-opacity:1"
         id="rect4837-3-28-3-2"
         width="9.1804905"
         height="0.94970381"
         x="-57.897778"
         y="74.082542"
         ry="0.19008298"
         rx="0.19008298"
         transform="rotate(-60)" /><rect
         style="fill:#605f60;fill-opacity:1;stroke:none;stroke-width:3;stroke-linecap:round;stroke-linejoin:round;stroke-miterlimit:4;stroke-dasharray:none;stroke-opacity:1"
         id="rect4837-3-28-1-6"
         width="9.1804905"
         height="0.94970381"
         x="-55.82819"
         y="77.667175"
         ry="0.19008298"
         rx="0.19008298"
         transform="rotate(-60)" /><rect
         style="fill:#605f60;fill-opacity:1;stroke:none;stroke-width:3;stroke-linecap:round;stroke-linejoin:round;stroke-miterlimit:4;stroke-dasharray:none;stroke-opacity:1"
         id="rect4837-3-28-32-1"
         width="9.1804905"
         height="0.94970381"
         x="-53.758591"
         y="81.251823"
         ry="0.19008298"
         rx="0.19008298"
         transform="rotate(-60)" /><rect
         style="fill:#605f60;fill-opacity:1;stroke:none;stroke-width:3;stroke-linecap:round;stroke-linejoin:round;stroke-miterlimit:4;stroke-dasharray:none;stroke-opacity:1"
         id="rect4837-3-28-061-0"
         width="9.1804905"
         height="0.94970381"
         x="-51.689007"
         y="84.836449"
         ry="0.19008298"
         rx="0.19008298"
         transform="rotate(-60)" /><rect
         style="fill:#605f60;fill-opacity:1;stroke:none;stroke-width:3;stroke-linecap:round;stroke-linejoin:round;stroke-miterlimit:4;stroke-dasharray:none;stroke-opacity:1"
         id="rect4837-3-28-7-6"
         width="9.1804905"
         height="0.94970381"
         x="-49.619415"
         y="88.421089"
         ry="0.19008298"
         rx="0.19008298"
         transform="rotate(-60)" /><rect
         style="fill:#605f60;fill-opacity:1;stroke:none;stroke-width:3;stroke-linecap:round;stroke-linejoin:round;stroke-miterlimit:4;stroke-dasharray:none;stroke-opacity:1"
         id="rect4837-3-28-65-1"
         width="9.1804905"
         height="0.94970381"
         x="-47.549824"
         y="92.005722"
         ry="0.19008298"
         rx="0.19008298"
         transform="rotate(-60)" /><rect
         style="fill:#605f60;fill-opacity:1;stroke:none;stroke-width:3;stroke-linecap:round;stroke-linejoin:round;stroke-miterlimit:4;stroke-dasharray:none;stroke-opacity:1"
         id="rect4837-3-28-37-5"
         width="9.1804905"
         height="0.94970381"
         x="-45.480232"
         y="95.590363"
         ry="0.19008298"
         rx="0.19008298"
         transform="rotate(-60)" /><rect
         style="fill:#605f60;fill-opacity:1;stroke:none;stroke-width:3;stroke-linecap:round;stroke-linejoin:round;stroke-miterlimit:4;stroke-dasharray:none;stroke-opacity:1"
         id="rect4837-3-28-2-9"
         width="9.1804905"
         height="0.94970381"
         x="-43.410641"
         y="99.175003"
         ry="0.19008298"
         rx="0.19008298"
         transform="rotate(-60)" /><rect
         style="fill:#605f60;fill-opacity:1;stroke:none;stroke-width:3;stroke-linecap:round;stroke-linejoin:round;stroke-miterlimit:4;stroke-dasharray:none;stroke-opacity:1"
         id="rect4837-3-28-74-4"
         width="9.1804905"
         height="0.94970381"
         x="-41.341049"
         y="102.75964"
         ry="0.19008298"
         rx="0.19008298"
         transform="rotate(-60)" /><rect
         style="fill:#605f60;fill-opacity:1;stroke:none;stroke-width:3;stroke-linecap:round;stroke-linejoin:round;stroke-miterlimit:4;stroke-dasharray:none;stroke-opacity:1"
         id="rect4837-3-28-07-9"
         width="9.1804905"
         height="0.94970381"
         x="-39.271458"
         y="106.34428"
         ry="0.19008298"
         rx="0.19008298"
         transform="rotate(-60)" /><rect
         style="fill:#605f60;fill-opacity:1;stroke:none;stroke-width:3;stroke-linecap:round;stroke-linejoin:round;stroke-miterlimit:4;stroke-dasharray:none;stroke-opacity:1"
         id="rect4837-3-28-8-0"
         width="9.1804905"
         height="0.94970381"
         x="-35.132278"
         y="113.51354"
         ry="0.19008298"
         rx="0.19008298"
         transform="rotate(-60)" /><rect
         style="fill:#605f60;fill-opacity:1;stroke:none;stroke-width:3;stroke-linecap:round;stroke-linejoin:round;stroke-miterlimit:4;stroke-dasharray:none;stroke-opacity:1"
         id="rect4837-3-28-68-9"
         width="9.1804905"
         height="0.94970381"
         x="-33.062687"
         y="117.09818"
         ry="0.19008298"
         rx="0.19008298"
         transform="rotate(-60)" /><rect
         style="fill:#605f60;fill-opacity:1;stroke:none;stroke-width:3;stroke-linecap:round;stroke-linejoin:round;stroke-miterlimit:4;stroke-dasharray:none;stroke-opacity:1"
         id="rect4837-3-28-84-1"
         width="9.1804905"
         height="0.94970381"
         x="-28.923502"
         y="124.26746"
         ry="0.19008298"
         rx="0.19008298"
         transform="rotate(-60)" /><rect
         style="fill:#605f60;fill-opacity:1;stroke:none;stroke-width:3;stroke-linecap:round;stroke-linejoin:round;stroke-miterlimit:4;stroke-dasharray:none;stroke-opacity:1"
         id="rect4837-3-28-31-7"
         width="9.1804905"
         height="0.94970381"
         x="-26.853918"
         y="127.85209"
         ry="0.19008298"
         rx="0.19008298"
         transform="rotate(-60)" /><rect
         style="fill:#605f60;fill-opacity:1;stroke:none;stroke-width:3;stroke-linecap:round;stroke-linejoin:round;stroke-miterlimit:4;stroke-dasharray:none;stroke-opacity:1"
         id="rect4837-3-28-49-7"
         width="9.1804905"
         height="0.94970381"
         x="-24.784328"
         y="131.43672"
         ry="0.19008298"
         rx="0.19008298"
         transform="rotate(-60)" /><rect
         style="fill:#605f60;fill-opacity:1;stroke:none;stroke-width:3;stroke-linecap:round;stroke-linejoin:round;stroke-miterlimit:4;stroke-dasharray:none;stroke-opacity:1"
         id="rect4837-3-28-20-1"
         width="9.1804905"
         height="0.94970381"
         x="-22.714735"
         y="135.02136"
         ry="0.19008298"
         rx="0.19008298"
         transform="rotate(-60)" /><rect
         style="fill:#605f60;fill-opacity:1;stroke:none;stroke-width:3;stroke-linecap:round;stroke-linejoin:round;stroke-miterlimit:4;stroke-dasharray:none;stroke-opacity:1"
         id="rect4837-3-28-689-1"
         width="9.1804905"
         height="0.94970381"
         x="-20.645144"
         y="138.606"
         ry="0.19008298"
         rx="0.19008298"
         transform="rotate(-60)" /><rect
         style="fill:#605f60;fill-opacity:1;stroke:none;stroke-width:3;stroke-linecap:round;stroke-linejoin:round;stroke-miterlimit:4;stroke-dasharray:none;stroke-opacity:1"
         id="rect4837-3-28-26-5"
         width="9.1804905"
         height="0.94970381"
         x="-18.57555"
         y="142.19064"
         ry="0.19008298"
         rx="0.19008298"
         transform="rotate(-60)" /><rect
         style="fill:#605f60;fill-opacity:1;stroke:none;stroke-width:3;stroke-linecap:round;stroke-linejoin:round;stroke-miterlimit:4;stroke-dasharray:none;stroke-opacity:1"
         id="rect4837-3-28-64-9"
         width="9.1804905"
         height="0.94970381"
         x="-16.505964"
         y="145.77527"
         ry="0.19008298"
         rx="0.19008298"
         transform="rotate(-60)" /><rect
         style="fill:#605f60;fill-opacity:1;stroke:none;stroke-width:3;stroke-linecap:round;stroke-linejoin:round;stroke-miterlimit:4;stroke-dasharray:none;stroke-opacity:1"
         id="rect4837-3-28-9-7"
         width="9.1804905"
         height="0.94970381"
         x="-30.993093"
         y="120.68282"
         ry="0.19008298"
         rx="0.19008298"
         transform="rotate(-60)" /><rect
         style="fill:#605f60;fill-opacity:1;stroke:none;stroke-width:3;stroke-linecap:round;stroke-linejoin:round;stroke-miterlimit:4;stroke-dasharray:none;stroke-opacity:1"
         id="rect4837-3-28-50-7"
         width="9.1804905"
         height="0.94970381"
         x="-37.20187"
         y="109.92891"
         ry="0.19008298"
         rx="0.19008298"
         transform="rotate(-60)" /></g><rect
       style="fill:#ffffff;fill-opacity:1;stroke:none;stroke-width:0.264999;stroke-linecap:round;stroke-linejoin:round;stroke-miterlimit:4;stroke-dasharray:1.06, 1.06;stroke-dashoffset:0;stroke-opacity:1"
       id="rect5632"
       width="12.658468"
       height="4.3822913"
       x="33.420155"
       y="103.84303"
       rx="0.19008303"
       ry="0.19008303" /><g
       id="g5625"
       transform="translate(30.596021,62.920126)"><use
         x="219.341"
         xlink:href="#g0-122"
         y="92.154404"
         id="use5580"
         width="100%"
         height="100%"
         transform="matrix(0.44097223,0,0,0.44097223,-93.531849,4.1740735)" /><use
         x="228.612"
         xlink:href="#g1-61"
         y="92.154404"
         id="use5582"
         width="100%"
         height="100%"
         transform="matrix(0.44097223,0,0,0.44097223,-93.531849,4.1740735)" /><use
         x="241.00301"
         xlink:href="#g1-48"
         y="92.154404"
         id="use5584"
         width="100%"
         height="100%"
         transform="matrix(0.44097223,0,0,0.44097223,-93.531849,4.1740735)" /></g><use
       x="240.828"
       xlink:href="#g0-100"
       y="109.589"
       id="use5586"
       width="100%"
       height="100%"
       transform="matrix(0.44097223,0,0,0.44097223,-25.658223,49.307864)" /><g
       id="g5630"
       transform="translate(47.400413,36.960424)"><use
         x="229.12199"
         xlink:href="#g0-100"
         y="127.024"
         id="use5588"
         width="100%"
         height="100%"
         transform="matrix(0.44097223,0,0,0.44097223,-93.531849,4.1740735)" /><use
         x="235.18201"
         xlink:href="#g0-61"
         y="127.024"
         id="use5590"
         width="100%"
         height="100%"
         transform="matrix(0.44097223,0,0,0.44097223,-93.531849,4.1740735)" /><use
         x="241.013"
         xlink:href="#g1-50"
         y="127.024"
         id="use5592"
         width="100%"
         height="100%"
         transform="matrix(0.44097223,0,0,0.44097223,-93.531849,4.1740735)" /></g><path
       style="fill:none;stroke:#000000;stroke-width:0.265;stroke-linecap:butt;stroke-linejoin:miter;stroke-miterlimit:4;stroke-dasharray:none;stroke-opacity:1;marker-start:url(#marker1);marker-end:url(#ArrowTriangleStylized)"
       d="m 79.786733,88.993583 -0.02021,34.050107"
       id="path5634"
       sodipodi:nodetypes="cc" /><path
       style="fill:none;stroke:#000000;stroke-width:0.265;stroke-linecap:butt;stroke-linejoin:miter;stroke-miterlimit:4;stroke-dasharray:none;stroke-opacity:1;marker-start:url(#marker1-3);marker-end:url(#ArrowTriangleStylized-7)"
       d="m 54.18617,88.97041 -0.02021,16.21373"
       id="path5634-3"
       sodipodi:nodetypes="cc" /><path
       fill="none"
       stroke-width="0.205328"
       stroke-linecap="square"
       stroke-linejoin="round"
       stroke="#000000"
       stroke-opacity="1"
       stroke-miterlimit="10"
       d="m 90.632877,87.490327 -0.910073,3.749382 -0.454507,2.004088 -0.357185,1.707326 -0.288208,1.521788 -0.242757,1.447996 -0.199448,1.37313 -0.158274,1.299343 -0.122984,1.26191 -0.08983,1.22503 -0.05989,1.22502 -0.02833,1.22448 0.0022,1.18812 0.03314,1.22503 0.06415,1.22448 0.09464,1.22501 0.127796,1.26192 0.16255,1.29934 0.197844,1.33624 0.23955,1.41056 0.290345,1.52179 0.350773,1.67043 0.429904,1.89286 0.58925,2.45005 0.32938,1.33624"
       id="path31"
       style="stroke-dasharray:0.410656, 0.821312;stroke-dashoffset:0.862378;marker-start:url(#marker39);marker-end:url(#Dot)" /><path
       fill="none"
       stroke-width="0.205328"
       stroke-linecap="square"
       stroke-linejoin="round"
       stroke="#000000"
       stroke-opacity="1"
       stroke-miterlimit="10"
       d="m 97.918871,87.490373 -0.936264,1.9303 -0.468938,1.039477 -0.353443,0.853398 -0.29089,0.779604 -0.243295,0.742715 -0.18874,0.667848 -0.156684,0.66838 -0.117096,0.630958 -0.0855,0.630959 -0.05081,0.593524 -0.02194,0.594068 0.0071,0.594067 0.03734,0.594057 0.06632,0.593524 0.101007,0.630959 0.132605,0.630963 0.171641,0.668376 0.214951,0.70529 0.259874,0.74217 0.305327,0.77961 0.382837,0.89083 0.481783,1.03947 0.76089,1.55868 0.918623,1.89341 0.469469,1.03893 0.353984,0.85393 0.291421,0.7796 0.244897,0.74218 0.18929,0.66838 0.15773,0.66786 0.11764,0.63095 0.0866,0.63097 0.0519,0.59406 0.0225,0.59407 -0.006,0.59352 -0.0364,0.59406 -0.0652,0.59406 -0.1006,0.63096 -0.13154,0.63095 -0.17111,0.66786 -0.21388,0.70528 -0.258795,0.74272 -0.304245,0.77906 -0.382317,0.89136 -0.481233,1.03895 -0.742718,1.52177 -0.01826,0.0373"
       id="path32"
       style="stroke:#000000;stroke-width:0.205;stroke-dasharray:0.41, 0.82;stroke-dashoffset:0.861;stroke-opacity:1;marker-start:url(#marker39);marker-end:url(#Dot)" /><path
       fill="none"
       stroke-width="0.205328"
       stroke-linecap="square"
       stroke-linejoin="round"
       stroke="#000000"
       stroke-opacity="1"
       stroke-miterlimit="10"
       d="m 105.20311,87.490281 -1.00525,1.039477 -0.49514,0.556629 -0.35879,0.44542 -0.29142,0.408508 -0.22992,0.371097 -0.17485,0.334195 -0.1417,0.334184 -0.10747,0.333665 -0.0652,0.297294 -0.0363,0.296762 -0.007,0.296762 0.0224,0.297305 0.0518,0.296763 0.0807,0.296763 0.12351,0.334195 0.15775,0.334195 0.21227,0.371087 0.24811,0.371086 0.3096,0.408518 0.40691,0.482311 0.51225,0.557166 0.83361,0.853397 0.93361,0.965143 0.49728,0.556635 0.36093,0.445409 0.29461,0.408519 0.23207,0.371096 0.19517,0.371094 0.14117,0.334194 0.1064,0.33419 0.0642,0.29675 0.0353,0.29731 0.006,0.29677 -0.0236,0.29676 -0.0529,0.2973 -0.0813,0.29677 -0.12512,0.33418 -0.15828,0.33366 -0.21335,0.37162 -0.24864,0.3711 -0.31066,0.40798 -0.40799,0.48284 -0.51278,0.55663 -0.86997,0.89083 -0.89671,0.92826 -0.49674,0.55663 -0.35986,0.44541 -0.29356,0.40799 -0.23153,0.37161 -0.19409,0.37109 -0.1401,0.33419 -0.10534,0.33366 -0.0637,0.2973 -0.0348,0.29677 -0.005,0.29676 0.0246,0.2973 0.0535,0.29676 0.0823,0.29677 0.12566,0.33418 0.15934,0.33421 0.21441,0.37108 0.24971,0.37109 0.31121,0.40852 0.40852,0.48231 0.51332,0.55716 0.8705,0.89083 0.89617,0.92771 0.49621,0.55665 0.35933,0.4454 0.29248,0.40852 0.23046,0.3711 0.19303,0.37108 0.13903,0.3342 0.1048,0.33418 0.0626,0.29677 0.0337,0.29677 0.004,0.29729 -0.0251,0.29676 -0.0546,0.29677 -0.0828,0.29731 -0.12726,0.33418 -0.16042,0.33366 -0.21495,0.37161 -0.25024,0.37108 -0.31228,0.40799 -0.40958,0.48284 -0.51386,0.55664 -0.76089,0.77961"
       id="path33"
       style="stroke-dasharray:0.410656, 0.821312;stroke-dashoffset:0.862378;marker-start:url(#marker39);marker-end:url(#Dot)" /><path
       fill="none"
       stroke-width="0.205328"
       stroke-linecap="square"
       stroke-linejoin="round"
       stroke="#000000"
       stroke-opacity="1"
       stroke-miterlimit="10"
       d="m 112.48912,87.490327 -1.1416,0.594062 -0.57268,0.334195 -0.3866,0.259867 -0.27965,0.222439 -0.19196,0.185543 -0.15186,0.185548 -0.10805,0.185537 -0.0545,0.148658 -0.0257,0.148647 0.004,0.148647 0.0337,0.148116 0.0625,0.148647 0.0914,0.148646 0.1524,0.185548 0.19302,0.185549 0.28073,0.222439 0.38766,0.259862 0.50637,0.296762 0.69887,0.371628 1.85008,0.965154 0.48927,0.296763 0.36789,0.25986 0.26146,0.222439 0.17485,0.185549 0.13315,0.185548 0.0754,0.148648 0.0465,0.148647 0.0171,0.148115 -0.0127,0.148646 -0.0417,0.148648 -0.0706,0.148115 -0.1278,0.18608 -0.17004,0.185549 -0.2096,0.185538 -0.29837,0.222439 -0.40478,0.259871 -0.52188,0.297294 -0.855,0.445421 -1.3603,0.704739 -0.51118,0.297305 -0.39248,0.259872 -0.28607,0.222428 -0.19784,0.185549 -0.15773,0.185548 -0.11497,0.186079 -0.0599,0.148116 -0.031,0.148647 -0.001,0.148647 0.0279,0.148116 0.0572,0.148647 0.086,0.148642 0.14598,0.185558 0.18714,0.185546 0.27431,0.22244 0.32296,0.22297 0.4283,0.25986 0.61118,0.33366 2.3864,1.26245 0.39997,0.25987 0.29356,0.22244 0.24061,0.22298 0.15666,0.18554 0.11391,0.18554 0.0594,0.14811 0.0299,0.14866 v 0.14865 l -0.0289,0.1481 -0.0584,0.14867 -0.0866,0.14864 -0.14706,0.18555 -0.18821,0.18553 -0.27537,0.22244 -0.32404,0.22297 -0.42884,0.25988 -0.61224,0.33419 -2.38533,1.26191 -0.3989,0.25987 -0.29196,0.22244 -0.24008,0.22298 -0.15559,0.18554 -0.11283,0.18554 -0.0577,0.14866 -0.0294,0.14811 3.8e-4,0.14864 0.0299,0.14866 0.0594,0.14811 0.0871,0.14864 0.14866,0.18555 0.18874,0.18555 0.27699,0.22297 0.32456,0.22244 0.42991,0.25987 0.61277,0.3342 2.38427,1.26191 0.39783,0.25986 0.29142,0.22297 0.23848,0.22244 0.15453,0.18555 0.11175,0.18556 0.0572,0.14864 0.0279,0.14864 -10e-4,0.14812 -0.031,0.14865 -0.0599,0.14864 -0.0888,0.14812 -0.14919,0.18555 -0.18982,0.18554 -0.27804,0.22298 -0.32564,0.22244 -0.43099,0.25986 -0.6133,0.3342 -2.32171,1.22502 -0.40477,0.25986 -0.29837,0.22244 -0.24651,0.22297 -0.16201,0.18555 -0.11924,0.18555 -0.0637,0.14864 -0.0348,0.14812 -0.004,0.14865 0.0241,0.14864 0.054,0.14811 0.0823,0.14867 0.1417,0.18553 0.1834,0.18555 0.27003,0.22297 0.31921,0.22244 0.42458,0.25988 0.60796,0.33418 1.2341,0.63096 0.83789,0.44542 0.49888,0.29676 0.37911,0.25987 0.27217,0.22298 0.18501,0.18553 0.14437,0.18555 0.1006,0.18555 0.0482,0.14864 0.0188,0.14812 -0.0108,0.14865 -0.0396,0.14864 -0.0689,0.14811 -0.12621,0.18609 -0.1679,0.18554 -0.20746,0.18555 -0.29622,0.22244 -0.40319,0.25987 -0.51972,0.29729 -0.78122,0.40798 -0.29249,0.14866"
       id="path34"
       style="stroke-dasharray:0.410656, 0.821312;stroke-dashoffset:0.862378;marker-start:url(#marker39);marker-end:url(#Dot)" /><path
       style="fill:#ff6600;fill-opacity:0;stroke:#ff4f4f;stroke-width:0.205;stroke-linecap:round;stroke-linejoin:round;stroke-dasharray:none;stroke-dashoffset:0.862378;stroke-opacity:1;marker-end:url(#marker40)"
       id="rect39"
       width="12.755791"
       height="1.2094765"
       x="34.213799"
       y="114.59408"
       ry="0"
       inkscape:path-effect="#path-effect39"
       sodipodi:type="rect"
       d="m 46.428807,115.80355 c 0,0 0,-1.20947 -0.43625,-1.20947 -0.43625,0 -0.43625,1.20947 -0.8725,1.20947 -0.436251,0 -0.436251,-1.20947 -0.872501,-1.20947 -0.43625,0 -0.43625,1.20947 -0.872501,1.20947 -0.43625,0 -0.43625,-1.20947 -0.8725,-1.20947 -0.436251,0 -0.436251,1.20947 -0.872501,1.20947 -0.43625,0 -0.43625,-1.20947 -0.872501,-1.20947 -0.43625,0 -0.43625,1.20947 -0.8725,1.20947 -0.43625,0 -0.43625,-1.20947 -0.872501,-1.20947 -0.43625,0 -0.43625,1.20947 -0.8725,1.20947 -0.436251,0 -0.436251,-1.20947 -0.872501,-1.20947 -0.43625,0 -0.43625,1.20947 -0.872501,1.20947 -0.43625,0 -0.43625,-1.20947 -0.8725,-1.20947 -0.436251,0 -0.436251,1.20947 -0.872501,1.20947 -0.43625,0 -0.43625,-1.20947 -0.43625,-1.20947"
       rx="0"
       transform="rotate(-38.586564,49.58381,88.297164)" /><rect
       style="fill:url(#radialGradient41);stroke:none;stroke-width:0.205;stroke-linecap:round;stroke-linejoin:round;stroke-dasharray:none;stroke-dashoffset:3.25938;stroke-opacity:1"
       id="rect40"
       width="11.491793"
       height="6.5652847"
       x="49.029987"
       y="115.79971"
       ry="2.104038"
       rx="0" /><g
       id="page1"
       transform="matrix(0.44097222,0,0,0.44097222,-38.305314,78.895553)"><use
         x="221.875"
         xlink:href="#g1-0"
         y="92.154404"
         id="use1" /><use
         x="229.162"
         xlink:href="#g1-40"
         y="92.154404"
         id="use2" /><use
         x="233.69701"
         xlink:href="#g0-100-2"
         y="92.154404"
         id="use3" /><use
         x="239.757"
         xlink:href="#g1-41"
         y="92.154404"
         id="use4" /></g></g></svg>
