<?xml version="1.0" encoding="UTF-8" standalone="no"?>
<!-- Created with Inkscape (http://www.inkscape.org/) -->

<svg
   width="318.79007mm"
   height="69.327454mm"
   viewBox="0 0 318.79007 69.327453"
   version="1.1"
   id="svg1"
   xml:space="preserve"
   inkscape:version="1.3.2 (091e20e, 2023-11-25)"
   sodipodi:docname="laser_cooling.svg"
   xmlns:inkscape="http://www.inkscape.org/namespaces/inkscape"
   xmlns:sodipodi="http://sodipodi.sourceforge.net/DTD/sodipodi-0.dtd"
   xmlns:xlink="http://www.w3.org/1999/xlink"
   xmlns="http://www.w3.org/2000/svg"
   xmlns:svg="http://www.w3.org/2000/svg"><sodipodi:namedview
     id="namedview1"
     pagecolor="#ffffff"
     bordercolor="#666666"
     borderopacity="1.0"
     inkscape:showpageshadow="2"
     inkscape:pageopacity="0.0"
     inkscape:pagecheckerboard="0"
     inkscape:deskcolor="#d1d1d1"
     inkscape:document-units="mm"
     inkscape:zoom="0.25984537"
     inkscape:cx="812.02138"
     inkscape:cy="-363.67782"
     inkscape:window-width="1920"
     inkscape:window-height="1023"
     inkscape:window-x="0"
     inkscape:window-y="33"
     inkscape:window-maximized="1"
     inkscape:current-layer="layer1" /><defs
     id="defs1"><radialGradient
       inkscape:collect="always"
       xlink:href="#linearGradient1088"
       id="radialGradient1090-6"
       cx="105.49506"
       cy="109.75511"
       fx="105.49506"
       fy="109.75511"
       r="27.111309"
       gradientUnits="userSpaceOnUse"
       gradientTransform="matrix(0.99915906,-0.04099841,0.04198652,1.0232397,37.796022,-67.366026)" /><linearGradient
       inkscape:collect="always"
       id="linearGradient1088"><stop
         style="stop-color:#fdffff;stop-opacity:1"
         offset="0"
         id="stop1084" /><stop
         style="stop-color:#a5bcf2;stop-opacity:1"
         offset="1"
         id="stop1086" /></linearGradient><filter
       inkscape:collect="always"
       style="color-interpolation-filters:sRGB"
       id="filter1080-1"
       x="-1.08e-05"
       width="1.0000216"
       y="-1.08e-05"
       height="1.0000216"><feGaussianBlur
         inkscape:collect="always"
         stdDeviation="0.00024399653"
         id="feGaussianBlur1082-2" /></filter><g
       id="g8"><g
         id="glyph-0-0"><path
           d="m 2.480469,-1.660156 h 3.21875 V -12.78125 l -3.5,0.703125 v -1.800781 l 3.480469,-0.699219 h 1.980468 v 12.917969 h 3.21875 V 0 H 2.480469 Z m 0,0"
           id="path1" /></g><g
         id="glyph-0-1"><path
           d="m 6.359375,-13.28125 c -1.019531,0 -1.78125,0.5 -2.300781,1.5 -0.519532,1 -0.757813,2.5 -0.757813,4.5 0,2 0.238281,3.5 0.757813,4.5 0.519531,1 1.28125,1.5 2.300781,1.5 1.019531,0 1.78125,-0.5 2.300781,-1.5 0.5,-1 0.761719,-2.5 0.761719,-4.5 0,-2 -0.261719,-3.5 -0.761719,-4.5 -0.519531,-1 -1.28125,-1.5 -2.300781,-1.5 z m 0,-1.558594 c 1.621094,0 2.859375,0.660156 3.742187,1.941406 0.859376,1.296876 1.296876,3.179688 1.296876,5.617188 0,2.460938 -0.4375,4.339844 -1.296876,5.621094 -0.882812,1.28125 -2.121093,1.921875 -3.761718,1.921875 -1.640625,0 -2.878906,-0.640625 -3.738282,-1.921875 -0.863281,-1.28125 -1.28125,-3.160156 -1.28125,-5.621094 0,-2.4375 0.417969,-4.320312 1.28125,-5.617188 0.859376,-1.28125 2.117188,-1.941406 3.757813,-1.941406 z m 0,0"
           id="path2" /></g><g
         id="glyph-0-2"><path
           d="M 3.839844,-1.660156 H 10.71875 V 0 H 1.460938 V -1.660156 C 2.199219,-2.421875 3.21875,-3.460938 4.519531,-4.78125 5.800781,-6.078125 6.621094,-6.921875 6.960938,-7.300781 7.601562,-8 8.039062,-8.601562 8.28125,-9.101562 c 0.238281,-0.476563 0.378906,-0.976563 0.378906,-1.457032 0,-0.761718 -0.28125,-1.402344 -0.820312,-1.882812 -0.539063,-0.480469 -1.238282,-0.738282 -2.121094,-0.738282 -0.617188,0 -1.277344,0.121094 -1.957031,0.320313 -0.683594,0.21875 -1.421875,0.539063 -2.203125,0.980469 v -2 c 0.800781,-0.320313 1.542968,-0.5625 2.222656,-0.722656 0.679688,-0.160157 1.320312,-0.238282 1.898438,-0.238282 1.5,0 2.699218,0.378906 3.601562,1.140625 0.898438,0.757813 1.359375,1.757813 1.359375,3.019531 0,0.601563 -0.121094,1.179688 -0.339844,1.699219 -0.222656,0.539063 -0.621093,1.179688 -1.222656,1.902344 -0.15625,0.199219 -0.679687,0.738281 -1.558594,1.636719 -0.878906,0.902344 -2.097656,2.160156 -3.679687,3.78125 z m 0,0"
           id="path3" /></g><g
         id="glyph-0-3"><path
           d="m 8.121094,-7.859375 c 0.9375,0.199219 1.679687,0.621094 2.199218,1.257813 0.519532,0.640624 0.800782,1.441406 0.800782,2.363281 0,1.4375 -0.5,2.558593 -1.480469,3.339843 -1,0.777344 -2.402344,1.160157 -4.21875,1.160157 -0.621094,0 -1.261719,-0.0625 -1.902344,-0.183594 -0.640625,-0.0976562 -1.320312,-0.277344 -2,-0.519531 v -1.898438 c 0.539063,0.320313 1.140625,0.558594 1.800781,0.71875 0.640626,0.160156 1.320313,0.242188 2.039063,0.242188 1.242187,0 2.179687,-0.242188 2.820313,-0.722656 0.640624,-0.476563 0.980468,-1.199219 0.980468,-2.136719 0,-0.839844 -0.300781,-1.523438 -0.898437,-2 C 7.660156,-6.71875 6.820312,-6.980469 5.738281,-6.980469 H 4.039062 v -1.621093 h 1.78125 c 0.960938,0 1.699219,-0.179688 2.21875,-0.578126 0.519532,-0.378906 0.78125,-0.941406 0.78125,-1.679687 0,-0.742187 -0.28125,-1.320313 -0.800781,-1.71875 -0.539062,-0.402344 -1.300781,-0.601563 -2.28125,-0.601563 -0.539062,0 -1.117187,0.05859 -1.738281,0.179688 -0.621094,0.121094 -1.300781,0.300781 -2.039062,0.539062 v -1.757812 c 0.738281,-0.203125 1.4375,-0.359375 2.097656,-0.460938 0.640625,-0.101562 1.261718,-0.160156 1.863281,-0.160156 1.476563,0 2.65625,0.339844 3.539063,1.019532 0.878906,0.679687 1.320312,1.601562 1.320312,2.761718 0,0.796875 -0.242188,1.480469 -0.703125,2.039063 -0.457031,0.558593 -1.117187,0.960937 -1.957031,1.160156 z m 0,0"
           id="path4" /></g><g
         id="glyph-0-4"><path
           d="m 7.558594,-12.859375 -4.980469,7.78125 h 4.980469 z m -0.519532,-1.71875 h 2.480469 v 9.5 h 2.082031 v 1.636719 H 9.519531 V 0 H 7.558594 V -3.441406 H 0.980469 v -1.898438 z m 0,0"
           id="path5" /></g><g
         id="glyph-0-5"><path
           d="m 2.160156,-14.578125 h 7.738282 v 1.65625 h -5.9375 v 3.582031 c 0.277343,-0.101562 0.578124,-0.179687 0.859374,-0.21875 0.28125,-0.042968 0.578126,-0.082031 0.859376,-0.082031 1.621093,0 2.898437,0.460937 3.859374,1.339844 0.960938,0.902343 1.441407,2.101562 1.441407,3.621093 0,1.578126 -0.5,2.800782 -1.480469,3.660157 C 8.519531,-0.160156 7.140625,0.261719 5.378906,0.261719 4.761719,0.261719 4.140625,0.199219 3.5,0.121094 2.859375,0.0195312 2.21875,-0.121094 1.539062,-0.339844 V -2.320312 C 2.121094,-2 2.71875,-1.761719 3.359375,-1.601562 c 0.621094,0.160156 1.28125,0.222656 1.980469,0.222656 1.121094,0 2.019531,-0.28125 2.679687,-0.882813 C 8.660156,-2.859375 9,-3.660156 9,-4.679688 c 0,-1 -0.339844,-1.800781 -0.980469,-2.398437 -0.660156,-0.601563 -1.558593,-0.902344 -2.679687,-0.902344 -0.519532,0 -1.058594,0.058594 -1.578125,0.179688 C 3.238281,-7.679688 2.699219,-7.5 2.160156,-7.261719 Z m 0,0"
           id="path6" /></g><g
         id="glyph-0-6"><path
           d="m 6.601562,-8.078125 c -0.882812,0 -1.582031,0.316406 -2.101562,0.917969 -0.519531,0.601562 -0.78125,1.441406 -0.78125,2.480468 0,1.058594 0.261719,1.898438 0.78125,2.5 0.519531,0.601563 1.21875,0.898438 2.101562,0.898438 0.878907,0 1.578126,-0.296875 2.097657,-0.898438 0.519531,-0.601562 0.78125,-1.441406 0.78125,-2.5 0,-1.039062 -0.261719,-1.878906 -0.78125,-2.480468 -0.519531,-0.601563 -1.21875,-0.917969 -2.097657,-0.917969 z m 3.917969,-6.183594 v 1.800781 c -0.5,-0.238281 -1,-0.417968 -1.5,-0.539062 C 8.5,-13.121094 8,-13.179688 7.519531,-13.179688 c -1.320312,0 -2.320312,0.441407 -3,1.320313 -0.679687,0.878906 -1.078125,2.21875 -1.160156,3.980469 0.378906,-0.5625 0.859375,-1 1.441406,-1.300782 0.578125,-0.300781 1.21875,-0.460937 1.917969,-0.460937 1.460938,0 2.621094,0.460937 3.460938,1.339844 0.839843,0.878906 1.28125,2.101562 1.28125,3.621093 0,1.5 -0.460938,2.699219 -1.339844,3.601563 -0.882813,0.898437 -2.0625,1.339844 -3.519532,1.339844 -1.679687,0 -2.980468,-0.640625 -3.863281,-1.921875 -0.898437,-1.28125 -1.339843,-3.160156 -1.339843,-5.621094 0,-2.296875 0.542968,-4.140625 1.640624,-5.5 1.082032,-1.359375 2.5625,-2.058594 4.402344,-2.058594 0.480469,0 0.980469,0.05859 1.5,0.140625 0.5,0.09766 1.019532,0.238281 1.578125,0.4375 z m 0,0"
           id="path7" /></g><g
         id="glyph-0-7"><path
           d="m 1.640625,-14.578125 h 9.378906 v 0.839844 L 5.71875,0 H 3.660156 l 4.980469,-12.921875 h -7 z m 0,0"
           id="path8" /></g></g><clipPath
       id="clip-0"><path
         clip-rule="nonzero"
         d="M 0,0 H 420.72266 V 314.47266 H 0 Z m 0,0"
         id="path9" /></clipPath><radialGradient
       inkscape:collect="always"
       xlink:href="#linearGradient1088"
       id="radialGradient1090-6-5"
       cx="105.49506"
       cy="109.75511"
       fx="105.49506"
       fy="109.75511"
       r="27.111309"
       gradientUnits="userSpaceOnUse"
       gradientTransform="matrix(0.99915906,-0.04099841,0.04198652,1.0232397,37.796022,-67.366026)" /><filter
       inkscape:collect="always"
       style="color-interpolation-filters:sRGB"
       id="filter1080-1-9"
       x="-1.08e-05"
       width="1.0000216"
       y="-1.08e-05"
       height="1.0000216"><feGaussianBlur
         inkscape:collect="always"
         stdDeviation="0.00024399653"
         id="feGaussianBlur1082-2-1" /></filter><radialGradient
       inkscape:collect="always"
       xlink:href="#linearGradient1088"
       id="radialGradient1090-6-3"
       cx="105.49506"
       cy="109.75511"
       fx="105.49506"
       fy="109.75511"
       r="27.111309"
       gradientUnits="userSpaceOnUse"
       gradientTransform="matrix(0.99915906,-0.04099841,0.04198652,1.0232397,37.796022,-67.366026)" /><filter
       inkscape:collect="always"
       style="color-interpolation-filters:sRGB"
       id="filter1080-1-6"
       x="-1.08e-05"
       width="1.0000216"
       y="-1.08e-05"
       height="1.0000216"><feGaussianBlur
         inkscape:collect="always"
         stdDeviation="0.00024399653"
         id="feGaussianBlur1082-2-2" /></filter><radialGradient
       inkscape:collect="always"
       xlink:href="#linearGradient1088"
       id="radialGradient1090-6-9"
       cx="105.49506"
       cy="109.75511"
       fx="105.49506"
       fy="109.75511"
       r="27.111309"
       gradientUnits="userSpaceOnUse"
       gradientTransform="matrix(0.99915906,-0.04099841,0.04198652,1.0232397,37.796022,-67.366026)" /><filter
       inkscape:collect="always"
       style="color-interpolation-filters:sRGB"
       id="filter1080-1-2"
       x="-1.08e-05"
       width="1.0000216"
       y="-1.08e-05"
       height="1.0000216"><feGaussianBlur
         inkscape:collect="always"
         stdDeviation="0.00024399653"
         id="feGaussianBlur1082-2-3" /></filter><filter
       style="color-interpolation-filters:sRGB"
       inkscape:label="Blur"
       id="filter8"
       x="-0.039565766"
       y="-0.22176296"
       width="1.0783342"
       height="1.4435259"><feGaussianBlur
         stdDeviation="4.39859 4.08513"
         result="blur"
         id="feGaussianBlur8" /></filter></defs><g
     inkscape:label="Calque 1"
     inkscape:groupmode="layer"
     id="layer1"
     transform="translate(63.850264,-111.35792)"><path
       fill="none"
       stroke-width="1.69236"
       stroke-linecap="square"
       stroke-linejoin="round"
       stroke="#000000"
       stroke-opacity="1"
       stroke-miterlimit="10"
       d="m -50.618726,158.94166 12.94568,-25.03806 2.75452,-4.72014 2.14187,-3.1864 1.83342,-2.30496 1.529263,-1.58218 1.5293,-1.25164 1.529298,-0.89024 1.225218,-0.44953 1.225186,-0.2114 1.225216,0.0352 1.220772,0.2776 1.225217,0.51564 1.225186,0.75361 1.529299,1.25608 1.529298,1.59099 1.833413,2.31379 2.141876,3.19522 2.4459885,4.1736 3.063011,5.76018 7.95499,15.24889 2.44599,4.0326 2.141907,3.03215 1.833381,2.15511 1.529299,1.44116 1.5292985,1.0974 1.225186,0.62142 1.225218,0.3834 1.220804,0.14104 1.225185,-0.10582 1.225185,-0.34374 1.220798,-0.58174 1.533716,-1.05332 1.5293,-1.40149 1.529299,-1.72763 1.833388,-2.45922 2.141905,-3.33624 2.450397,-4.30144 3.67118,-7.04709 5.808693,-11.2119 2.45041,-4.21327 2.141879,-3.23491 1.833414,-2.35781 1.52926,-1.63068 1.529299,-1.30012 1.533717,-0.94756 1.220794,-0.4936 1.225185,-0.25554 1.225224,-0.009 1.220769,0.22932 1.225225,0.47156 1.225185,0.70954 1.529286,1.2032 1.5293,1.54249 1.833413,2.26092 1.837803,2.66192 2.14187,3.53018 2.75011,5.03743 10.40538,19.66929 2.14188,3.2966 1.83342,2.41954 1.83779,1.98323 1.5293,1.29132 1.5293,0.93872 1.2208,0.48922 1.22519,0.24691 h 1.22519 l 1.2208,-0.23795 1.22522,-0.4804 1.22518,-0.71396 1.5293,-1.21198 1.5293,-1.55133 1.833362,-2.26971 1.8378,-2.67076 2.1419,-3.53458 2.75451,-5.04622 10.40099,-19.66049 2.14186,-3.28779 1.83339,-2.40633 1.83783,-1.97883 1.5293,-1.2825 1.5293,-0.92989 1.22519,-0.47599 1.22079,-0.24242 1.22519,0.003 1.22522,0.24691 1.22077,0.48918 1.22521,0.71837 1.5293,1.22523 1.5293,1.55573 1.83779,2.28292 1.83339,2.67518 2.14191,3.54338 2.75449,5.05063 10.40098,19.65168 2.14191,3.27895 1.83779,2.40194 1.83341,1.96559 1.52927,1.27368 1.5293,0.9211 1.22521,0.47161 1.22519,0.2293 1.22081,-0.009 1.22518,-0.25553 1.22521,-0.49361 1.22081,-0.7316 1.5293,-1.22961 1.52926,-1.56454 1.83783,-2.29174 1.83339,-2.684 2.14191,-3.55221 2.75448,-5.05504 10.09689,-19.13604 2.14188,-3.33626 1.83342,-2.4592 1.83779,-2.03173 1.5293,-1.33536 1.5293,-0.98283 1.22518,-0.52444 1.2208,-0.28655 1.22522,-0.0397 1.22519,0.19829 1.22077,0.44512 1.22521,0.67871 1.5293,1.16791 1.5293,1.51165 1.8378,2.22567 1.83341,2.63106 2.14187,3.49933 2.75449,5.01099 5.2005,10.17179 3.67118,6.90607 2.44602,4.11191 2.14188,3.1247 1.83779,2.24326 1.5293,1.52488 1.5293,1.18994 1.5293,0.82855 1.22521,0.39668 1.22078,0.15414 1.22521,-0.0879"
       id="path34-6"
       sodipodi:nodetypes="ccccccccccccccccccccccccccccccccccccccccccccccccccccccccccccccccccccccccccccccccccccccccccccccccccccccccccccccccccccccccccccccccccccccccccccc"
       style="fill:none;fill-opacity:1;stroke:#3164c7;stroke-width:1.692;stroke-dasharray:10.152, 10.152;stroke-dashoffset:0;stroke-opacity:1" /><path
       fill="none"
       stroke-width="1.69236"
       stroke-linecap="square"
       stroke-linejoin="round"
       stroke="#000000"
       stroke-opacity="1"
       stroke-miterlimit="10"
       d="m -52.15336,130.39894 12.94568,25.03806 2.754515,4.72014 2.141876,3.1864 1.833413,2.30496 1.529266,1.58218 1.5293,1.25164 1.529298,0.89024 1.225218,0.44953 1.225186,0.2114 1.225216,-0.0352 1.220772,-0.2776 1.225217,-0.51564 1.225186,-0.75361 1.529299,-1.25608 1.529298,-1.59099 1.833413,-2.31379 2.141876,-3.19522 2.445989,-4.1736 3.0630114,-5.76018 7.95498997,-15.24889 2.44599003,-4.0326 2.141907,-3.03215 1.8333809,-2.15511 1.529299,-1.44116 1.529298,-1.0974 1.2251857,-0.62142 1.225218,-0.3834 1.220804,-0.14104 1.225185,0.10582 1.225185,0.34374 1.220798,0.58174 1.533716,1.05332 1.5293,1.40149 1.529299,1.72763 1.833388,2.45922 2.141905,3.33624 2.450397,4.30144 3.671179,7.04709 5.808693,11.2119 2.45041,4.21327 2.141879,3.23491 1.833414,2.35781 1.52926,1.63068 1.529299,1.30012 1.533717,0.94756 1.220794,0.4936 1.225186,0.25554 1.225224,0.009 1.220769,-0.22932 1.225225,-0.47156 1.225185,-0.70954 1.529286,-1.2032 1.5293,-1.54249 1.833413,-2.26092 1.837805,-2.66192 2.141866,-3.53018 2.750107,-5.03743 10.405382,-19.66929 2.14188,-3.2966 1.83342,-2.41954 1.83779,-1.98323 1.5293,-1.29132 1.5293,-0.93872 1.2208,-0.48922 1.22519,-0.24691 h 1.22519 l 1.2208,0.23795 1.22522,0.4804 1.22518,0.71396 1.5293,1.21198 1.529304,1.55133 1.83337,2.26971 1.837798,2.67076 2.1419,3.53458 2.75451,5.04622 10.40099,19.66049 2.14186,3.28779 1.83339,2.40633 1.83783,1.97883 1.5293,1.2825 1.5293,0.92989 1.22519,0.47599 1.22079,0.24242 1.22519,-0.003 1.22522,-0.24691 1.22077,-0.48918 1.22521,-0.71837 1.5293,-1.22523 1.5293,-1.55573 1.83779,-2.28292 1.83339,-2.67518 2.1419,-3.54338 2.75449,-5.05063 10.40098,-19.65168 2.14191,-3.27895 1.83779,-2.40194 1.83341,-1.96559 1.52927,-1.27368 1.5293,-0.9211 1.22521,-0.47161 1.22519,-0.2293 1.22081,0.009 1.22518,0.25553 1.22521,0.49361 1.22081,0.7316 1.5293,1.22961 1.52926,1.56454 1.83783,2.29174 1.83339,2.684 2.14191,3.55221 2.75448,5.05504 10.09689,19.13604 2.14188,3.33626 1.83342,2.4592 1.83779,2.03173 1.5293,1.33536 1.5293,0.98283 1.22518,0.52444 1.2208,0.28655 1.22522,0.0397 1.22519,-0.19829 1.22077,-0.44512 1.22521,-0.67871 1.5293,-1.16791 1.5293,-1.51165 1.8378,-2.22567 1.83341,-2.63106 2.14187,-3.49933 2.75449,-5.01099 5.2005,-10.17179 3.67118,-6.90607 2.44602,-4.11191 2.14188,-3.1247 1.83779,-2.24326 1.5293,-1.52488 1.5293,-1.18994 1.5293,-0.82855 1.22521,-0.39668 1.22078,-0.15414 1.22521,0.0879"
       id="path34-8"
       sodipodi:nodetypes="ccccccccccccccccccccccccccccccccccccccccccccccccccccccccccccccccccccccccccccccccccccccccccccccccccccccccccccccccccccccccccccccccccccccccccccc"
       style="fill:none;fill-opacity:1;stroke:#c73c31;stroke-opacity:1;filter:url(#filter8)" /><path
       fill="none"
       stroke-width="1.69236"
       stroke-linecap="square"
       stroke-linejoin="round"
       stroke="#000000"
       stroke-opacity="1"
       stroke-miterlimit="10"
       d="m -51.378345,126.43186 12.94568,25.03806 2.754515,4.72014 2.141876,3.1864 1.833413,2.30496 1.529266,1.58218 1.5293,1.25164 1.529298,0.89024 1.225218,0.44953 1.225186,0.2114 1.225216,-0.0352 1.220772,-0.2776 1.225217,-0.51564 1.225186,-0.75361 1.529299,-1.25608 1.529298,-1.59099 1.833413,-2.31379 2.141876,-3.19522 2.445989,-4.1736 3.0630111,-5.76018 7.95498996,-15.24889 2.44599004,-4.0326 2.141907,-3.03215 1.833381,-2.15511 1.529299,-1.44116 1.5292979,-1.0974 1.225186,-0.62142 1.225218,-0.3834 1.220804,-0.14104 1.225185,0.10582 1.225185,0.34374 1.220798,0.58174 1.533716,1.05332 1.5293,1.40149 1.529299,1.72763 1.833388,2.45922 2.141905,3.33624 2.450397,4.30144 3.671179,7.04709 5.808693,11.2119 2.45041,4.21327 2.141879,3.23491 1.833414,2.35781 1.52926,1.63068 1.529299,1.30012 1.533717,0.94756 1.220794,0.4936 1.225186,0.25554 1.225224,0.009 1.220769,-0.22932 1.225225,-0.47156 1.225185,-0.70954 1.529286,-1.2032 1.5293,-1.54249 1.833413,-2.26092 1.837805,-2.66192 2.141866,-3.53018 2.750107,-5.03743 10.405382,-19.66929 2.14188,-3.2966 1.83342,-2.41954 1.83779,-1.98323 1.5293,-1.29132 1.5293,-0.93872 1.2208,-0.48922 1.22519,-0.24691 h 1.22519 l 1.2208,0.23795 1.22522,0.4804 1.22518,0.71396 1.5293,1.21198 1.5293,1.55133 1.83337,2.26971 1.837807,2.67076 2.1419,3.53458 2.75451,5.04622 10.40099,19.66049 2.14186,3.28779 1.83339,2.40633 1.83783,1.97883 1.5293,1.2825 1.5293,0.92989 1.22519,0.47599 1.22079,0.24242 1.22519,-0.003 1.22522,-0.24691 1.22077,-0.48918 1.22521,-0.71837 1.5293,-1.22523 1.5293,-1.55573 1.83779,-2.28292 1.83339,-2.67518 2.1419,-3.54338 2.75449,-5.05063 10.40098,-19.65168 2.14191,-3.27895 1.83779,-2.40194 1.83341,-1.96559 1.52927,-1.27368 1.5293,-0.9211 1.22521,-0.47161 1.22519,-0.2293 1.22081,0.009 1.22518,0.25553 1.22521,0.49361 1.22081,0.7316 1.5293,1.22961 1.52926,1.56454 1.83783,2.29174 1.83339,2.684 2.14191,3.55221 2.75448,5.05504 10.09689,19.13604 2.14188,3.33626 1.83342,2.4592 1.83779,2.03173 1.5293,1.33536 1.5293,0.98283 1.22518,0.52444 1.2208,0.28655 1.22522,0.0397 1.22519,-0.19829 1.22077,-0.44512 1.22521,-0.67871 1.5293,-1.16791 1.5293,-1.51165 1.8378,-2.22567 1.83341,-2.63106 2.14187,-3.49933 2.75449,-5.01099 5.2005,-10.17179 3.67118,-6.90607 2.44602,-4.11191 2.14188,-3.1247 1.83779,-2.24326 1.5293,-1.52488 1.5293,-1.18994 1.5293,-0.82855 1.22521,-0.39668 1.22078,-0.15414 1.22521,0.0879"
       id="path34"
       sodipodi:nodetypes="ccccccccccccccccccccccccccccccccccccccccccccccccccccccccccccccccccccccccccccccccccccccccccccccccccccccccccccccccccccccccccccccccccccccccccccc"
       style="fill:none;fill-opacity:1;stroke:#c73c31;stroke-opacity:1" /><circle
       style="fill:url(#radialGradient1090-6);fill-opacity:1;stroke:none;stroke-width:0.2;stroke-linecap:round;stroke-linejoin:round;stroke-dasharray:none;stroke-dashoffset:0;stroke-opacity:1;filter:url(#filter1080-1)"
       id="path1-36-7"
       r="27.110725"
       cy="50.834347"
       cx="139.56726"
       transform="matrix(0.67045797,0,0,0.67045797,35.115805,101.96879)" /><circle
       style="fill:url(#radialGradient1090-6-5);fill-opacity:1;stroke:none;stroke-width:0.2;stroke-linecap:round;stroke-linejoin:round;stroke-dasharray:none;stroke-dashoffset:0;stroke-opacity:1;filter:url(#filter1080-1-9)"
       id="path1-36-7-7"
       r="27.110725"
       cy="50.834347"
       cx="139.56726"
       transform="matrix(0.67045797,0,0,0.67045797,-41.518435,101.96879)" /><circle
       style="fill:url(#radialGradient1090-6-3);fill-opacity:1;stroke:none;stroke-width:0.2;stroke-linecap:round;stroke-linejoin:round;stroke-dasharray:none;stroke-dashoffset:0;stroke-opacity:1;filter:url(#filter1080-1-6)"
       id="path1-36-7-1"
       r="27.110725"
       cy="50.834347"
       cx="139.56726"
       transform="matrix(0.67045797,0,0,0.67045797,111.40925,101.96879)" /><circle
       style="fill:url(#radialGradient1090-6-9);fill-opacity:1;stroke:none;stroke-width:0.2;stroke-linecap:round;stroke-linejoin:round;stroke-dasharray:none;stroke-dashoffset:0;stroke-opacity:1;filter:url(#filter1080-1-2)"
       id="path1-36-7-5"
       r="27.110725"
       cy="50.834347"
       cx="139.56726"
       transform="matrix(0.67045797,0,0,0.67045797,-118.08972,101.96879)" /></g></svg>
