<?xml version="1.0" encoding="UTF-8" standalone="no"?>
<!-- Created with Inkscape (http://www.inkscape.org/) -->

<svg
   width="201.09424mm"
   height="205.21826mm"
   viewBox="0 0 201.09423 205.21826"
   version="1.1"
   id="svg1"
   xml:space="preserve"
   inkscape:version="1.3.2 (091e20ef0f, 2023-11-25, custom)"
   sodipodi:docname="logo_lightsim.svg"
   inkscape:export-filename="logo_lightsim.png"
   inkscape:export-xdpi="23.763968"
   inkscape:export-ydpi="23.763968"
   xmlns:inkscape="http://www.inkscape.org/namespaces/inkscape"
   xmlns:sodipodi="http://sodipodi.sourceforge.net/DTD/sodipodi-0.dtd"
   xmlns:xlink="http://www.w3.org/1999/xlink"
   xmlns="http://www.w3.org/2000/svg"
   xmlns:svg="http://www.w3.org/2000/svg"><sodipodi:namedview
     id="namedview1"
     pagecolor="#ffffff"
     bordercolor="#000000"
     borderopacity="0.25"
     inkscape:showpageshadow="2"
     inkscape:pageopacity="0.0"
     inkscape:pagecheckerboard="0"
     inkscape:deskcolor="#d1d1d1"
     inkscape:document-units="mm"
     inkscape:zoom="0.52410025"
     inkscape:cx="236.59596"
     inkscape:cy="524.70878"
     inkscape:window-width="1920"
     inkscape:window-height="1029"
     inkscape:window-x="0"
     inkscape:window-y="27"
     inkscape:window-maximized="1"
     inkscape:current-layer="layer1" /><defs
     id="defs1"><linearGradient
       id="linearGradient1"
       inkscape:collect="always"><stop
         style="stop-color:#f6d54a;stop-opacity:1;"
         offset="0"
         id="stop1" /><stop
         style="stop-color:#ffff00;stop-opacity:0;"
         offset="1"
         id="stop2" /></linearGradient><radialGradient
       inkscape:collect="always"
       xlink:href="#linearGradient1"
       id="radialGradient2"
       cx="153.33836"
       cy="26.379034"
       fx="153.33836"
       fy="26.379034"
       r="11.497324"
       gradientUnits="userSpaceOnUse"
       gradientTransform="matrix(1.9095947,0,0,1.9095947,-199.79337,-0.23945359)" /><clipPath
       clipPathUnits="userSpaceOnUse"
       id="clipPath3"><g
         id="g4"><rect
           style="fill:#ffff00;fill-opacity:1;stroke:none;stroke-width:8.99552;stroke-linejoin:round;stroke-opacity:1"
           id="rect3"
           width="77.345734"
           height="335.94983"
           x="218.76176"
           y="-71.310326"
           ry="23.503284"
           clip-path="none" /><rect
           style="fill:#ffff00;fill-opacity:1;stroke:none;stroke-width:9.98098;stroke-linejoin:round;stroke-opacity:1"
           id="rect4"
           width="95.22049"
           height="335.94983"
           x="282.18756"
           y="36.807892"
           ry="23.503284"
           clip-path="none" /></g></clipPath></defs><g
     inkscape:label="Layer 1"
     inkscape:groupmode="layer"
     id="layer1"
     transform="translate(12.592714,-28.178583)"><rect
       style="fill:none;fill-opacity:1;stroke:#000000;stroke-width:3.889;stroke-linejoin:round;stroke-dasharray:none;stroke-opacity:1"
       id="rect5"
       width="208.01895"
       height="208.01895"
       x="506.30646"
       y="142.04875"
       ry="0" /><text
       xml:space="preserve"
       style="font-style:normal;font-variant:normal;font-weight:normal;font-stretch:normal;font-size:270.382px;font-family:'Source Code Pro';-inkscape-font-specification:'Source Code Pro';text-align:center;text-anchor:middle;fill:#feb617;fill-opacity:0.5;stroke:none;stroke-width:74.5241;stroke-linejoin:round"
       x="308.94037"
       y="127.83661"
       id="text1-0"><tspan
         sodipodi:role="line"
         id="tspan1-3"
         style="font-style:normal;font-variant:normal;font-weight:normal;font-stretch:normal;font-family:'Source Code Pro';-inkscape-font-specification:'Source Code Pro';fill:#feb617;fill-opacity:0.5;stroke:none;stroke-width:74.5241"
         x="308.94037"
         y="127.83661">S</tspan></text><circle
       style="fill:url(#radialGradient2);stroke:none;stroke-width:7.42712;stroke-linejoin:round;stroke-opacity:1"
       id="path1-7-3-1"
       cx="93.020767"
       cy="50.133812"
       r="21.955229" /><text
       xml:space="preserve"
       style="font-style:normal;font-variant:normal;font-weight:normal;font-stretch:normal;font-size:270.382px;font-family:'Source Code Pro';-inkscape-font-specification:'Source Code Pro';text-align:center;text-anchor:middle;fill:#f6d54a;fill-opacity:1;stroke:none;stroke-width:74.5241;stroke-linejoin:round"
       x="295.76456"
       y="176.58813"
       id="text1-0-7"
       clip-path="url(#clipPath3)"
       transform="translate(-208.43397,44.379941)"><tspan
         sodipodi:role="line"
         id="tspan1-3-6"
         style="font-style:normal;font-variant:normal;font-weight:normal;font-stretch:normal;font-family:'Source Code Pro';-inkscape-font-specification:'Source Code Pro';fill:#f6d54a;fill-opacity:1;stroke:none;stroke-width:74.5241"
         x="295.76456"
         y="176.58813">S</tspan></text><circle
       style="fill:#f9e79f;fill-opacity:1;stroke:#f5b400;stroke-width:3.88937;stroke-linejoin:round;stroke-opacity:1"
       id="path1"
       cx="28.446585"
       cy="219.95483"
       r="11.497324" /><circle
       style="fill:#f9e79f;fill-opacity:1;stroke:#f5b400;stroke-width:3.88937;stroke-linejoin:round;stroke-opacity:1"
       id="path1-6"
       cx="160.09895"
       cy="198.96078"
       r="11.497324" /><circle
       style="fill:#f9e79f;fill-opacity:1;stroke:#f5b400;stroke-width:3.88937;stroke-linejoin:round;stroke-opacity:1"
       id="path1-6-0"
       cx="104.4045"
       cy="162.90755"
       r="11.497324" /><circle
       style="fill:#f9e79f;fill-opacity:1;stroke:#f5b400;stroke-width:3.88937;stroke-linejoin:round;stroke-opacity:1"
       id="path1-6-0-4"
       cx="84.577667"
       cy="190.67569"
       r="11.497324" /><circle
       style="fill:#f9e79f;fill-opacity:1;stroke:#f5b400;stroke-width:3.88937;stroke-linejoin:round;stroke-opacity:1"
       id="path1-6-0-6"
       cx="140.53342"
       cy="125.32318"
       r="11.497324" /><circle
       style="fill:#f9e79f;fill-opacity:1;stroke:#f5b400;stroke-width:3.88937;stroke-linejoin:round;stroke-opacity:1"
       id="path1-6-1"
       cx="47.627522"
       cy="138.78537"
       r="11.497324" /><circle
       style="fill:#f9e79f;fill-opacity:1;stroke:#f5b400;stroke-width:3.88937;stroke-linejoin:round;stroke-opacity:1"
       id="path1-6-1-1"
       cx="70.766075"
       cy="83.200035"
       r="11.497324" /><circle
       style="fill:#f9e79f;fill-opacity:1;stroke:#f5b400;stroke-width:3.88937;stroke-linejoin:round;stroke-opacity:1"
       id="path1-6-1-15"
       cx="34.591423"
       cy="46.770504"
       r="11.497324" /><circle
       style="fill:#f9e79f;fill-opacity:1;stroke:#f5b400;stroke-width:3.88937;stroke-linejoin:round;stroke-opacity:1"
       id="path1-6-1-15-6"
       cx="0.84929526"
       cy="185.21021"
       r="11.497324" /><circle
       style="fill:#f9e79f;fill-opacity:1;stroke:#f5b400;stroke-width:3.88937;stroke-linejoin:round;stroke-opacity:1"
       id="path1-6-1-15-5"
       cx="175.05951"
       cy="70.857826"
       r="11.497324" /><circle
       style="fill:#f9e79f;fill-opacity:1;stroke:#f5b400;stroke-width:3.88937;stroke-linejoin:round;stroke-opacity:1"
       id="path1-6-1-15-4"
       cx="17.720339"
       cy="86.718079"
       r="11.497324" /><circle
       style="fill:#f9e79f;fill-opacity:1;stroke:#f5b400;stroke-width:3.88937;stroke-linejoin:round;stroke-opacity:1"
       id="path1-6-2"
       cx="132.17461"
       cy="47.160301"
       r="11.497324" /><circle
       style="fill:#f6d54a;fill-opacity:1;stroke:none;stroke-width:3.88937;stroke-linejoin:round;stroke-opacity:1"
       id="path1-7-3"
       cx="92.899284"
       cy="49.855583"
       r="11.497324" /><image
       width="216.17273"
       height="121.59716"
       preserveAspectRatio="none"
       xlink:href="data:image/png;base64,iVBORw0KGgoAAAANSUhEUgAAB4AAAAQ4CAYAAADo08FDAAAABHNCSVQICAgIfAhkiAAAIABJREFU&#10;eJzs2cFNW1EURdH7vxHUYFqgIMqjp1BCBpmEgZEARQQ/mgixtFmrgjM6k739+fWwBoBv4jyH9TGH&#10;/TTPvx9n305zWB8z2/nSwwD4Qvs6zzZrrtfLPP38MdfrdbY5z778P0DdtvbZ1z5vp7+zrZnt0oMA&#10;+HJrrmatm3lbxzne3c/73M6sm1lzdelpAPwn+6UHAAAAAAAAAPBvCMAAAAAAAAAAEQIwAAAAAAAA&#10;QIQADAAAAAAAABAhAAMAAAAAAABECMAAAAAAAAAAEQIwAAAAAAAAQIQADAAAAAAAABAhAAMAAAAA&#10;AABECMAAAAAAAAAAEQIwAAAAAAAAQIQADAAAAAAAABAhAAMAAAAAAABECMAAAAAAAAAAEQIwAAAA&#10;AAAAQIQADAAAAAAAABAhAAMAAAAAAABECMAAAAAAAAAAEQIwAAAAAAAAQIQADAAAAAAAABAhAAMA&#10;AAAAAABECMAAAAAAAAAAEQIwAAAAAAAAQIQADAAAAAAAABAhAAMAAAAAAABECMAAAAAAAAAAEQIw&#10;AAAAAAAAQIQADAAAAAAAABAhAAMAAAAAAABECMAAAAAAAAAAEQIwAAAAAAAAQIQADAAAAAAAABAh&#10;AAMAAAAAAABECMAAAAAAAAAAEQIwAAAAAAAAQIQADAAAAAAAABAhAAMAAAAAAABECMAAAAAAAAAA&#10;EQIwAAAAAAAAQIQADAAAAAAAABAhAAMAAAAAAABECMAAAAAAAAAAEQIwAAAAAAAAQIQADAAAAAAA&#10;ABAhAAMAAAAAAABECMAAAAAAAAAAEQIwAAAAAAAAQIQADAAAAAAAABAhAAMAAAAAAABECMAAAAAA&#10;AAAAEQIwAAAAAAAAQIQADAAAAAAAABAhAAMAAAAAAABECMAAAAAAAAAAEQIwAAAAAAAAQIQADAAA&#10;AAAAABAhAAMAAAAAAABECMAAAAAAAAAAEQIwAAAAAAAAQIQADAAAAAAAABAhAAMAAAAAAABECMAA&#10;AAAAAAAAEQIwAAAAAAAAQIQADAAAAAAAABAhAAMAAAAAAABECMAAAAAAAAAAEQIwAAAAAAAAQIQA&#10;DAAAAAAAABAhAAMAAAAAAABECMAAAAAAAAAAEQIwAAAAAAAAQIQADAAAAAAAABAhAAMAAAAAAABE&#10;CMAAAAAAAAAAEQIwAAAAAAAAQIQADAAAAAAAABAhAAMAAAAAAABECMAAAAAAAAAAEQIwAAAAAAAA&#10;QIQADAAAAAAAABAhAAMAAAAAAABECMAAAAAAAAAAEQIwAAAAAAAAQIQADAAAAAAAABAhAAMAAAAA&#10;AABECMAAAAAAAAAAEQIwAAAAAAAAQIQADAAAAAAAABAhAAMAAAAAAABECMAAAAAAAAAAEQIwAAAA&#10;AAAAQIQADAAAAAAAABAhAAMAAAAAAABECMAAAAAAAAAAEQIwAAAAAAAAQIQADAAAAAAAABAhAAMA&#10;AAAAAABECMAAAAAAAAAAEQIwAAAAAAAAQIQADAAAAAAAABAhAAMAAAAAAABECMAAAAAAAAAAEQIw&#10;AAAAAAAAQIQADAAAAAAAABAhAAMAAAAAAABECMAAAAAAAAAAEQIwAAAAAAAAQIQADAAAAAAAABAh&#10;AAMAAAAAAABECMAAAAAAAAAAEQIwAAAAAAAAQIQADAAAAAAAABAhAAMAAAAAAABECMAAAAAAAAAA&#10;EQIwAAAAAAAAQIQADAAAAAAAABAhAAMAAAAAAABECMAAAAAAAAAAEQIwAAAAAAAAQIQADAAAAAAA&#10;ABAhAAMAAAAAAABECMAAAAAAAAAAEQIwAAAAAAAAQIQADAAAAAAAABAhAAMAAAAAAABECMAAAAAA&#10;AAAAEQIwAAAAAAAAQIQADAAAAAAAABAhAAMAAAAAAABECMAAAAAAAAAAEQIwAAAAAAAAQIQADAAA&#10;AAAAABAhAAMAAAAAAABECMAAAAAAAAAAEQIwAAAAAAAAQIQADAAAAAAAABAhAAMAAAAAAABECMAA&#10;AAAAAAAAEQIwAAAAAAAAQIQADAAAAAAAABAhAAMAAAAAAABECMAAAAAAAAAAEQIwAAAAAAAAQIQA&#10;DAAAAAAAABAhAAMAAAAAAABECMAAAAAAAAAAEQIwAAAAAAAAQIQADAAAAAAAABAhAAMAAAAAAABE&#10;CMAAAAAAAAAAEQIwAAAAAAAAQIQADAAAAAAAABAhAAMAAAAAAABECMAAAAAAAAAAEQIwAAAAAAAA&#10;QIQADAAAAAAAABAhAAMAAAAAAABECMAAAAAAAAAAEQIwAAAAAAAAQIQADAAAAAAAABAhAAMAAAAA&#10;AABECMAAAAAAAAAAEQIwAAAAAAAAQIQADAAAAAAAABAhAAMAAAAAAABECMAAAAAAAAAAEQIwAAAA&#10;AAAAQIQADAAAAAAAABAhAAMAAAAAAABECMAAAAAAAAAAEQIwAAAAAAAAQIQADAAAAAAAABAhAAMA&#10;AAAAAABECMAAAAAAAAAAEQIwAAAAAAAAQIQADAAAAAAAABAhAAMAAAAAAABECMAAAAAAAAAAEQIw&#10;AAAAAAAAQIQADAAAAAAAABAhAAMAAAAAAABECMAAAAAAAAAAEQIwAAAAAAAAQIQADAAAAAAAABAh&#10;AAMAAAAAAABECMAAAAAAAAAAEQIwAAAAAAAAQIQADAAAAAAAABAhAAMAAAAAAABECMAAAAAAAAAA&#10;EQIwAAAAAAAAQIQADAAAAAAAABAhAAMAAAAAAABECMAAAAAAAAAAEQIwAAAAAAAAQIQADAAAAAAA&#10;ABAhAAMAAAAAAABECMAAAAAAAAAAEQIwAAAAAAAAQIQADAAAAAAAABAhAAMAAAAAAABECMAAAAAA&#10;AAAAEQIwAAAAAAAAQIQADAAAAAAAABAhAAMAAAAAAABECMAAAAAAAAAAEQIwAAAAAAAAQIQADAAA&#10;AAAAABAhAAMAAAAAAABECMAAAAAAAAAAEQIwAAAAAAAAQIQADAAAAAAAABAhAAMAAAAAAABECMAA&#10;AAAAAAAAEQIwAAAAAAAAQIQADAAAAAAAABAhAAMAAAAAAABECMAAAAAAAAAAEQIwAAAAAAAAQIQA&#10;DAAAAAAAABAhAAMAAAAAAABECMAAAAAAAAAAEQIwAAAAAAAAQIQADAAAAAAAABAhAAMAAAAAAABE&#10;CMAAAAAAAAAAEQIwAAAAAAAAQIQADAAAAAAAABAhAAMAAAAAAABECMAAAAAAAAAAEQIwAAAAAAAA&#10;QIQADAAAAAAAABAhAAMAAAAAAABECMAAAAAAAAAAEQIwAAAAAAAAQIQADAAAAAAAABAhAAMAAAAA&#10;AABECMAAAAAAAAAAEQIwAAAAAAAAQIQADAAAAAAAABAhAAMAAAAAAABECMAAAAAAAAAAEQIwAAAA&#10;AAAAQIQADAAAAAAAABAhAAMAAAAAAABECMAAAAAAAAAAEQIwAAAAAAAAQIQADAAAAAAAABAhAAMA&#10;AAAAAABECMAAAAAAAAAAEQIwAAAAAAAAQIQADAAAAAAAABAhAAMAAAAAAABECMAAAAAAAAAAEQIw&#10;AAAAAAAAQIQADAAAAAAAABAhAAMAAAAAAABECMAAAAAAAAAAEQIwAAAAAAAAQIQADAAAAAAAABAh&#10;AAMAAAAAAABECMAAAAAAAAAAEQIwAAAAAAAAQIQADAAAAAAAABAhAAMAAAAAAABECMAAAAAAAAAA&#10;EQIwAAAAAAAAQIQADAAAAAAAABAhAAMAAAAAAABECMAAAAAAAAAAEQIwAAAAAAAAQIQADAAAAAAA&#10;ABAhAAMAAAAAAABECMAAAAAAAAAAEQIwAAAAAAAAQIQADAAAAAAAABAhAAMAAAAAAABECMAAAAAA&#10;AAAAEQIwAAAAAAAAQIQADAAAAAAAABAhAAMAAAAAAABECMAAAAAAAAAAEQIwAAAAAAAAQIQADAAA&#10;AAAAABAhAAMAAAAAAABECMAAAAAAAAAAEQIwAAAAAAAAQIQADAAAAAAAABAhAAMAAAAAAABECMAA&#10;AAAAAAAAEQIwAAAAAAAAQIQADAAAAAAAABAhAAMAAAAAAABECMAAAAAAAAAAEQIwAAAAAAAAQIQA&#10;DAAAAAAAABAhAAMAAAAAAABECMAAAAAAAAAAEQIwAAAAAAAAQIQADAAAAAAAABAhAAMAAAAAAABE&#10;CMAAAAAAAAAAEQIwAAAAAAAAQIQADAAAAAAAABAhAAMAAAAAAABECMAAAAAAAAAAEQIwAAAAAAAA&#10;QIQADAAAAAAAABAhAAMAAAAAAABECMAAAAAAAAAAEQIwAAAAAAAAQIQADAAAAAAAABAhAAMAAAAA&#10;AABECMAAAAAAAAAAEQIwAAAAAAAAQIQADAAAAAAAABAhAAMAAAAAAABECMAAAAAAAAAAEQIwAAAA&#10;AAAAQIQADAAAAAAAABAhAAMAAAAAAABECMAAAAAAAAAAEQIwAAAAAAAAQIQADAAAAAAAABAhAAMA&#10;AAAAAABECMAAAAAAAAAAEQIwAAAAAAAAQIQADAAAAAAAABAhAAMAAAAAAABECMAAAAAAAAAAEQIw&#10;AAAAAAAAQIQADAAAAAAAABAhAAMAAAAAAABECMAAAAAAAAAAEQIwAAAAAAAAQIQADAAAAAAAABAh&#10;AAMAAAAAAABECMAAAAAAAAAAEQIwAAAAAAAAQIQADAAAAAAAABAhAAMAAAAAAABECMAAAAAAAAAA&#10;EQIwAAAAAAAAQIQADAAAAAAAABAhAAMAAAAAAABECMAAAAAAAAAAEQIwAAAAAAAAQIQADAAAAAAA&#10;ABAhAAMAAAAAAABECMAAAAAAAAAAEQIwAAAAAAAAQIQADAAAAAAAABAhAAMAAAAAAABECMAAAAAA&#10;AAAAEQIwAAAAAAAAQIQADAAAAAAAABAhAAMAAAAAAABECMAAAAAAAAAAEQIwAAAAAAAAQIQADAAA&#10;AAAAABAhAAMAAAAAAABECMAAAAAAAAAAEQIwAAAAAAAAQIQADAAAAAAAABAhAAMAAAAAAABECMAA&#10;AAAAAAAAEQIwAAAAAAAAQIQADAAAAAAAABAhAAMAAAAAAABECMAAAAAAAAAAEQIwAAAAAAAAQIQA&#10;DAAAAAAAABAhAAMAAAAAAABECMAAAAAAAAAAEQIwAAAAAAAAQIQADAAAAAAAABAhAAMAAAAAAABE&#10;CMAAAAAAAAAAEQIwAAAAAAAAQIQADAAAAAAAABAhAAMAAAAAAABECMAAAAAAAAAAEQIwAAAAAAAA&#10;QIQADAAAAAAAABAhAAMAAAAAAABECMAAAAAAAAAAEQIwAAAAAAAAQIQADAAAAAAAABAhAAMAAAAA&#10;AABECMAAAAAAAAAAEQIwAAAAAAAAQIQADAAAAAAAABAhAAMAAAAAAABECMAAAAAAAAAAEQIwAAAA&#10;AAAAQIQADAAAAAAAABAhAAMAAAAAAABECMAAAAAAAAAAEQIwAAAAAAAAQIQADAAAAAAAABAhAAMA&#10;AAAAAABECMAAAAAAAAAAEQIwAAAAAAAAQIQADAAAAAAAABAhAAMAAAAAAABECMAAAAAAAAAAEQIw&#10;AAAAAAAAQIQADAAAAAAAABAhAAMAAAAAAABECMAAAAAAAAAAEQIwAAAAAAAAQIQADAAAAAAAABAh&#10;AAMAAAAAAABECMAAAAAAAAAAEQIwAAAAAAAAQIQADAAAAAAAABAhAAMAAAAAAABECMAAAAAAAAAA&#10;EQIwAAAAAAAAQIQADAAAAAAAABAhAAMAAAAAAABECMAAAAAAAAAAEQIwAAAAAAAAQIQADAAAAAAA&#10;ABAhAAMAAAAAAABECMAAAAAAAAAAEQIwAAAAAAAAQIQADAAAAAAAABAhAAMAAAAAAABECMAAAAAA&#10;AAAAEQIwAAAAAAAAQIQADAAAAAAAABAhAAMAAAAAAABECMAAAAAAAAAAEQIwAAAAAAAAQIQADAAA&#10;AAAAABAhAAMAAAAAAABECMAAAAAAAAAAEQIwAAAAAAAAQIQADAAAAAAAABAhAAMAAAAAAABECMAA&#10;AAAAAAAAEQIwAAAAAAAAQIQADAAAAAAAABAhAAMAAAAAAABECMAAAAAAAAAAEQIwAAAAAAAAQIQA&#10;DAAAAAAAABAhAAMAAAAAAABECMAAAAAAAAAAEQIwAAAAAAAAQIQADAAAAAAAABAhAAMAAAAAAABE&#10;CMAAAAAAAAAAEQIwAAAAAAAAQIQADAAAAAAAABAhAAMAAAAAAABECMAAAAAAAAAAEQIwAAAAAAAA&#10;QIQADAAAAAAAABAhAAMAAAAAAABECMAAAAAAAAAAEQIwAAAAAAAAQIQADAAAAAAAABAhAAMAAAAA&#10;AABECMAAAAAAAAAAEQIwAAAAAAAAQIQADAAAAAAAABAhAAMAAAAAAABECMAAAAAAAAAAEQIwAAAA&#10;AAAAQIQADAAAAAAAABAhAAMAAAAAAABECMAAAAAAAAAAEQIwAAAAAAAAQIQADAAAAAAAABAhAAMA&#10;AAAAAABECMAAAAAAAAAAEQIwAAAAAAAAQIQADAAAAAAAABAhAAMAAAAAAABECMAAAAAAAAAAEQIw&#10;AAAAAAAAQIQADAAAAAAAABAhAAMAAAAAAABECMAAAAAAAAAAEQIwAAAAAAAAQIQADAAAAAAAABAh&#10;AAMAAAAAAABECMAAAAAAAAAAEQIwAAAAAAAAQIQADAAAAAAAABAhAAMAAAAAAABECMAAAAAAAAAA&#10;EQIwAAAAAAAAQIQADAAAAAAAABAhAAMAAAAAAABECMAAAAAAAAAAEQIwAAAAAAAAQIQADAAAAAAA&#10;ABAhAAMAAAAAAABECMAAAAAAAAAAEQIwAAAAAAAAQIQADAAAAAAAABAhAAMAAAAAAABECMAAAAAA&#10;AAAAEQIwAAAAAAAAQIQADAAAAAAAABAhAAMAAAAAAABECMAAAAAAAAAAEQIwAAAAAAAAQIQADAAA&#10;AAAAABAhAAMAAAAAAABECMAAAAAAAAAAEQIwAAAAAAAAQIQADAAAAAAAABAhAAMAAAAAAABECMAA&#10;AAAAAAAAEQIwAAAAAAAAQIQADAAAAAAAABAhAAMAAAAAAABECMAAAAAAAAAAEQIwAAAAAAAAQIQA&#10;DAAAAAAAABAhAAMAAAAAAABECMAAAAAAAAAAEQIwAAAAAAAAQIQADAAAAAAAABAhAAMAAAAAAABE&#10;CMAAAAAAAAAAEQIwAAAAAAAAQIQADAAAAAAAABAhAAMAAAAAAABECMAAAAAAAAAAEQIwAAAAAAAA&#10;QIQADAAAAAAAABAhAAMAAAAAAABECMAAAAAAAAAAEQIwAAAAAAAAQIQADAAAAAAAABAhAAMAAAAA&#10;AABECMAAAAAAn+zdbYxcdd038N+Z7XbhsqXSFL1CkYciICQqEQwFfEGiaDHRAMqDD1FeFEEjSUEx&#10;UV4A+sIAbSmJiSS8EAKBGkGFW4jm1gSBEgrGCIlXroQ+BQEvL719qn2w7c65X+zMdHZ2ZudhZ7e7&#10;Pz6fZHN6ZuacOTM953fO+X//5wwAAEASAmAAAAAAAACAJATAAAAAAAAAAEkIgAEAAAAAAACSEAAD&#10;AAAAAAAAJCEABgAAAAAAAEhCAAwAAAAAAACQhAAYAAAAAAAAIAkBMAAAAAAAAEASAmAAAAAAAACA&#10;JATAAAAAAAAAAEkIgAEAAAAAAACSEAADAAAAAAAAJCEABgAAAAAAAEhCAAwAAAAAAACQhAAYAAAA&#10;AAAAIAkBMAAAAAAAAEASAmAAAAAAAACAJATAAAAAAAAAAEkIgAEAAAAAAACSEAADAAAAAAAAJCEA&#10;BgAAAAAAAEhCAAwAAAAAAACQhAAYAAAAAAAAIAkBMAAAAAAAAEASAmAAAAAAAACAJATAAAAAAAAA&#10;AEkIgAEAAAAAAACSEAADAAAAAAAAJCEABgAAAAAAAEhCAAwAAAAAAACQhAAYAAAAAAAAIAkBMAAA&#10;AAAAAEASAmAAAAAAAACAJATAAAAAAAAAAEkIgAEAAAAAAACSEAADAAAAAAAAJCEABgAAAAAAAEhC&#10;AAwAAAAAAACQhAAYAAAAAAAAIAkBMAAAAAAAAEASAmAAAAAAAACAJATAAAAAAAAAAEkIgAEAAAAA&#10;AACSEAADAAAAAAAAJCEABgAAAAAAAEhCAAwAAAAAAACQhAAYAAAAAAAAIAkBMAAAAAAAAEASAmAA&#10;AAAAAACAJATAAAAAAAAAAEkIgAEAAAAAAACSEAADAAAAAAAAJCEABgAAAAAAAEhCAAwAAAAAAACQ&#10;hAAYAAAAAAAAIAkBMAAAAAAAAEASAmAAAAAAAACAJATAAAAAAAAAAEkIgAEAAAAAAACSEAADAAAA&#10;AAAAJCEABgAAAAAAAEhCAAwAAAAAAACQhAAYAAAAAAAAIAkBMAAAAAAAAEASAmAAAAAAAACAJATA&#10;AAAAAAAAAEkIgAEAAAAAAACSEAADAAAAAAAAJCEABgAAAAAAAEhCAAwAAAAAAACQhAAYAAAAAAAA&#10;IAkBMAAAAAAAAEASAmAAAAAAAACAJATAAAAAAAAAAEkIgAEAAAAAAACSEAADAAAAAAAAJCEABgAA&#10;AAAAAEhCAAwAAAAAAACQhAAYAAAAAAAAIAkBMAAAAAAAAEASAmAAAAAAAACAJATAAAAAAAAAAEkI&#10;gAEAAAAAAACSEAADAAAAAAAAJCEABgAAAAAAAEhCAAwAAAAAAACQhAAYAAAAAAAAIAkBMAAAAAAA&#10;AEASAmAAAAAAAACAJATAAAAAAAAAAEkIgAEAAAAAAACSEAADAAAAAAAAJCEABgAAAAAAAEhCAAwA&#10;AAAAAACQhAAYAAAAAAAAIAkBMAAAAAAAAEASAmAAAAAAAACAJATAAAAAAAAAAEkIgAEAAAAAAACS&#10;EAADAAAAAAAAJCEABgAAAAAAAEhCAAwAAAAAAACQhAAYAAAAAAAAIAkBMAAAAAAAAEASAmAAAAAA&#10;AACAJATAAAAAAAAAAEkIgAEAAAAAAACSEAADAAAAAAAAJCEABgAAAAAAAEhCAAwAAAAAAACQhAAY&#10;AAAAAAAAIAkBMAAAAAAAAEASAmAAAAAAAACAJATAAAAAAAAAAEkIgAEAAAAAAACSEAADAAAAAAAA&#10;JCEABgAAAAAAAEhCAAwAAAAAAACQhAAYAAAAAAAAIAkBMAAAAAAAAEASAmAAAAAAAACAJATAAAAA&#10;AAAAAEkIgAEAAAAAAACSEAADAAAAAAAAJCEABgAAAAAAAEhCAAwAAAAAAACQhAAYAAAAAAAAIAkB&#10;MAAAAAAAAEASAmAAAAAAAACAJATAAAAAAAAAAEkIgAEAAAAAAACSEAADAAAAAAAAJCEABgAAAAAA&#10;AEhCAAwAAAAAAACQhAAYAAAAAAAAIAkBMAAAAAAAAEASAmAAAAAAAACAJATAAAAAAAAAAEkIgAEA&#10;AAAAAACSEAADAAAAAAAAJCEABgAAAAAAAEhCAAwAAAAAAACQhAAYAAAAAAAAIAkBMAAAAAAAAEAS&#10;AmAAAAAAAACAJATAAAAAAAAAAEkIgAEAAAAAAACSEAADAAAAAAAAJCEABgAAAAAAAEhCAAwAAAAA&#10;AACQhAAYAAAAAAAAIAkBMAAAAAAAAEASAmAAAAAAAACAJATAAAAAAAAAAEkIgAEAAAAAAACSEAAD&#10;AAAAAAAAJCEABgAAAAAAAEhCAAwAAAAAAACQhAAYAAAAAAAAIAkBMAAAAAAAAEASAmAAAAAAAACA&#10;JATAAAAAAAAAAEkIgAEAAAAAAACSEAADAAAAAAAAJCEABgAAAAAAAEhCAAwAAAAAAACQhAAYAAAA&#10;AAAAIAkBMAAAAAAAAEASAmAAAAAAAACAJATAAAAAAAAAAEkIgAEAAAAAAACSEAADAAAAAAAAJCEA&#10;BgAAAAAAAEhCAAwAAAAAAACQhAAYAAAAAAAAIAkBMAAAAAAAAEASAmAAAAAAAACAJATAAAAAAAAA&#10;AEkIgAEAAAAAAACSEAADAAAAAAAAJCEABgAAAAAAAEhCAAwAAAAAAACQhAAYAAAAAAAAIAkBMAAA&#10;AAAAAEASAmAAAAAAAACAJATAAAAAAAAAAEkIgAEAAAAAAACSEAADAAAAAAAAJCEABgAAAAAAAEhC&#10;AAwAAAAAAACQhAAYAAAAAAAAIAkBMAAAAAAAAEASAmAAAAAAAACAJATAAAAAAAAAAEkIgAEAAAAA&#10;AACSEAADAAAAAAAAJCEABgAAAAAAAEhCAAwAAAAAAACQhAAYAAAAAAAAIAkBMAAAAAAAAEASAmAA&#10;AAAAAACAJATAAAAAAAAAAEkIgAEAAAAAAACSEAADAAAAAAAAJCEABgAAAAAAAEhCAAwAAAAAAACQ&#10;hAAYAAAAAAAAIAkBMAAAAAAAAEASAmAAAAAAAACAJATAAAAAAAAAAEkIgAEAAAAAAACSEAADAAAA&#10;AAAAJCEABgAAAAAAAEhCAAwAAAAAAACQhAAYAAAAAAAAIAkBMAAAAAAAAEASAmAAAAAAAACAJATA&#10;AAAAAAAAAEkIgAEAAAAAAACSEAADAAAAAAAAJCEABgAAAAAAAEhCAAwAAAAAAACQhAAYAAAAAAAA&#10;IAkBMAAAAAAAAEASAmAAAAAAAACAJATAAAAAAAAAAEkIgAEAAAAAAACSEAADAAAAAAAAJCEABgAA&#10;AAAAAEhCAAwAAAAAAACQhAAYAAAAAAAAIAkBMAAAAAAAAEASAmAAAAAAAACAJATAAAAAAAAAAEkI&#10;gAEAAAAAAACSEAADAAAAAAAAJCEABgAAAAAAAEhCAAwAAAAAAACQhAAYAAAAAAAAIAkBMAAAAAAA&#10;AEASAmAAAAAAAACAJATAAAAAAAAAAEkIgAEAAAAAAACSEAADAAAAAAAAJCEABgAAAAAAAEhCAAwA&#10;AAAAAACQhAAYAAAAAAAAIAkBMAAAAAAAAEASAmAAAAAAAACAJATAAAAAAAAAAEkIgAEAAAAAAACS&#10;EAADAAAAAAAAJCEABgAAAAAAAEhCAAwAAAAAAACQhAAYAAAAAAAAIAkBMAAAAAAAAEASAmAAAAAA&#10;AACAJATAAAAAAAAAAEkIgAEAAAAAAACSEAADAAAAAAAAJCEABgAAAAC01JfHAAAgAElEQVQAAEhC&#10;AAwAAAAAAACQhAAYAAAAAAAAIAkBMAAAAAAAAEASAmAAAAAAAACAJATAAAAAAAAAAEkIgAEAAAAA&#10;AACSEAADAAAAAAAAJCEABgAAAAAAAEhCAAwAAAAAAACQhAAYAAAAAAAAIAkBMAAAAAAAAEASAmAA&#10;AAAAAACAJATAAAAAAAAAAEkIgAEAAAAAAACSEAADAAAAAAAAJCEABgAAAAAAAEhCAAwAAAAAAACQ&#10;hAAYAAAAAAAAIAkBMAAAAAAAAEASAmAAAAAAAACAJATAAAAAAAAAAEkIgAEAAAAAAACSEAADAAAA&#10;AAAAJCEABgAAAAAAAEhCAAwAAAAAAACQhAAYAAAAAAAAIAkBMAAAAAAAAEASAmAAAAAAAACAJATA&#10;AAAAAAAAAEkIgAEAAAAAAACSEAADAAAAAAAAJCEABgAAAAAAAEhCAAwAAAAAAACQhAAYAAAAAAAA&#10;IAkBMAAAAAAAAEASAmAAAAAAAACAJATAAAAAAAAAAEkIgAEAAAAAAACSEAADAAAAAAAAJCEABgAA&#10;AAAAAEhCAAwAAAAAAACQhAAYAAAAAAAAIAkBMAAAAAAAAEASAmAAAAAAAACAJATAAAAAAAAAAEkI&#10;gAEAAAAAAACSEAADAAAAAAAAJCEABgAAAAAAAEhCAAwAAAAAAACQhAAYAAAAAAAAIAkBMAAAAAAA&#10;AEASAmAAAAAAAACAJATAAAAAAAAAAEkIgAEAAAAAAACSEAADAAAAAAAAJCEABgAAAAAAAEhCAAwA&#10;AAAAAACQhAAYAAAAAAAAIAkBMAAAAAAAAEASAmAAAAAAAACAJATAAAAAAAAAAEkIgAEAAAAAAACS&#10;EAADAAAAAAAAJCEABgAAAAAAAEhCAAwAAAAAAACQhAAYAAAAAAAAIAkBMAAAAAAAAEASAmAAAAAA&#10;AACAJATAAAAAAAAAAEkIgAEAAAAAAACSEAADAAAAAAAAJCEABgAAAAAAAEhCAAwAAAAAAACQhAAY&#10;AAAAAAAAIAkBMAAAAAAAAEASAmAAAAAAAACAJATAAAAAAAAAAEkIgAEAAAAAAACSEAADAAAAAAAA&#10;JCEABgAAAAAAAEhCAAwAAAAAAACQhAAYAAAAAAAAIAkBMAAAAAAAAEASAmAAAAAAAACAJATAAAAA&#10;AAAAAEkIgAEAAAAAAACSEAADAAAAAAAAJCEABgAAAAAAAEhCAAwAAAAAAACQhAAYAAAAAAAAIAkB&#10;MAAAAAAAAEASAmAAAAAAAACAJATAAAAAAAAAAEkIgAEAAAAAAACSEAADAAAAAAAAJCEABgAAAAAA&#10;AEhCAAwAAAAAAACQhAAYAAAAAAAAIAkBMAAAAAAAAEASAmAAAAAAAACAJATAAAAAAAAAAEkIgAEA&#10;AAAAAACSEAADAAAAAAAAJCEABgAAAAAAAEhCAAwAAAAAAACQhAAYAAAAAAAAIAkBMAAAAAAAAEAS&#10;AmAAAAAAAACAJATAAAAAAAAAAEkIgAEAAAAAAACSEAADAAAAAAAAJCEABgAAAAAAAEhCAAwAAAAA&#10;AACQhAAYAAAAAAAAIAkBMAAAAAAAAEASAmAAAAAAAACAJATAAAAAAAAAAEkIgAEAAAAAAACSEAAD&#10;AAAAAAAAJCEABgAAAAAAAEhCAAwAAAAAAACQhAAYAAAAAAAAIAkBMAAAAAAAAEASAmAAAAAAAACA&#10;JATAAAAAAAAAAEkIgAEAAAAAAACSEAADAAAAAAAAJCEABgAAAAAAAEhCAAwAAAAAAACQhAAYAAAA&#10;AAAAIAkBMAAAAAAAAEASAmAAAAAAAACAJATAAAAAAAAAAEkIgAEAAAAAAACSEAADAAAAAAAAJCEA&#10;BgAAAAAAAEhCAAwAAAAAAACQhAAYAAAAAAAAIAkBMAAAAAAAAEASAmAAAAAAAACAJBYd6QVgMEU5&#10;MSyLI7scZFOtDdv3DamtdlFf7ayHMANlbTsrqtO/roNKbfur2v6YE9PvH7o/D0xV31562w/0fNxV&#10;f76c9lXQn9p6VT9scfwPsLC1nk92O790/glHjvZXZkeHdpzailbUTiitdwubAHgBK6MSUU5shIWh&#10;4VCGlWmfP7zu1R+rNg5CgLlVre3Cy/rGaWNkGHpan2q1f8DOC8BgJjbPSlSjEmUZURTFNMdtZRQx&#10;3fOGhr0PIyLKajWKoohKUY1eOy0Aw1NGJSIqE+fiEbUmWR3vGExRRozXR2p1vnl84pjjcDBQRDWq&#10;UXX8D0dIWeuJZwtkuOrHEcXkh2ujlUYYoL1xIRMAL1ATB/8TjTrVqEQlmodhaDgrw8OqUSmqE4Fx&#10;bRzo04Anz2UREWUlqsVoRLmoEdiVtRbaRkNtbf5F7Urj1lyv+7jp35rTN69P1Zbp68HvoagU4xFF&#10;NYrSlb8wuP72A9WiEmWMRMRYjNc7AcXhIGDqsBYUR9W48QHGD69PERFRVGOkqMZ4/DuKiKiULetv&#10;t/Yh7UfQVX3zKKY8XokyFkW1WBzj5Ujt/LyIqRtU65TQrGkNm3ZVaV0TyxgpxqMS+6OorXn9ve3M&#10;7nwFb2X1La4sKhOdPxvn663n+8aND3M8IqIaURRRlmUUtfPWigP5BUkAvBCVlYgoooxFcaBcHBGL&#10;I6Jy+BitjKbxasvjhoYzHEbERIPlgVgcB6KIgwHMoXJRjMfR8e/qMVEWS2JiV15EVMuYHNhVo1rU&#10;b9VViSjr47UT8DKiWlSnGe/0+mgan25+pl9400/0758Y6XQCcCiK6t4Yq/wzRso9tZlpzIHZVg9/&#10;D8TS2B/HxaFiSUS5KKpROdygWtQbWGPyMIwb73e8WlufDg8rcSgWxb/iqPhzLI7dtX2I+g/D1C7S&#10;rYe/+4slsb9YEQeK/4iIRRFl5XCDbdNrI6KPDoPG31rjPXYQrR3bl42uBtUYjX/F2+J/Y3H5r8Zj&#10;wNyoFovi37E4qpXRNs+27jmMGx/meDUq5cEYKw9FpTwULEwC4AWqjEqMx9Gx9D/PiijeFlHW/isb&#10;22n9Spxq+7OIusNnCsaNtxmvHdSXzQ2K1Ym/ck/s/Z//ipHi0MQJhN6cMEuarrAsKxExGodiWaw4&#10;6xMRlf+MKEdjYnfevL1Wm7bnStO2Wx9v2l67jsfkRuEp46bPN33E4fWl9ngREcV4RByKGP+f+H//&#10;/X9irDgQlTg4JUMAhmNSg2xZiTLGYn/xzlh58Y0Ri06OqI7FpPrvSnyGpuVeQMXBiNgfMf5avPF/&#10;N8RoeSCK2B+NO0NE59PNhq4vgLeuShmN31WdelxVifEYjX3Fijjl8lsiRk+KiNGIcmRuF5K3pmI8&#10;ovh3xME/xK7HvhMj5cFYFP+OvjqAaiuCwZRFRFGJg8VYHHvWByMWHR2To5z68Zpx47M1Xo0Y3xN/&#10;/6+XYqx6KKqlM86FSAC8gI3HSESxJCKWRRSLonGSXrRuis2PtTYQtVwxYNx41/HaX1FENUZipKxE&#10;06/FALOoLCpRLRfFePm2iOKdEXFSRDEWESPRaFktmntyFE2tSO2eN268n/FDEXEwolJGNd4WUf6t&#10;Fgpr1IHZV0Q1FsWhWBIxcnJEcWbEyNER0e5KABi2gxGxL6KIOBRLohqLaneMAIalOQRuNnEV5qI4&#10;GP8RsfhdESPvjoh6CNDUUcPQcFaGByJiX0REHKjV/1IHUJgT1WLiLLwaiybC39GlIcph7pQR5UR7&#10;/3jtziMT+wa9OhcaVWPBqtT+itpwpGnYaqTDv5vH6423oz2Omz7X9P2MVyNiPKIcqZ2MThcA199X&#10;/yAYXNP2UxYR5cRPAEzswkcjoh4Ad9N6qT/0onm9GY+IysRV52UlyoraDoNp7ZjZXjmlXFcmGoDi&#10;qJho/K/dBnSK1lu6QC+mW2/qxxlHR+POU/VXO6yAGWsX/E5SFjFx2+exmKj/9QC4dru3xh1e6rd/&#10;MzQcbFhGNYqoND1eq//lWO0ctF0vhdpxjSt9YRZUavuI5rZ/mCONdW/iUKR+5x8WFgHwAlQWteai&#10;MuJwEFz/m+nM6wduPY6bPtf0PatX/ErtNyM7zbLeOwgYvokQuIxKFD3tznXIYBCH15syyihiJKIY&#10;DesRzK2y3jZbVmLitp/12/93uwK4fgUPzNR4RLVS+z3q0L8A5lSlqf43dwStGVZHjJn2FzX9wp4+&#10;DkfBh2dTRsTi2rrneAKOnOaW11ogV5ZRFMPaAUDrOlWNiGJSCMzCJABewIbb27o1GOw2bvpc0w+m&#10;4zo46Tcl7SRgaIoyGr386w/1vGHbFhnE4fVmYl2zHsHM9do5rs2VwkXTz3H0NQ8YtnoH5NZ1sbcr&#10;3IF+tN+ehn5/n5nOyPQLZPqWtpqWFan7bCqT23xc+QtHhPCXYWu7TpXOJxc6/4Np+K9knrGDAAAA&#10;AFigBEwAb13a9jNwBfAC5r7rDF9/V+0Wjd8aan1CD1CYFbXfAIYjR32HudNmeyuH+NMvMCOdrkS3&#10;n4Dha1/zp5wVDP2SYHJqWZ96Xl/qdwOqavMBgAVCy8ECVZkS/jr44sjRGQEAAACGy7k2AACDcgUw&#10;0ESfEACatd4Zwn4Cjqi+fwMYgPli8At0e6z5rvxlFhVlGe3WxfoFKlXrHwDMO1rxAGChcAkAAAC8&#10;xUnaAN461HxgcK4Anvem+03WXvL7/n7TFZrN+CeEytp65/dhABao1uOH6ev5lCsAavuBSm06VwbA&#10;VPW+PfWfeK9vJ1N/8qUTx/sMX7/nAa3rbet6DXTenurbST99Pctp5gezoSzi8M6hieN76Een4/be&#10;j+enr/8DnhfMtAHY9At7+gF1Ot53HjC/aCUAAKAPOvUAAMwFjacAAAzKFcDz3nQZfS8NsDJ+Bjfj&#10;c01X/gK8pUy5AqC2H7A3gM5aG/e7X/lbicnH+I73Gb5+zwNa11uhFfRukF95sYkBLESdjtt7P56f&#10;vv4PeF4w052K6Rf29APqdLzvPGB+0VoAAAAAAECTAXonAENmOwQGJwAGAAAAAAAASEIADAAAAAAA&#10;AJCEABgAAAAAAAAgCQEwAAAAAAAAQBICYAAAAAAAAIAkBMAAAAAAAAAASQiASaksy3kzz2EvS6f5&#10;dXuf2fhOgByGVR+OdJ2Zq/c/0p+zV83LuVCWGZhbrbVhLmqFejRhJt+D7xCYDcOoLYO2V8xk3sOY&#10;13Tznk/tSwCDmO/1fdD3nut5zIb5ulzkIQBmRnopUr0WsrIsh1b0iqIYynyGMc/W6Wb6GYuiaDuP&#10;bss3G98JkEM/9WG6GnYk60xZlgO/f791eT7W0+n2C/XvxokF0Kq1ns1FfRv2sXEn873m9ftdN3+e&#10;5mnn++cEFo5hHEt3mscw9i8zqZud5lV/zVzs/+rv1e685UgGK0B+872+d9PLe0yXK8ykvWi2zVU7&#10;Fm9dAmAG1mvxbD2wnm5e082vXSGfi6teu11B1W9w3ekz9hOmz2QeAHXD7MQzG/qprzM5mO+272ke&#10;tv57vmj3GVr3GfP1hAdYWIZdA2erg0qvDUWzoZd9xjA6v87nxixg4evnOHwuj497vVq31/aqTvV4&#10;tsLhdp14+glW5uO5CLCwzNf6PhPT5Qq9tPn0Yz58J/YP9EoAzMD6LTTT9XDs9cC836sUht3LtN38&#10;ugXXg7xPt9d0+p7bnUi0Cy8AIvqrO0fCoPV1mLe0bheeDqMTzlzcdlUoAMyGubjTzkw63fQz7aCN&#10;Wt3eY9Bzm26vH+R9AHrVWs9mWqOGrZdAttuVtZ1q9lzU2GHNT+0H+jUf6vtMjukHmb5Xg9xdYr7W&#10;4fm6XBxZAmCmdcstt0SlUon9+/dPee7ZZ5+NoijiF7/4ReOx1kJz9tlnR6VSaRxQN/91evyaa66Z&#10;8l4HDx6MH/zgB3HJJZfECSecEGNjY/HOd74zzjvvvLjtttvizTff7PpZzj777LbvN91f87K8/vrr&#10;0y73dM/9/Oc/n/J57r///rjkkkvixBNP7PvzFEXR9fPUl6V52O67BYiYqPdFUXSt9506osykxtbr&#10;ay81rVt9nW6/UxRFjI6OxnHHHRfnn39+3HTTTfH88893/E6ag4Hdu3f3vIxr1qzp+n237i/37t0b&#10;733ve6MoinjooYe6Tl/X/P/w0ksvTfledP4BptNr7e9kkNr/xS9+sety1Wvknj17+qqNrfuAdvuD&#10;pUuXxmmnnRaf+cxn4qc//WnXec50+do1xOzZsyc2btwYF154YSxbtiwWL14cJ510Unz2s5+N5557&#10;ru18OtXzPXv2xIYNG+KCCy6IY445pjGvz33uc4152RcAvWhXr47EfqJ+jnDRRRdNquf1mr5y5cq+&#10;PlPzMfJ0y9r6ns1/J5xwQtf32rNnT6xfvz4uuOCCSbW9uR63W75O86rX9mXLlsXo6KjaDgxsPtT3&#10;Tu3S9Tbyj3/84/Gud72r0Ua+evXqSW3kndqi2nn55Zfjm9/8Zlx44YWxYsWKGB0djeXLl8eZZ54Z&#10;11xzTfzoRz+KQ4cOdZy+ud2+eZnOO++8uP3223vKIdr5zW9+M2l/NEgdt3+gX4uO9AIwv+3atSuO&#10;P/74OOqoo9o+FxFxyimntJ22+crT973vfXHsscdOeq7Tge573vOeSeOvvvpqXHHFFfHyyy9HRMSq&#10;Vavi3HPPjb/97W/x8ssvx4svvhgbNmyIu+++O9auXdv1M7Uuy3Sal6W+vIsXL47Vq1d3nKb+2Q4e&#10;PNgIFt7xjnc0nt+2bVt8+tOfHvrn6dYDqSzLKd8tQN2uXbti5cqVPdf7TvVm0BobMVFfzz///I6v&#10;b62vRVFMqq/N3v/+98fb3/72SdNFRBw4cCD+/Oc/x0svvRQvvPBC3H333bF69er43ve+F+ecc86U&#10;+dSne+ONNyIiYtmyZXH22WdPmW/9tfV9Xq/q81i7dm38/ve/j+uvvz4+//nP9zx98/tv2LCh8e/1&#10;69fHmjVrpvw/zefeqsDc67f2dzKT2j+dQWtjp+UpyzL+8Y9/xLZt22Lz5s2xefPm+NCHPhQ/+clP&#10;YsWKFT3PfybLt2XLlrjqqqvijTfeiJGRkTjxxBNj+fLlsW3btnjkkUfikUceiWuuuSa+//3vT/p/&#10;aVe7m+dVqVTipJNOiuXLl8f27dvj4Ycfjocffrgxr7GxMfUf6Nuw9hPNx+bd1PcT9WPuun379sWL&#10;L744qZb1cmzbfIy8YcOGaTtrtr7n/v37Y+vWrZMea3c3u+Z6XBRFnHzyyY16/Mgjj0yqx+2+y2Zb&#10;tmyJK6+8Mt58881GbT/99NNj27Ztk2r7vffeG2NjY9POC6CTI1nf61599dW48sor43e/+11ETLSR&#10;n3POOfH3v/+9Yxv5dDV/x44dccMNN8RTTz0VERGVSiVOOeWUOOOMM+Kf//xnvP766/HAAw/EAw88&#10;EO9+97tjw4YN8clPfnLSvqTdMrVrt9+4cWNce+21PX3uiIl9x/r16xvjd911V3zsYx/refoI+wcG&#10;IwBmWjt37oxTTz2143NFUcRJJ53U9vnWRumPfOQjU15TL7CdDtr/+te/xiWXXBLbt2+PT3ziE7F+&#10;/fo4/fTTG8/v3r07HnroofjWt74V1157bYyPj8d111037WfqtCzd1A/yV6xYEU8//XTX1z/44IPx&#10;/PPPxwc/+MH4wAc+0Pg8a9asmfbzPPjgg3HLLbfM+ucBaDaTet+s35rUXP+PO+64getrs6IoYv36&#10;9dMux+7du+PJJ5+M9evXxwsvvBDnnXdebNq0Kb761a+2fX29h+dFF1008BVj7RRFEffcc09s3rw5&#10;zj333Ni0adNA83nttdfisccei+XLl8dRRx0Vv/rVr+KVV16ZEkZr/Aea7dix44jU/ojujfYzqY0b&#10;N26MD3/4wx2fP3jwYDzxxBOxbt26eO655+LSSy9tXOnQq0GW74UXXoiPfvSjsXfv3li7dm3cdttt&#10;k65k+/GPfxxf//rX4/7774+//OUv8fjjj0elMvWmXWVZxtatW/uel30A0K9hnSPcddddcfHFF/f1&#10;3q21ddeuXVPCiG517bXXXotHH300jj322Dj66KPjl7/8Zdtj5Jm859atW+Piiy+Offv2xdq1a+P2&#10;22+P448/vvF8p3rcbtlb9xO33nrrpKuPO+0ndPIE+nUk63tEb23+Dz74YM9t/k899VRcffXVsXv3&#10;7jj11FPjG9/4RlxxxRWTOoWOj4/HSy+9FJs2bYof/vCHcemll8Ydd9wRN998c2OZ1qxZEzt27Oja&#10;bv+lL30pqtVq13b7uj/84Q/x2GOPNfZH9Tab+t2EurF/YFBuAc20du7cGatWrer43PHHHx9jY2MD&#10;31qgXoBae3DWh3feeWds3749Lrvssnj88cfjtNNOmzT90qVL48tf/nJs2bIlli5dGuvWrYtXX311&#10;oGVpp93n6vWz1k8cbrzxxsZjd91116TP07wTiZj4PF/5ylfi+eefj2OOOSZuvPHG2LZt27TvUw/Q&#10;e+U2EEA709X7HTt2NOp9J4MeUPZbwyIO19d169a1fb6X+S1ZsiSuvvrq2Lp1a9x2220REXHDDTfE&#10;vffe2/b1f/zjHyMiJjWuD6OebtmyJW6++eZYvnx5PProowP30ty0aVMcOnQorrvuukaI3Xy1A0A7&#10;u3bt6ulYfza0u0NBXXNtfOyxx/pehm71eXR0ND71qU/FM888E0uWLIktW7bEM8880/P8B1m+PXv2&#10;xNVXXx179+6Nb3/723HffffFypUrJy3r5ZdfHs8880ysWrUqfvazn3UMlvfu3RtXXXVV7N27N77z&#10;ne805tXs8ssvj2effTZWrVoVTz755MAdjIC3ttZzhOaatXPnzli5cmVPNXCYjc/9HINv2rSpERrU&#10;j5E3btw4tGXZs2dPXHXVVbFv375GbW8OfyMm1+N6bW/3fezdu3fKfuKEE06Ysp947rnnptR2jftA&#10;v450fb/jjjsabeRPPPFEnH766ZOWobmNfNmyZbFu3brYvn37lPmUZRlPP/10XHbZZbF79+74whe+&#10;EK+88kpce+21U+4INDIyEqtXr47NmzfHU089Fccee2ycccYZjefvvPPO2LFjR9t2+7Isp7Tbr1u3&#10;rmu7fd0999wThw4diuuvv37S/qiX78/+gZkQANPR/v37409/+lOsWrVqUihbt3Pnzjj55JMjon2A&#10;O6jmUPiBBx6IiIlbWXbqIRkRcdZZZ8XXvva12L9/f3z3u9+d0fu3W5Zuj7X69a9/Hb/97W9j5cqV&#10;ccUVVzS+k/vvvz8iDn+eTs4888y46aabYt++fUP9PBEKPzBVc71vZ9euXY1630lz7Z/Njiat9XVQ&#10;9eB5ZGQkbr311rjvvvsi4v+3d+/xUZT3Hse/syFBwlUuctcgXhGB9uAFAgHKAaWivdhKBW9QwFtL&#10;kXpoj2josdbX6ancrBUELHIVBakVaMHLKRcRPXoUYhXtQSAJFKwFISQGks3O+WMzw+zszF6STSDL&#10;5/165bXMzsyzz4TN73nm+T0zE04qf/TRR5Iij8O6BbRzgL228fTzzz/X97//fQWDQS1fvtyeXZvs&#10;pJ6SkhI9++yzyszM1P3336+JEycqOztbK1eutBPXAOAWL/Y7+/r1wYqpVmysrKzU8uXLdf7559fZ&#10;Z3br1k033HCDpPCs+kTUtH5z585VYWGh+vfvr0ceecR+392WdOnSRQsXLpQkPfbYYzp+/LhnWUVF&#10;RerXr58efvhhz88zTVOdO3fWwoULZZqmHnvsMZWUlCRUVwCQwu3EoUOHItoJZ8zau3ev59VhqTwX&#10;8Cor0T64u4989913Kzs7W88//3zK+sjz5s3zjO1uVjyW5BuPn3766YTaiU6dOhHbAdTKmRDflyxZ&#10;IkkRt0X2iu89evTQAw88oBMnTuhXv/pV1PqjR49q9OjRqqio0KRJk7R48WJlZ2fHbStGjBihoqIi&#10;3XTTTfZ77jyEdOqYneVZ4/YnTpzQ448/7lm+83dVUlKihQsXRo3ZJNoe0T6gNkgAw7Zu3bqIh7M3&#10;adJEkpSfn69AIGA/sN1av3nzZm3bti1in9tuuy2hpGkiDcbx48d16NAhdejQwXdgysm6zduLL76o&#10;r776KpFDTqpOLVq00LRp0/STn/wkblnWjNIf//jHatQofKf1mh7PCy+8EPd4Ej0BMk2TK4ABaO3a&#10;tRGxOzs7W6ZpKj8/P+J9Z7y3nrnrjPd+kk2MNm/evFbxtaacVx+PHTtWY8eO1cmTJ/XQQw/Z6y3W&#10;LaDdM/prGleDwaBuueUWHTx4UI888kjEs8iS+f0ZhqH58+erpKREt9xyizp37qw2bdrojjvuUEVF&#10;hZ566qmk6wYgPbhj0/r166P6+qmM/alQVVVlx8b8/PyYz2lMFSuuB4PBuNsmUz/373/58uWSpEcf&#10;fTTu5wwZMkSDBw/Wl19+qZUrV0atX7ZsmSTpl7/8pe9nW21cvLIAwOI+R3COCfm1E4mOCdVUbcpa&#10;sGCB3Ufu0qWLWrdurTvvvFMVFRX63e9+V+NynfF96dKlkpKP7S+88ELUenc74W5HnMvOsl588UXG&#10;eQDEdKbFd/cYufuCAndMizXm/5vf/EYHDx7U1VdfHZFM9ivLqWnTpr51sngds2ma9uNv/PIQzv2c&#10;7ZE1ZmO1R7HGbKy60z6gNngGMGxt2rTRoEGD7OXDhw/rr3/9q/r06aOWLVtG3DM+FApp69atysnJ&#10;UU5Ojh1MLr/88ogyva4clhLrxFdWViZVf2vQpqysTO+//74GDBhgf3YinxdvmxYtWuixxx6LW85n&#10;n32mdevWKTs7WxMnTrTLTtXxuCUTyLn6Fzh7OGOfOw62bdtWeXl59nvueO9kxfsLLrggYgaoO97X&#10;RsuWLZOOr87nrLiPNRnO/R5//HEtX75ca9eu1YEDByKu9nUngK3PTCSuerVDU6dO1ZYtWzR8+HBN&#10;nz49qTo7BYNB+4RhypQp9vtTpkzRM888o3nz5mnatGnKzs6u8WcAaJjccad169YRsf/IkSP68MMP&#10;fWP/m2++mXDsjxd7vWbOe23zb//2bymJjcn4+OOPJSnqUTNuyXMEqLQAACAASURBVNbPeaz79+/X&#10;jh071KJFi4jzrVhuvPFGbdq0SevWrdOECRMiytq5c2fMstyP2bnpppu0adMmrV+/3j4/AQC3tm3b&#10;eo4Jfe1rX7PHhCzOMSGrnTAMw24nUv3MwWT7+MFgUL/97W8lRfaRJ0+erHnz5mnu3Ll66KGHatRH&#10;to4rkXjs5ozH7tjubifcvz9rYo87tq9du1bjx49P+jgAnD3OtPjuHiN3ludVtt8YeWVlpZ555hlJ&#10;4at2MzMzfctNtE6JtDfOcf544/bOMZuf/vSn9vuTJ0/W3LlzY47ZGIZB+4BaIwEMW79+/bRp0yZ7&#10;ecmSJbrzzjv1/PPP67LLLovY9u9//7u6dOmiqVOn6t577/Ut0z34kIzWrVurVatWOnTokAoLCyNu&#10;jelV3muvvWa//8EHH9iBtyZXH9eUaZqaM2eOQqGQ7rzzzohnDfgdj3NfZ11fe+01+9/O4wGARMSK&#10;u/369dPmzZvt5cWLF+uuu+6KivemaerQoUPq1KlT3Hhf19zxtVWrVva6eCcLiTAMQx06dNCQIUO0&#10;ceNGbdy4UePGjbNjs5UAtpLC8ZIYsdavWrVKs2bNUteuXbVs2TIFAjW/Icvq1atVWFiogQMH6utf&#10;/7r9/sUXX6wbbrhB69at06JFi3T//fenfCAOQMPijP2maWrJkiW66667tHLlyohnX0nhvn7nzp3j&#10;xv5EErt+690xafXq1XZsXL58ea1iY6JeffVVvfrqq2rXrp1uvPHGlNfPKuOdd96RJOXm5iZ894pv&#10;fOMbkqR33303oizrVtWxynLXfciQITIMwy4LALy4x4Ssc4QVK1Z4jgnFaidS1edMZtKlk9VHzsvL&#10;i+gjX3LJJVF95JpKJB67WbH9f/7nf2pUlju2SyK2A4jrTIvvtRkjdyZbt23bpiNHjujCCy/UwIED&#10;ffdPpk6ff/65Z53c/Orktnr1au3bt095eXn62te+Zr9/8cUXa+TIkXHbo+3bt0uifUDNcQtoRLEG&#10;cgoLCyXJ87lWRUVFMk1TXbt2TapMv/f91o8aNUqS9LOf/cx+z5rV4txn586devLJJ9WsWTOZpql/&#10;/OMfvnVxBsRkk8Hxti8pKdGiRYskyfNWpl7H41Uv63iaN28uSTGPJ1Hc8gE4e8Xr+BYVFUmKjveG&#10;YdhtQaLxvq7Ei6+pcu2110qSCgoKIt63EsATJkzQ4MGDNWTIEI0cOVJjxozRf/zHf2jDhg32rFSv&#10;2ZiWXbt2ady4ccrMzNSqVavUrl07Sadi9IABAxIapLe2t26J7ZxJannggQckSbNnz1YoFCL5C5zl&#10;3H1BK/Y747u1jbWuS5cuMctMNq44+/7u2Dh27FhlZWVp1apVatu2bcR+Vmx87733kvo8r88vKSnR&#10;22+/rQceeEA33nijsrKytGLFCvtWeKmsn3XecujQIUmRz5GPx9r24MGDOnHihF2fzz//PG5Z7v+X&#10;Tp06yTRNuywASITfOYJz3ek+R/Bj9ZGtq3+dbaC7j+xen6hE4rGTaZr23YSc8dg5huVXllf93O0E&#10;ACTqdMd30zQ1atQoGYahqVOnRq13jv27x8i/+OILOybu3LlThmEoNzc3av+aiDVu75TMuP3MmTNl&#10;GEZUe2QYht0ezZo1y26P3GgfUFskgOF7e+aioiK1bdvW8xYEsRqKZMS7QnjatGk677zz9MILL+jm&#10;m2/W//3f/9nbG4ahsrIyPfPMMxo8eLA6d+6sSZMmSZKOHTsWVZZ1nMOGDbP3dz7T2P0zb9483/r6&#10;WbBggUpLS/XNb34z6koKSXr44Yft4/ne975nH4/FfTw//vGPfY8nWQz8A5C8O4fOeO9eX1xcLMMw&#10;4sb7up5kEi++pkqnTp1kGIb++c9/SjoVOw8ePCgpPPty8+bN9q3bVqxYoV/84hcaMWKEOnXqpGef&#10;fTaiPOfvpbS0VN/97ndVWlqqWbNm6ZprrrHXuW9hncjVdFu3btW7776riy66KOrKNSl8hUHv3r21&#10;e/duvfLKK8n+KgCkGffdErz6+tY2xcXFkmrf1/erg7MuVmwsKyvTzJkzI2JjTT9j2LBhnv38QCCg&#10;li1bql+/fpo9e7batGmjt99+236Gl1cMTrZ+XudW1sBN69atEz6O1q1b2/UoKSmx37cSDsmU1aZN&#10;G8+yACCWoqIitWnTxnNMqK7aCSnymY01Gcfw6iM7y/HqI9fkc2oS273isWEYdmx33kXOyevOds7P&#10;JbYDSMbpiu8WwzA0bdo0tWvXTi+++GLEmL+lvLxc8+fP9xzzt2KilQxOZpJlLH55CEtZWVlEnaxx&#10;e78YbLVH3bt3j9keffbZZ3rllVc8x9Wstob2ATVFAhi+Hd2ioiLl5OT4rpMSnw3kTLrG+nEnXbt2&#10;7ao///nP6t69u9asWaNLLrlE3bp1U25urnr16qW2bdvqnnvu0YUXXqgNGzbYD2/3uiWbdZy9evXS&#10;oEGD7J+8vLyIZevH+ZzHRLifMeO1X5cuXezjeemll+zjGTBggOfxNGvWzPd4rGOq6e8WwNnJmknp&#10;VFRUFPFsF/e6ZO74UBcxKV58TWXyORQKRV35ZZqmysvL7cEo0zQVDAZ17NgxffTRR1q2bJluvPFG&#10;ffHFFxo/frweffRRe19nOePGjdMnn3yi0aNH1+p2c5YZM2ZICl8R7ddOWDNKrasgAJw94sXGWLc2&#10;S3SypxXTaxP7E4mN7kkysZimqV69eikvLy+inz948GANGjRIubm56tmzpxo3bqyDBw9q+PDhmjNn&#10;TsTn1KZ+sZIIySYYvBLm1r9reotsJoUCSFSyY0JefXQr5iTTTlj/rqkZM2bIMAz95Cc/8S0nlX3k&#10;ROvqdR7m5o7tftu72wdiO4BknK747iwr1ph/79697THy7t27+47512aykJs17hUrD9GuXTvdfffd&#10;dp3ijdtbbUwiYzZW2+WH9gE1xTOA4auoqEg9evTwXLd//341a9bMc/aJ18BHr1691KpVq6j33R1g&#10;K+nq9PWvf10FBQVatGiRVq9erU8++UTvvfeezjvvPOXl5en222/XLbfcoqysLB09elSSIp4N6a7P&#10;jBkz7Fn+iUg0UL700ksqKirSlVdeqaFDh/pu53U87777rtq3b6+8vDzdcccd+v73v5/Q8VgDXH6z&#10;gJy8frcAzk7uuFZYWKgrrrhCUnTMLC4u9o33XmX27t07Imb5SSYmxYuvqezQWrfpbNOmjST/wfyM&#10;jAy1aNFCPXr0UI8ePTRmzBitXr1ao0aN0qOPPqpvf/vb6tWrl739jBkztGrVKl1xxRWaP3++7+f7&#10;HYu7Hrt379batWt17rnnaty4cb7l3Xrrrfr5z3+uN998U++++6769u3LCQBwlnBPZHH/7RcXF/v2&#10;9RON/dakmGT7o1Z93LHRL+Zat0RLNH7NmDFDQ4cOjbn9iRMn9Mc//lEPPvigJk+erL///e/69a9/&#10;XSf1O++882QYhg4fPpxQ/SXpyJEjdrnW7eWssiTZd6pItCzrnMtZFgC4OeNcrDEhr3Yi1nhPTcct&#10;kn2Oo9VHbtWqlcaOHeu7r7uPfNVVVyX8GVa9rHicTGw/fPiw/Ttp0aKF/b5fWbGOndgOIBmnM75b&#10;t8B3x3S/Mf/27dtr4MCBccf8rdi5f//+RH8Nvqx6+Y3bd+zYUQMGDNAdd9xh18m6Y6fX8Vt3mTj3&#10;3HM1duxY38+NN2ZD+4DaIgEMX8XFxbr++uuj3jdNU8XFxb5Xg3kFoGSTrm7Z2dm6//77414xtXfv&#10;XklS9+7dY9ZHqtkD4WOZNWuWDOPU/ftjSeXx1PZ3CwD79+/XiBEjJEUnDGLFey9PPPFEymNSMvHV&#10;UtOrgt955x1JspO31olNrPbCWv+9731PY8aM0dKlS7VixQq7jM2bN+vnP/+5mjdvrpdeesmeuZro&#10;cXhdBWE9I2bixIlRt21y1jcrK0v33Xef8vPzNWPGDK1cuTJqGwDpz+vv3a+vb61LJvbXZIJlMrGx&#10;JvEq3j7nnHOORo0apWuuuUZXXnmlfvOb3+iuu+7S5ZdfnpL6WXHWNE21b99epmnaz5NPxIEDByRJ&#10;HTp00DnnnGO/3759+4j1tSkLANzcE0FT1U7MnDkz5kT5ROqT6OdYfeRYcduvjyx595O9bu+fbDx2&#10;tgPueGwN8BPbAdSVMy2+W5o0aVLjMfI+ffrIMAxt27bNd79Exj7cVxInOm6/Z88eSdKFF14Ytc45&#10;ZpNIezR9+vSo9kii74/a4xbQkHTqoenOn7KyMs2ePTvq/UAgoDVr1mjXrl0R7w8ePLjO6pfoQP72&#10;7dtlGIauvfbauNumcuB7+/bteuedd9SuXTuNHj3aft9Z72SSEda227dvl6SEjgcAEvHBBx+c0fHe&#10;zS++xpNojHfG5kOHDum///u/ZRiGrrvuuoiyYsVw52dZJ1G7du2y37vvvvsUDAZ1/PhxXXbZZVG/&#10;Y+fyW2+9JUm6+uqrI9Y7Z7QeOXJEixcvliT9+te/9vx/cy7n5+fLMAz7SupkficA0sOOHTsSjv2G&#10;YdRL7HfHRq9n9lo/1qDOVVddFfG+e7Z/TeJXTk6OvvOd78g0Ta1fvz5l9QsEAtq/f78Mw7CfG7x1&#10;61YFg8GoOnjV+y9/+YtdppNV1rZt2+yy3Occ7vL8ygJwdnPGi2TOEeK1E14xLRX9y1iT+yXpyy+/&#10;1JIlSyRF9pH94vf06dMlKaqP7PU5XucDXvE4Xv394rE15pNoWRKxHYC/hhbfE+E1Rt6/f3+1atVK&#10;e/bs8U0CO2O6Vz/Z2qYmeQJnnZzlxhuzcf/k5+fLNE3PMZtk2xqJ9gGRuAIYkqSmTZtq0KBB9vKx&#10;Y8e0Y8cO9ezZ074NprPDu2XLFnXq1Endu3e3A2SfPn0k1c1VRe7yvD7j9ddf1/79+9WjRw9dfPHF&#10;Kf38WEzT1OzZsyVJ9957rxo3bmyvc9bR6xic7zuPyTCMuMeT6t8xgLND8+bN48Z7p61bt6pDhw4R&#10;cah37971UtdY8TVVnLH0oYceUkVFhW666SZ17tw5ajvn1Vx+MbhJkyZR73Xv3t3zfTfTNLVr1y6V&#10;l5frsssus/cxDENZWVn2dnPnzlVZWZkuueSSqPbBL1m9Z88e7dq1S3PmzIn7bBnaFyD9NGvWTHl5&#10;efbftxX7r7jiCrVt2zYqrm3dulUdO3a0Z9gbhmH39VPlwgsvTCg2StLHH3+s8vJyXX755RF3PXC3&#10;CzWNX126dJGkiCt0U1E/K3Z37dpVvXr1UkFBgTZv3qyhQ4dG9f3d/vjHP0qSRo4cGfF+165d1adP&#10;H+3YscMuy++cw/qMV155xbMsAGc3Z7xwniOYpqmSkpK45wgdO3bURRddZMcaq52oq75kvOcdxuoj&#10;W/u7Y+TevXsj+sixuI+ra9eu6t27t3bu3KktW7boG9/4Rtxj8IvHzrKs2F7TsgCgIcX3eGWapqk3&#10;3njDc4w8MzNTEyZM0H/913/pwQcf1JYtW5SZmRm1f6w+d7zP9tsn1rj9vHnzYrZHXtxjNtbn0z6g&#10;tkgAQ5J00UUXadOmTfbyyy+/rO985zuaN2+ecnNzI7Y9ceKEsrOzdc899+jhhx+OKqsuGgN3wHV/&#10;RmVlpf793/9dUvjB6rECdLJX4sY7nsLCQr300ktq3Lix7rvvvoTLdpfrXHYfDwCkSk3i/b333usZ&#10;7+taTeOrlHysX7x4sRYtWqSsrCz96le/8twukZOG999/X1LkbYmsznci+vTpo507d2rJkiXq27dv&#10;1PqKigr97ne/kyQtW7bMc0anV9v18ccfq2fPnlq4cKGmT58e8cwxAOmve/fu2rx5s71sxf758+er&#10;f//+Eds6+/rTpk2rs4H8tWvXJrxtvNhoSXYiqrV9cXGxpMhniqW6fmPGjFFBQYHy8/PjPp/4L3/5&#10;izZv3qyWLVtq1KhRUetvvfVW7dixwy7Lj3W12aZNm9SqVSvPsgBASt2YUCITJutCZWWlnnrqKUn+&#10;fWQvVh95wYIFnn3kWONKhmFo9OjR2rlzpx555BHfBLC17aZNm2LGY6useLFdErEdQMIaenwPBoP2&#10;GPnkyZOj1v/sZz/TkiVL9Pbbb2vq1KmaNWtWxPpYF5VVVVUpIyPD95j8jtM5bu+uU0VFRa3ao4UL&#10;Fyo/P18tW7a0P5/2AbXBLaDhqbCwUJLUrVs3z3WmaSonJ6fe6hOr0x0MBjVu3Di999576tu3r374&#10;wx9Gzep0vqa6kXrqqadUVVWl0aNHq127djUqw1nHYDCoH/7whxHHE2sfAPASK0Y411nx3uuZJe54&#10;X99xpzbxNdFYHwqF9Pjjj2v8+PGSpNmzZ6tnz54R29x8882+SVz379JKzt56661J1dfNr/7PP/+8&#10;Dh48qNzcXN8TCa99e/TooeHDh6ukpEQLFiyoVd0ANDzuuwMUFhbKMAzP/nx99fXrok1xD0ol8hnF&#10;xcX21bYDBw6sk/qZpqkf/ehH6tq1q9566y09+uijnttI4Wd2TZgwQZL0yCOPqGXLllHb3n///Tr/&#10;/PP11ltv6Ze//KXv51plGYahhx9+2LMsAPBS0zGhml5lVRumaWrFihVx+8heevTooWHDhun48eNa&#10;uHChZ9mS/wT+ROKxYRg6cOCAfb7hjsfWZyQb273KAoB4GlJ8d4+Rjxs3Lmqb1q1ba9myZcrMzNTs&#10;2bN111136auvvvIt06r/9u3bdemll+rNN99M6CpkS1VVlcaPH+9bp0TGbLw4x2yeffbZiM+kfUBt&#10;kACGp8LCQjVu3FgdO3aMeN80TbuhuOCCC6L2S/VAjmma2rZtm5YuXaoTJ05ErKuoqNCf/vQnXXPN&#10;NVq2bJnOP/98rV69WoFA5Ne6Ng1UvMGj0tJS+yRh8uTJCX2G1/EYhhFxPEuXLrWPJyMjw7McEsAA&#10;Ykn0Fr+FhYXKyspShw4dorbbt2+fpFPxvj47+jWJr15ixe9Vq1apf//+9szWOXPm6N57743YrqCg&#10;QC+//LK+9a1vacSIEdqwYYNOnjxprzcMQ8FgUKtWrVJubq6+/PJL3XnnnbV+1opfvWfOnClJeuCB&#10;B5Led8qUKZKkJ598UlVVVUnvD6Bh84r97r6+tU4Kx/66urOPuz61Lasmn3Hy5EmtWbNGeXl5On78&#10;uIYMGaLBgwfXyaRRwzCUnZ2tlStXqkmTJpo+fbomTJigAwcORGzzhz/8QQMHDtRnn32mb37zm76x&#10;vmnTpnr++efVpEkT5efna8KECRG3r5YUUdaIESNithsA4OY3JmStk7zHhPzURf/SGa+tPrLV302G&#10;tc+cOXN8+8h+9W/atKlWrFihc845x47HztguKW5st9obr9juLuvll1+2y7rhhhuI7QCSdibF923b&#10;tmnJkiWeY/7r16+3x8i7du1qj5E7n+NrvQ4dOlRr1qxR06ZNtXjxYvXu3VvPPvusjh07FlXXHTt2&#10;aPz48XYs3bBhQ1Sd/Mbt169fr6uvvlpLliyJGLd3/g5S1R6FQiH7fdoH1Aa3gIbNOVu+sLBQOTk5&#10;nrMc3Y2B+xYQqbwVhGEYevDBB/X2229rwoQJ6ty5s9q3b6/S0lLt2bNHZWVlkqThw4dr0aJF6tSp&#10;k+8xWX7605/q3HPPTbgOf/7zn32f//X73/9ex44d09ChQ9WrV6+Y5Vh18TuevXv3qrS0VJI0bNgw&#10;Pffcc1HH4+ROdAOAF69nXTljdWFhobp16+YZt4uKiiQl1/lPlWTiqxd3rLc65MFgUF988YX27Nlj&#10;D/D07dtXv/3tb3XttddGldOrVy+98cYbmjRpkjZs2KANGzaocePGysnJUdu2bVVeXq5PPvnEnmE6&#10;btw4Pf300zU5ZE/Oga3XX39dBQUF6tatm7797W97bmsYhm8bPHz4cPXs2VN//etftXr1at/bAfEM&#10;YCA9ePWDnbHfL8Fbk4GfZKQ6seplypQpat26tefvoKqqSkePHtXu3bvtgZ3hw4frhRdeqPP4179/&#10;f23cuFGjRo3SwoULtWjRIl1wwQVq3bq1du/eraNHj0qSbrvtNs2fPz9mfz+VZQGAm9+YkLXOMIyk&#10;2om6fG6ks4/8rW99y17vdx7kdt111/n2kRNJbOTm5uq1117TLbfcooULF+r3v/+9cnJyPOPxggUL&#10;iO0ATqszKb5bY+QTJ060x8jLysq0e/due4xl+PDheu655+yEtd/njRw5Uh988IF+9KMf6dVXX9X4&#10;8eM1ceJEXXTRRWrXrp3KyspUXFysw4cPSwqf6/znf/6nfvCDH3jWyT1u/9lnn9l1GjZsmBYvXhyV&#10;RPdrjxIVa8yG9gE1RQIYkqI7wvv27fO97VthYaEaNWqkzp07S4q+wjbVHfvZs2frueee01tvvaW9&#10;e/dq3759atKkiS644ALl5ubqtttuU15enue+XnUpKChI6vO9ZoBas42efPJJSd7PIPCri3U827Zt&#10;0759+5I6HncdACAev9uVuSf8SNFtgTve16dk4quXDz/80DNOZmRkqGXLlvqXf/kX9evXTzfffHPE&#10;LT+9DB48WAUFBXrjjTe0bt06bd26VcXFxdq7d69atGihbt26afDgwRozZoz69etXo/r6cf5/zJgx&#10;Q5I0adIkz7tDJNL+TpkyRePGjdMTTzzB82CANBfrOVb79u3zvO2bVD+xv66fHfbhhx/6rsvIyFDz&#10;5s116aWX6qqrrtKoUaP0r//6rxH1qsv6DRw4UJ9++qnmzp2rNWvW6OOPP1ZRUZE6dOigESNG6O67&#10;79agQYNqVVbHjh11/fXX65577km4LABwijcmlJGRcVrOEbz49ZH9zoOcrHhv9ZFnzJgR0UdOtC0Y&#10;MGCA/va3v+npp5+us9jevn37pMsCALczKb77jfnn5OSof//+uv322z3HyP0mv1988cXauHGj/vd/&#10;/1crV67U1q1b9emnn2rPnj1q1qyZ2rdvr5EjR+r666/Xd7/7XWVlZSVVJ79xe6se8cZs4jFN07c9&#10;kmgfUDPGyYOLyCI1MKYCkpmpCrVQ8459JbWSlCnu6I36EZJUJZlHdPzQ+2pkHFWGWSkZobh74kwQ&#10;UoZZpYzAMZX880MFjGPKMKv4/2sgTDVSKJStcnVVuytul4xuks4R87lQP4KSTkrmHn3x0VKdEyhS&#10;hsplKHi6K4YEBMyQDJnKMst0uLhAWeZXMhRSwCT+NwRVRqaqzOb60rhU3a57QsroKamJwucAQF2r&#10;lFQuVRVo78apaqVdyjTLFFDl6a4YEmSYAQXMgMqPBWWYEvf6aDhCylKVma3DgUt0yagnpczLJWWL&#10;/j/qR6Wkk1LlR/r0xUlqHfqbMvWVAqo43RVDAkw1kmk2VrnZUR2vGKVKdZLMxjKJHw1C+Oytkb7K&#10;aKo2V+ZJmc0VHvtn/B/1oXqcoPKYDn+4RU1CxxUwQwqIVGJDQ8QAAAAAAAAAAAAAgDRBAhgAAAAA&#10;AAAAAAAA0gQJYAAAAAAAAAAAAABIEySAAQAAAAAAAAAAACBNkAAGAAAAAAAAAAAAgDRBAhgAAAAA&#10;AAAAAAAA0gQJYAAAAAAAAAAAAABIEySAAQAAAAAAAAAAACBNkAAGAAAAAAAAAAAAgDRBAhgAAAAA&#10;AAAAAAAA0gQJYAAAAAAAAAAAAABIEySAAQAAAAAAAAAAACBNkAAGAAAAAAAAAAAAgDRBAhgAAAAA&#10;AAAAAAAA0gQJYAAAACTOPN0VAAAAOHuEjNNdAwDA6RU63RUA0ECRAE4L/DeibphyjfMnPOgfEp0T&#10;oI6Z0Yvk5VCfDL5wQK0YJn9HSH98z4HUMEkC4zQzDb6HQP2LPbbKOBBSKdb3if58w0XmEAAAAAAA&#10;AGgQGIUFAAB1jO5GWiABnBa40hJ1w6j+SV5AhBcgNQJm+CeKEVBN/0KBVOAKAKB23FfShAxu84mG&#10;z/095ooxIDWir7xhHAh1xOcSMOuODobf+SmAWou+c0rssdWaj9sC0WJ9nyL789z5syEhQwMAAIDE&#10;kaQCAACoF1YigIkUAHA2I4WD04C+R1podLorAKABIfAD9c6daDMNa55dSM6p2fx5AkDD5ns1jW+A&#10;J/LjzMNVYUDqBEypyn9t1DvWnx+tA2rF5wtk3dHBVIjrvoA64p7s4z35JySzug2IXm39dZIwhr/k&#10;+wuGwt8pvl8NEQngBsgwnUP+IXHZPeqeM8iHIv7NIA9QzwxTMq2/w6BiDQsBqVVV/RNSwAwxugjU&#10;o/AVYM7YX1n9Y6FDhmRZQTyR7471nQvHf8I/cDqEJKNK4b/HoLw6YpHvmNXv8MprMq9uQUkVklEl&#10;w2TcETh9rAsAQpICMqISce6/T+d6/nYRKfG+vPXd4VyzISMB3GCFXD9VOtUQSNENAMssp2LZei8o&#10;GaHqDgcdCaA+GaYUUEgyrMH/gKQMxZ/D517PMsvuZfd3x3Str04AGJXhNiBiF2aCAnXGcb4djv8n&#10;JZUr/AdY6bMTkEqVksqlwEnJCFZPRANQ10JWXk6mDHsixsnqtfEmgYaTBLzymtyrW4XC37lKGQrJ&#10;ME2f7QDUBe+JF4m+l8g6wI91Ehr+/jAJqOEiAdxQGSEZqpTM0urJetX/lWfSODLLabpcnfQ1SxVQ&#10;lWSEmAgE1CcjqIBZLlUdrM77ZiriJNwMhP8uWWa5xsuSfZLoXG9ddRL8XAGVh5MAAOqJqYCCaqRS&#10;KbhXypQUaixO51B7iUzgCYYnHgT3qpGqzwE4AQDqhxFShoLK0ldSxb7we2amwicC8SZyAzXh+B4Z&#10;VZIqpYp9ylKpAgo6rjwEUB8yzKBUWVq95OqvmdXLRvVYbcz+nHt9Mste/UX2b9j7u3ntL6myNPwd&#10;RIPFiEFDZIT/IDN0UqWHdsmM6PgD9SEkw6hUhnFSkhmZPABQZwwzpIBRqSzjSx3+ZJ1Calrd4Q+3&#10;ASEjpIB5qj1gmeXklhVxW3/3+vAgUEgBlSvL+FIBVYZngRoS/RCgjhkhBcyTyjY/14HXZyqoZpLZ&#10;SCGDvz3UVmIDQtYEhGzzCxlGRfhRAADqVMCUQgopQ5VqkVUikwAABgNJREFUGvqn9v3hcVWomaSA&#10;ZAbsZ0Ma1f03lllO/XL4zm9ZKlW2+Q9lVD8OAEDdCyj8xO0s86SO7npPVYZXGieRK3lM1/bJLHt9&#10;Hvun1/6S//clPAEhyzwpQyEFmADaIJEAbsACqlTACCqkgAJmwB645ZXX2ry6eW9nzSwzRecfqEfV&#10;t91tpHIZRlAyj9n9NfuEXSyzXIfLpiQjqIAquQIYqEcBM6SQITXScTU3KxSqPo0zzfAzwExDMsxA&#10;9Y3bWWY5weXqfkV4OXydudf2YSEFVKWAKmQ9Dx5A3QsopJCCyjJLlVFVqSojoIBpOG4P7cAyy3Ww&#10;HFD4FuQBVcrgCmCgXgVMKWAGZRiRE/ZMw7otb10vq3pZ7J92+weiJ/x47W9Yt/9HQ0UCuIGyO1xm&#10;QAGjSoaqFFB4oJZXXmvzGmYP+ftvV90IRN8iAkBdCg8CSRlmpUxVJ+AMR2fMcO3AMsvJLptG5ACQ&#10;x/eL578A9c9KAhs6oUD1H+OpxN2pP1+WWU542f3qs/0ppgIKiWcAA/UjZPfTQjLMoDKMkALVLQBD&#10;sagvpxIAIXH3N6B+GTJlGlJG9XmANQHvVP+srpfF/mm7fyjOekkKnxgEErpjEM5UJIAbOiMUHv4x&#10;xCuvKXmVFDHjJ9Z2zPwHTg8rCRz+e+TvEClmSJHPEvLZBkC9O3UXlmomr7zWwyuA088I34o34rwc&#10;qAcBVfc8+NIBp0X4bi0mqTecBow3pgMSwACimAknlOh+AHXGJwEXYgIG6oP1vYuXCAYAAEBqJNrv&#10;qt7OuiInRGIOdcj5/bLuEAGgfli37o18JhNQXxj3Twf8LwIAAAAAAAAAPJF2AgCg4eEK4DQT/XDv&#10;yGUgNbj3P1DnuOISZwKf7yETkAEAAFLM1e8KVPezoq7wte/UUvdVAiwMKwKnASfeOAOQBWjY+H8D&#10;AAAAAAAAAAAAgDTBFcBpxn2lL1f+om4wdwQAzmZMQAYAAKhb8Z7ty7N/ASDNceKNMwBZgIaN/z8A&#10;AAAAAAAAAAAASBMkgAEAAAAAAAAAAAAgTZAABgAAAAAAAAAAAIA0QQIYAAAAAAAAAAAAANIECWAA&#10;AAAAAAAAAAAASBMkgAEAAAAAAAAAAAAgTZAABgAAAAAAAAAAAIA0QQIYAAAAAAAAAAAAANIECWAA&#10;AAAAAAAAAAAASBMkgAEAAAAAAAAAAAAgTZAABgAAAAAAAAAAAIA0QQIYAAAAAAAAAAAAANIECWAA&#10;AAAAAAAAAAAASBMkgAEAAAAAAAAAAAAgTZAABgAAAAAAAAAAAIA0QQIYAAAAAAAAAAAAANIECWAA&#10;AAAAAAAAAAAASBMkgAEAAAAAAAAAAAAgTZAABgAAAAAAAAAAAIA0QQIYAAAAAAAAAAAAANIECWAA&#10;AAAAAAAAAAAASBMkgAEAAAAAAAAAAAAgTZAABgAAAAAAAAAAAIA0QQIYAAAAAAAAAAAAANIECWAA&#10;AAAAAAAAAAAASBMkgAEAAAAAAAAAAAAgTZAABgAAAAAAAAAAAIA0QQIYAAAAAAAAAAAAANIECWAA&#10;AAAAAAAAAAAASBMkgAEAAAAAAAAAAAAgTZAABgAAAAAAAAAAAIA0QQIYAAAAAAAAAAAAANIECWAA&#10;AAAAAAAAAAAASBMkgAEAAAAAAAAAAAAgTZAABgAAAAAAAAAAAIA0QQIYAAAAAAAAAAAAANIECWAA&#10;AAAAAAAAAAAASBMkgAEAAAAAAAAAAAAgTZAABgAAAAAAAAAAAIA0QQIYAAAAAAAAAAAAANIECWAA&#10;AAAAAAAAAAAASBMkgAEAAAAAAAAAAAAgTZAABgAAAAAAAAAAAIA0QQIYAAAAAAAAAAAAANIECWAA&#10;AAAAAAAAAAAASBMkgAEAAAAAAAAAAAAgTZAABgAAAAAAAAAAAIA0QQIYAAAAAAAAAAAAANIECWAA&#10;AAAAAAAAAAAASBMkgAEAAAAAAAAAAAAgTZAABgAAAAAAAAAAAIA0QQIYAAAAAAAAAAAAANIECWAA&#10;AAAAAAAAAAAASBMkgAEAAAAAAAAAAAAgTZAABgAAAAAAAAAAAIA08f+9XhCwq2w2EwAAAABJRU5E&#10;rkJggg==&#10;"
       id="image1"
       x="10.128433"
       y="324.66711" /></g></svg>
