<?xml version="1.0" encoding="UTF-8" standalone="no"?>
<!-- Created with Inkscape (http://www.inkscape.org/) -->

<svg
   width="178.58806mm"
   height="122.61794mm"
   viewBox="0 0 178.58806 122.61794"
   version="1.1"
   id="svg1"
   inkscape:version="1.3.2 (091e20ef0f, 2023-11-25, custom)"
   sodipodi:docname="zeeman_effect.svg"
   xml:space="preserve"
   xmlns:inkscape="http://www.inkscape.org/namespaces/inkscape"
   xmlns:sodipodi="http://sodipodi.sourceforge.net/DTD/sodipodi-0.dtd"
   xmlns:xlink="http://www.w3.org/1999/xlink"
   xmlns="http://www.w3.org/2000/svg"
   xmlns:svg="http://www.w3.org/2000/svg"><sodipodi:namedview
     id="namedview1"
     pagecolor="#ffffff"
     bordercolor="#000000"
     borderopacity="0.25"
     inkscape:showpageshadow="2"
     inkscape:pageopacity="0.0"
     inkscape:pagecheckerboard="0"
     inkscape:deskcolor="#d1d1d1"
     inkscape:document-units="mm"
     inkscape:zoom="2.096401"
     inkscape:cx="220.8547"
     inkscape:cy="384.94544"
     inkscape:window-width="1920"
     inkscape:window-height="1029"
     inkscape:window-x="0"
     inkscape:window-y="27"
     inkscape:window-maximized="1"
     inkscape:current-layer="layer1" /><defs
     id="defs1"><marker
       style="overflow:visible"
       id="Dot"
       refX="0"
       refY="0"
       orient="auto"
       inkscape:stockid="Dot"
       markerWidth="0.6"
       markerHeight="0.6"
       viewBox="0 0 1 1"
       inkscape:isstock="true"
       inkscape:collect="always"
       preserveAspectRatio="xMidYMid"><path
         transform="scale(0.5)"
         style="fill:context-stroke;fill-rule:evenodd;stroke:none"
         d="M 5,0 C 5,2.76 2.76,5 0,5 -2.76,5 -5,2.76 -5,0 c 0,-2.76 2.3,-5 5,-5 2.76,0 5,2.24 5,5 z"
         sodipodi:nodetypes="sssss"
         id="path17" /></marker><marker
       style="overflow:visible"
       id="X"
       refX="0"
       refY="0"
       orient="auto"
       inkscape:stockid="X"
       markerWidth="1"
       markerHeight="1"
       viewBox="0 0 1 1"
       inkscape:isstock="true"
       inkscape:collect="always"
       preserveAspectRatio="xMidYMid"><path
         style="fill:none;stroke:context-stroke;stroke-width:1"
         d="M -3,3 3,-3 M 3,3 -3,-3"
         id="path24" /></marker><inkscape:path-effect
       effect="rough_hatches"
       id="path-effect42"
       is_visible="true"
       lpeversion="1.2"
       direction="192.40314,156.44969 , 25.465812,-1.0642767"
       dist_rdm="0;1"
       growth="0"
       do_bend="false"
       bender="192.40314,161.44969 , 7.7153131,2.8421709e-14"
       bottom_edge_variation="0;1"
       top_edge_variation="0;1"
       bottom_tgt_variation="0;1"
       top_tgt_variation="0;1"
       scale_bf="1"
       scale_bb="1"
       scale_tf="1"
       scale_tb="1"
       top_smth_variation="0;1"
       bottom_smth_variation="0;1"
       fat_output="false"
       stroke_width_top="3.4"
       stroke_width_bottom="1"
       front_thickness="4"
       back_thickness="0.25" /><linearGradient
       id="linearGradient41"
       inkscape:collect="always"><stop
         style="stop-color:#838383;stop-opacity:1;"
         offset="0"
         id="stop41" /><stop
         style="stop-color:#838383;stop-opacity:0;"
         offset="1"
         id="stop42" /></linearGradient><linearGradient
       id="linearGradient33"
       inkscape:collect="always"><stop
         style="stop-color:#fdcd00;stop-opacity:1;"
         offset="0"
         id="stop33" /><stop
         style="stop-color:#fdcd00;stop-opacity:0;"
         offset="1"
         id="stop34" /></linearGradient><linearGradient
       id="linearGradient31"
       inkscape:collect="always"><stop
         style="stop-color:#000000;stop-opacity:0.46235627;"
         offset="0"
         id="stop31" /><stop
         style="stop-color:#000000;stop-opacity:0;"
         offset="1"
         id="stop32" /></linearGradient><linearGradient
       id="linearGradient30"
       inkscape:collect="always"><stop
         style="stop-color:#ff6800;stop-opacity:1;"
         offset="0"
         id="stop29" /><stop
         style="stop-color:#8a6400;stop-opacity:0;"
         offset="1"
         id="stop30" /></linearGradient><linearGradient
       id="linearGradient28"
       inkscape:collect="always"><stop
         style="stop-color:#ffa800;stop-opacity:1;"
         offset="0"
         id="stop27" /><stop
         style="stop-color:#8a6400;stop-opacity:0;"
         offset="1"
         id="stop28" /></linearGradient><linearGradient
       id="linearGradient26"
       inkscape:collect="always"><stop
         style="stop-color:#ffd900;stop-opacity:1;"
         offset="0"
         id="stop25" /><stop
         style="stop-color:#ffef00;stop-opacity:0;"
         offset="1"
         id="stop26" /></linearGradient><linearGradient
       id="linearGradient24"
       inkscape:collect="always"><stop
         style="stop-color:#f5ff00;stop-opacity:1;"
         offset="0"
         id="stop23" /><stop
         style="stop-color:#ffef00;stop-opacity:0;"
         offset="1"
         id="stop24" /></linearGradient><linearGradient
       id="linearGradient22"
       inkscape:collect="always"><stop
         style="stop-color:#c1ff00;stop-opacity:1;"
         offset="0"
         id="stop21" /><stop
         style="stop-color:#9eff00;stop-opacity:0;"
         offset="1"
         id="stop22" /></linearGradient><linearGradient
       id="linearGradient20"
       inkscape:collect="always"><stop
         style="stop-color:#7cff00;stop-opacity:1;"
         offset="0"
         id="stop19" /><stop
         style="stop-color:#9eff00;stop-opacity:0;"
         offset="1"
         id="stop20" /></linearGradient><linearGradient
       id="linearGradient18"
       inkscape:collect="always"><stop
         style="stop-color:#ff8b00;stop-opacity:1;"
         offset="0"
         id="stop17" /><stop
         style="stop-color:#8a6400;stop-opacity:0;"
         offset="1"
         id="stop18" /></linearGradient><linearGradient
       id="linearGradient16"
       inkscape:collect="always"><stop
         style="stop-color:#ffef00;stop-opacity:1;"
         offset="0"
         id="stop15" /><stop
         style="stop-color:#ffef00;stop-opacity:0;"
         offset="1"
         id="stop16" /></linearGradient><linearGradient
       id="linearGradient12"
       inkscape:collect="always"><stop
         style="stop-color:#9eff00;stop-opacity:1;"
         offset="0"
         id="stop12" /><stop
         style="stop-color:#9eff00;stop-opacity:0;"
         offset="1"
         id="stop13" /></linearGradient><radialGradient
       inkscape:collect="always"
       xlink:href="#linearGradient12"
       id="radialGradient13"
       cx="54.928844"
       cy="61.86554"
       fx="54.928844"
       fy="61.86554"
       r="4.5340157"
       gradientTransform="matrix(0.99998344,-0.00575549,0.01252585,2.1762961,-0.82245976,-85.332553)"
       gradientUnits="userSpaceOnUse" /><radialGradient
       inkscape:collect="always"
       xlink:href="#linearGradient16"
       id="radialGradient13-7"
       cx="54.928844"
       cy="61.86554"
       fx="54.928844"
       fy="61.86554"
       r="4.5340157"
       gradientTransform="matrix(0.99998344,-0.00575549,0.01252585,2.1762961,55.13818,-85.332617)"
       gradientUnits="userSpaceOnUse" /><radialGradient
       inkscape:collect="always"
       xlink:href="#linearGradient18"
       id="radialGradient13-7-1"
       cx="54.928844"
       cy="61.86554"
       fx="54.928844"
       fy="61.86554"
       r="4.5340157"
       gradientTransform="matrix(0.99998344,-0.00575549,0.01252585,2.1762961,103.74516,-85.314483)"
       gradientUnits="userSpaceOnUse" /><radialGradient
       inkscape:collect="always"
       xlink:href="#linearGradient16"
       id="radialGradient13-7-9"
       cx="54.928844"
       cy="61.86554"
       fx="54.928844"
       fy="61.86554"
       r="4.5340157"
       gradientTransform="matrix(0.99998344,-0.00575549,0.01252585,2.1762961,55.080003,-53.624621)"
       gradientUnits="userSpaceOnUse" /><radialGradient
       inkscape:collect="always"
       xlink:href="#linearGradient18"
       id="radialGradient13-7-1-6"
       cx="54.928844"
       cy="61.86554"
       fx="54.928844"
       fy="61.86554"
       r="4.5340157"
       gradientTransform="matrix(0.99998344,-0.00575549,0.01252585,2.1762961,103.68698,-53.606487)"
       gradientUnits="userSpaceOnUse" /><radialGradient
       inkscape:collect="always"
       xlink:href="#linearGradient12"
       id="radialGradient13-5"
       cx="54.928844"
       cy="61.86554"
       fx="54.928844"
       fy="61.86554"
       r="4.5340157"
       gradientTransform="matrix(0.99998344,-0.00575549,0.01252585,2.1762961,-0.88064051,-53.624557)"
       gradientUnits="userSpaceOnUse" /><radialGradient
       inkscape:collect="always"
       xlink:href="#linearGradient20"
       id="radialGradient13-5-0"
       cx="54.928844"
       cy="61.86554"
       fx="54.928844"
       fy="61.86554"
       r="4.5340157"
       gradientTransform="matrix(0.99998344,-0.00575549,0.01252585,2.1762961,-9.2188533,-53.572827)"
       gradientUnits="userSpaceOnUse" /><radialGradient
       inkscape:collect="always"
       xlink:href="#linearGradient22"
       id="radialGradient13-5-9"
       cx="54.928844"
       cy="61.86554"
       fx="54.928844"
       fy="61.86554"
       r="4.5340157"
       gradientTransform="matrix(0.99998344,-0.00575549,0.01252585,2.1762961,7.5165015,-53.607692)"
       gradientUnits="userSpaceOnUse" /><radialGradient
       inkscape:collect="always"
       xlink:href="#linearGradient24"
       id="radialGradient13-7-9-7"
       cx="54.928844"
       cy="61.86554"
       fx="54.928844"
       fy="61.86554"
       r="4.5340157"
       gradientTransform="matrix(0.99998344,-0.00575549,0.01252585,2.1762961,46.374374,-53.624557)"
       gradientUnits="userSpaceOnUse" /><radialGradient
       inkscape:collect="always"
       xlink:href="#linearGradient26"
       id="radialGradient13-7-9-7-3"
       cx="54.928844"
       cy="61.86554"
       fx="54.928844"
       fy="61.86554"
       r="4.5340157"
       gradientTransform="matrix(0.99998344,-0.00575549,0.01252585,2.1762961,63.66059,-53.643704)"
       gradientUnits="userSpaceOnUse" /><radialGradient
       inkscape:collect="always"
       xlink:href="#linearGradient28"
       id="radialGradient13-7-1-6-9"
       cx="54.928844"
       cy="61.86554"
       fx="54.928844"
       fy="61.86554"
       r="4.5340157"
       gradientTransform="matrix(0.99998344,-0.00575549,0.01252585,2.1762961,95.229686,-53.574782)"
       gradientUnits="userSpaceOnUse" /><radialGradient
       inkscape:collect="always"
       xlink:href="#linearGradient30"
       id="radialGradient13-7-1-6-9-3"
       cx="54.928844"
       cy="61.86554"
       fx="54.928844"
       fy="61.86554"
       r="4.5340157"
       gradientTransform="matrix(0.99998344,-0.00575549,0.01252585,2.1762961,112.03895,-53.589668)"
       gradientUnits="userSpaceOnUse" /><path
       d="m 3.80174,-5.18854 c -0.07173,0 -0.19128,0.01195 -0.21519,0.02391 -0.02391,0.01196 -0.04782,0.01195 -0.21519,0.01195 H 1.9726 v -1.35093 c 0,-1.21943 1.0401,-1.67372 1.74546,-1.67372 0.11955,0 0.6934,0.01195 1.05205,0.41843 -0.50211,0 -0.53798,0.37061 -0.53798,0.50211 0,0.3467 0.28692,0.50212 0.49016,0.50212 0.21519,0 0.50212,-0.14346 0.50212,-0.51407 0,-0.60972 -0.56189,-1.1477 -1.48244,-1.1477 -1.08792,0 -2.49863,0.59776 -2.49863,1.88892 v 1.37484 H 0.310834 v 0.3467 H 1.24334 v 3.921298 c 0,0.537982 -0.13151,0.537982 -0.908595,0.537982 V 0 c 0.334744,-0.0239103 0.920545,-0.0239103 1.279205,-0.0239103 0.35866,0 0.95641,0 1.29116,0.0239103 v -0.3467 c -0.76513,0 -0.9086,0 -0.9086,-0.537982 V -4.80598 h 1.87696 c 0.54994,0 0.62167,0.15542 0.62167,0.64558 v 3.275718 c 0,0.537982 -0.1315,0.537982 -0.90859,0.537982 V 0 c 0.33475,-0.0239103 0.92055,-0.0239103 1.2792,-0.0239103 0.35865,0 0.95642,0 1.29116,0.0239103 v -0.3467 c -0.76513,0 -0.90859,0 -0.90859,-0.537982 V -5.28418 Z"
       id="g0-12" /><path
       d="M 2.74969,-7.93823 C 2.666,-8.16538 2.65405,-8.16538 2.37908,-8.16538 H 0.526027 v 0.3467 h 0.239104 c 0.860769,0 0.896639,0.11955 0.896639,0.56189 v 6.02541 c 0,0.322787 0,0.88468 -1.135743,0.88468 V 0 c 0.310835,-0.0239103 0.944463,-0.0239103 1.279203,-0.0239103 0.33474,0 0.96837,0 1.2792,0.0239103 v -0.3467 c -1.13574,0 -1.13574,-0.561893 -1.13574,-0.88468 V -7.7589 h 0.01196 l 2.88119,7.531752 C 4.88966,-0.0956413 4.92553,0 5.04508,0 5.15268,0 5.17659,-0.0597758 5.24832,-0.239103 l 2.9051,-7.579577 h 0.01196 v 6.910087 c 0,0.442341 -0.03587,0.561893 -0.89664,0.561893 H 7.02964 V 0 c 0.27497,-0.0239103 1.23138,-0.0239103 1.57808,-0.0239103 0.3467,0 1.30311,0 1.57808,0.0239103 V -0.3467 H 9.9467 c -0.86077,0 -0.89664,-0.119552 -0.89664,-0.561893 V -7.25679 c 0,-0.44234 0.03587,-0.56189 0.89664,-0.56189 h 0.2391 v -0.3467 H 8.33275 c -0.26301,0 -0.27497,0.01196 -0.37061,0.2391 l -2.60622,6.80249 z"
       id="g0-77" /><path
       d="m 4.61469,-3.19203 c 0,-0.64558 0,-1.12379 -0.52602,-1.59004 C 3.67024,-5.16463 3.13225,-5.332 2.60623,-5.332 c -0.98033,0 -1.733503,0.64557 -1.733503,1.42266 0,0.3467 0.227153,0.51407 0.502113,0.51407 0.28693,0 0.49017,-0.20324 0.49017,-0.49016 0,-0.49016 -0.43039,-0.49016 -0.60972,-0.49016 0.27497,-0.50212 0.84882,-0.71731 1.32703,-0.71731 0.54993,0 1.25529,0.45429 1.25529,1.53026 v 0.47821 c -2.40299,0.03586 -3.311583,1.0401 -3.311583,1.96064 0,0.944462 1.099873,1.243342 1.829143,1.243342 0.78904,0 1.32702,-0.478207 1.55417,-1.052055 0.04782,0.561893 0.41843,0.9922788 0.9325,0.9922788 0.25106,0 0.94446,-0.1673728 0.94446,-1.1237858 V -1.7335 H 5.52329 v 0.66949 c 0,0.681445 -0.28693,0.777086 -0.4543,0.777086 -0.4543,0 -0.4543,-0.633624 -0.4543,-0.812956 z m -0.77708,1.50635 c 0,1.171608 -0.87273,1.566128 -1.3868,1.566128 -0.5858,0 -1.07597,-0.430386 -1.07597,-1.004238 0,-1.57808 2.03238,-1.72154 2.46277,-1.74545 z"
       id="g0-97" /><path
       d="m 4.32777,-4.42341 c -0.14346,0 -0.5858,0 -0.5858,0.49016 0,0.28692 0.20324,0.49016 0.49016,0.49016 0.27497,0 0.50212,-0.16737 0.50212,-0.51407 0,-0.801 -0.83687,-1.37484 -1.80523,-1.37484 -1.39876,0 -2.510589,1.24333 -2.510589,2.74968 0,1.53027 1.147699,2.701872 2.498629,2.701872 1.57808,0 1.93674,-1.434622 1.93674,-1.542222 0,-0.1076 -0.08369,-0.10759 -0.11955,-0.10759 -0.1076,0 -0.11956,0.03586 -0.15542,0.17933 -0.26301,0.848813 -0.90859,1.207468 -1.55417,1.207468 -0.72927,0 -1.69764,-0.633624 -1.69764,-2.450808 0,-1.98456 1.01619,-2.47472 1.61395,-2.47472 0.4543,0 1.11183,0.17933 1.3868,0.64558 z"
       id="g0-99" /><path
       d="m 3.58655,-8.16538 v 0.3467 c 0.81295,0 0.90859,0.08369 0.90859,0.66949 V -4.5071 C 4.24408,-4.8538 3.73001,-5.27223 3.00075,-5.27223 c -1.3868,0 -2.582319,1.17161 -2.582319,2.70187 0,1.51831 1.135739,2.689912 2.450809,2.689912 0.90859,0 1.43462,-0.597759 1.60199,-0.824907 V 0.119552 L 6.15691,0 v -0.3467 c -0.81295,0 -0.90859,-0.083686 -0.90859,-0.66949 v -7.2807 z m 0.88468,6.76663 c 0,0.21519 0,0.25105 -0.16737,0.514068 -0.28692,0.41843 -0.77709,0.76513 -1.37484,0.76513 -0.31084,0 -1.602,-0.119551 -1.602,-2.438858 0,-0.86077 0.14347,-1.33897 0.40648,-1.7335 0.2391,-0.37061 0.71731,-0.74122 1.31507,-0.74122 0.74122,0 1.15965,0.53799 1.2792,0.72927 0.14346,0.20324 0.14346,0.22715 0.14346,0.44234 z"
       id="g0-100" /><path
       d="m 4.57883,-2.7736 c 0.26301,0 0.28692,0 0.28692,-0.22715 0,-1.20747 -0.64558,-2.33125 -2.09215,-2.33125 -1.36289,0 -2.414945,1.23138 -2.414945,2.71382 0,1.57808 1.219425,2.737732 2.546455,2.737732 1.42266,0 1.96064,-1.291162 1.96064,-1.542222 0,-0.07173 -0.05977,-0.11955 -0.1315,-0.11955 -0.09564,0 -0.11956,0.05978 -0.14347,0.11955 -0.31083,1.004239 -1.11183,1.279208 -1.61394,1.279208 -0.50211,0 -1.70959,-0.334745 -1.70959,-2.402988 V -2.7736 Z M 1.2792,-3.00075 c 0.09564,-1.87696 1.1477,-2.09215 1.48244,-2.09215 1.27921,0 1.35094,1.68568 1.36289,2.09215 z"
       id="g0-101" /><path
       d="m 1.42267,-2.16389 c 0.56189,0.37061 1.04009,0.37061 1.1716,0.37061 1.07597,0 1.87696,-0.81295 1.87696,-1.73349 0,-0.32279 -0.09564,-0.77709 -0.4782,-1.15966 0.46625,-0.4782 1.02814,-0.4782 1.08792,-0.4782 0.04782,0 0.10759,0 0.15541,0.02391 -0.11955,0.04782 -0.17932,0.16737 -0.17932,0.29888 0,0.16737 0.11955,0.31083 0.31083,0.31083 0.09564,0 0.31083,-0.05977 0.31083,-0.32279 0,-0.21519 -0.16737,-0.54994 -0.5858,-0.54994 -0.62167,0 -1.08792,0.38257 -1.25529,0.5619 -0.35866,-0.27497 -0.77709,-0.43039 -1.23138,-0.43039 -1.07597,0 -1.876965,0.81295 -1.876965,1.7335 0,0.68144 0.418435,1.12379 0.537985,1.23138 -0.14346,0.17933 -0.358657,0.52603 -0.358657,0.99228 0,0.693401 0.418427,0.99228 0.514077,1.052056 -0.549943,0.155417 -1.09988,0.585804 -1.09988,1.207472 0,0.824902 1.12379,1.506352 2.59427,1.506352 1.42267,0 2.60623,-0.63362 2.60623,-1.530262 0,-0.298879 -0.08369,-1.0042342 -0.801,-1.374844 -0.60971,-0.310835 -1.20747,-0.310835 -2.23562,-0.310835 -0.72926,0 -0.81295,0 -1.02814,-0.227148 C 1.33898,-1.11183 1.23138,-1.33898 1.23138,-1.59004 c 0,-0.20324 0.07173,-0.40647 0.19129,-0.57385 z m 1.18356,0.11956 c -1.05206,0 -1.05206,-1.20748 -1.05206,-1.48244 0,-0.2152 0,-0.70536 0.20324,-1.02815 0.22715,-0.3467 0.5858,-0.46625 0.83686,-0.46625 1.05206,0 1.05206,1.20747 1.05206,1.48244 0,0.21519 0,0.70536 -0.20324,1.02814 -0.22715,0.3467 -0.5858,0.46626 -0.83686,0.46626 z m 0.32279,4.24408 c -1.1477,0 -2.020427,-0.5858 -2.020427,-1.267247 0,-0.095641 0.02391,-0.561893 0.478207,-0.8727272 0.26301,-0.1673728 0.37061,-0.1673728 1.20747,-0.1673728 0.99228,0 2.34321,0 2.34321,1.0401 0,0.705357 -0.90859,1.267247 -2.00846,1.267247 z"
       id="g0-103" /><path
       d="m 2.0802,-7.36438 c 0,-0.31084 -0.25106,-0.58581 -0.5858,-0.58581 -0.31084,0 -0.573852,0.25106 -0.573852,0.57385 0,0.35866 0.286922,0.5858 0.573852,0.5858 0.37061,0 0.5858,-0.31083 0.5858,-0.57384 z m -1.649814,2.22366 v 0.3467 c 0.765134,0 0.872724,0.07173 0.872724,0.65753 v 3.251808 c 0,0.537982 -0.1315,0.537982 -0.908589,0.537982 V 0 c 0.334744,-0.0239103 0.908589,-0.0239103 1.255289,-0.0239103 0.13151,0 0.82491,0 1.23139,0.0239103 v -0.3467 c -0.77709,0 -0.82491,-0.059776 -0.82491,-0.526027 V -5.27223 Z"
       id="g0-105" /><path
       d="m 2.05629,-8.29689 -1.661769,0.13151 v 0.3467 c 0.812949,0 0.908589,0.08369 0.908589,0.66949 v 6.264508 c 0,0.537982 -0.1315,0.537982 -0.908589,0.537982 V 0 c 0.334744,-0.0239103 0.920549,-0.0239103 1.279199,-0.0239103 0.35865,0 0.95642,0 1.29116,0.0239103 v -0.3467 c -0.76513,0 -0.90859,0 -0.90859,-0.537982 z"
       id="g0-108" /><path
       d="m 5.32005,-2.90511 c 0,-1.11183 0,-1.44657 -0.27497,-1.82914 -0.3467,-0.46625 -0.90859,-0.53798 -1.31507,-0.53798 -1.15965,0 -1.61395,0.99228 -1.70959,1.23138 H 2.00847 v -1.23138 l -1.625905,0.13151 v 0.3467 c 0.812955,0 0.908595,0.08368 0.908595,0.66949 v 3.239848 c 0,0.537982 -0.13151,0.537982 -0.908595,0.537982 V 0 C 0.6934,-0.0239103 1.33898,-0.0239103 1.67372,-0.0239103 c 0.3467,0 0.99228,0 1.30312,0.0239103 v -0.3467 c -0.76513,0 -0.9086,0 -0.9086,-0.537982 V -3.10834 c 0,-1.2553 0.82491,-1.92479 1.56613,-1.92479 0.74122,0 0.90859,0.60972 0.90859,1.33898 v 2.809468 c 0,0.537982 -0.1315,0.537982 -0.90859,0.537982 V 0 c 0.31084,-0.0239103 0.95641,-0.0239103 1.29116,-0.0239103 0.3467,0 0.99228,0 1.30311,0.0239103 v -0.3467 c -0.59776,0 -0.89664,0 -0.90859,-0.358655 z"
       id="g0-110" /><path
       d="m 2.00847,-4.80598 h 1.68568 v -0.3467 H 2.00847 V -7.35243 H 1.74545 C 1.7335,-6.22864 1.30311,-5.08095 0.215193,-5.04508 v 0.2391 H 1.23138 v 3.32354 c 0,1.327023 0.88468,1.601992 1.51831,1.601992 0.75317,0 1.14769,-0.741221 1.14769,-1.601992 V -2.16389 H 3.63437 v 0.65754 c 0,0.860771 -0.3467,1.362888 -0.81295,1.362888 -0.81295,0 -0.81295,-1.111828 -0.81295,-1.315068 z"
       id="g0-116" /><linearGradient
       inkscape:collect="always"
       xlink:href="#linearGradient31"
       id="linearGradient32"
       x1="110.10217"
       y1="99.056976"
       x2="109.93774"
       y2="54.141491"
       gradientUnits="userSpaceOnUse" /><path
       d="m 0.466252,-8.20125 v 0.51408 H 1.7335 v 7.173098 H 0.466252 V 0 H 5.86999 c 1.9726,0 2.94097,-1.06401 2.94097,-2.21171 0,-1.13574 -0.99228,-1.96064 -2.43886,-2.06824 1.72155,-0.32279 2.05629,-1.30311 2.05629,-1.86501 0,-1.09987 -1.00423,-2.05629 -2.91706,-2.05629 z m 2.737738,3.74197 v -3.22789 h 2.16388 c 1.23138,0 1.48244,0.9325 1.48244,1.53026 0,0.83686 -0.46625,1.69763 -1.865,1.69763 z m 0,3.945208 V -4.06476 h 2.37907 c 1.39876,0 1.602,1.29116 1.602,1.82914 0,0.75318 -0.40648,1.721548 -1.78132,1.721548 z"
       id="g0-66" /><path
       d="m 4.61469,-3.19203 c 0,-0.64558 0,-1.12379 -0.52602,-1.59004 C 3.67024,-5.16463 3.13225,-5.332 2.60623,-5.332 c -0.98033,0 -1.733503,0.64557 -1.733503,1.42266 0,0.3467 0.227153,0.51407 0.502113,0.51407 0.28693,0 0.49017,-0.20324 0.49017,-0.49016 0,-0.49016 -0.43039,-0.49016 -0.60972,-0.49016 0.27497,-0.50212 0.84882,-0.71731 1.32703,-0.71731 0.54993,0 1.25529,0.45429 1.25529,1.53026 v 0.47821 c -2.40299,0.03586 -3.311583,1.0401 -3.311583,1.96064 0,0.944462 1.099873,1.243342 1.829143,1.243342 0.78904,0 1.32702,-0.478207 1.55417,-1.052055 0.04782,0.561893 0.41843,0.9922788 0.9325,0.9922788 0.25106,0 0.94446,-0.1673728 0.94446,-1.1237858 V -1.7335 H 5.52329 v 0.66949 c 0,0.681445 -0.28693,0.777086 -0.4543,0.777086 -0.4543,0 -0.4543,-0.633624 -0.4543,-0.812956 z m -0.77708,1.50635 c 0,1.171608 -0.87273,1.566128 -1.3868,1.566128 -0.5858,0 -1.07597,-0.430386 -1.07597,-1.004238 0,-1.57808 2.03238,-1.72154 2.46277,-1.74545 z"
       id="g0-97-4" /><path
       d="m 4.32777,-4.42341 c -0.14346,0 -0.5858,0 -0.5858,0.49016 0,0.28692 0.20324,0.49016 0.49016,0.49016 0.27497,0 0.50212,-0.16737 0.50212,-0.51407 0,-0.801 -0.83687,-1.37484 -1.80523,-1.37484 -1.39876,0 -2.510589,1.24333 -2.510589,2.74968 0,1.53027 1.147699,2.701872 2.498629,2.701872 1.57808,0 1.93674,-1.434622 1.93674,-1.542222 0,-0.1076 -0.08369,-0.10759 -0.11955,-0.10759 -0.1076,0 -0.11956,0.03586 -0.15542,0.17933 -0.26301,0.848813 -0.90859,1.207468 -1.55417,1.207468 -0.72927,0 -1.69764,-0.633624 -1.69764,-2.450808 0,-1.98456 1.01619,-2.47472 1.61395,-2.47472 0.4543,0 1.11183,0.17933 1.3868,0.64558 z"
       id="g0-99-1" /><path
       d="m 4.57883,-2.7736 c 0.26301,0 0.28692,0 0.28692,-0.22715 0,-1.20747 -0.64558,-2.33125 -2.09215,-2.33125 -1.36289,0 -2.414945,1.23138 -2.414945,2.71382 0,1.57808 1.219425,2.737732 2.546455,2.737732 1.42266,0 1.96064,-1.291162 1.96064,-1.542222 0,-0.07173 -0.05977,-0.11955 -0.1315,-0.11955 -0.09564,0 -0.11956,0.05978 -0.14347,0.11955 -0.31083,1.004239 -1.11183,1.279208 -1.61394,1.279208 -0.50211,0 -1.70959,-0.334745 -1.70959,-2.402988 V -2.7736 Z M 1.2792,-3.00075 c 0.09564,-1.87696 1.1477,-2.09215 1.48244,-2.09215 1.27921,0 1.35094,1.68568 1.36289,2.09215 z"
       id="g0-101-8" /><path
       d="m 1.42267,-2.16389 c 0.56189,0.37061 1.04009,0.37061 1.1716,0.37061 1.07597,0 1.87696,-0.81295 1.87696,-1.73349 0,-0.32279 -0.09564,-0.77709 -0.4782,-1.15966 0.46625,-0.4782 1.02814,-0.4782 1.08792,-0.4782 0.04782,0 0.10759,0 0.15541,0.02391 -0.11955,0.04782 -0.17932,0.16737 -0.17932,0.29888 0,0.16737 0.11955,0.31083 0.31083,0.31083 0.09564,0 0.31083,-0.05977 0.31083,-0.32279 0,-0.21519 -0.16737,-0.54994 -0.5858,-0.54994 -0.62167,0 -1.08792,0.38257 -1.25529,0.5619 -0.35866,-0.27497 -0.77709,-0.43039 -1.23138,-0.43039 -1.07597,0 -1.876965,0.81295 -1.876965,1.7335 0,0.68144 0.418435,1.12379 0.537985,1.23138 -0.14346,0.17933 -0.358657,0.52603 -0.358657,0.99228 0,0.693401 0.418427,0.99228 0.514077,1.052056 -0.549943,0.155417 -1.09988,0.585804 -1.09988,1.207472 0,0.824902 1.12379,1.506352 2.59427,1.506352 1.42267,0 2.60623,-0.63362 2.60623,-1.530262 0,-0.298879 -0.08369,-1.0042342 -0.801,-1.374844 -0.60971,-0.310835 -1.20747,-0.310835 -2.23562,-0.310835 -0.72926,0 -0.81295,0 -1.02814,-0.227148 C 1.33898,-1.11183 1.23138,-1.33898 1.23138,-1.59004 c 0,-0.20324 0.07173,-0.40647 0.19129,-0.57385 z m 1.18356,0.11956 c -1.05206,0 -1.05206,-1.20748 -1.05206,-1.48244 0,-0.2152 0,-0.70536 0.20324,-1.02815 0.22715,-0.3467 0.5858,-0.46625 0.83686,-0.46625 1.05206,0 1.05206,1.20747 1.05206,1.48244 0,0.21519 0,0.70536 -0.20324,1.02814 -0.22715,0.3467 -0.5858,0.46626 -0.83686,0.46626 z m 0.32279,4.24408 c -1.1477,0 -2.020427,-0.5858 -2.020427,-1.267247 0,-0.095641 0.02391,-0.561893 0.478207,-0.8727272 0.26301,-0.1673728 0.37061,-0.1673728 1.20747,-0.1673728 0.99228,0 2.34321,0 2.34321,1.0401 0,0.705357 -0.90859,1.267247 -2.00846,1.267247 z"
       id="g0-103-5" /><path
       d="m 2.05629,-8.29689 -1.661769,0.13151 v 0.3467 c 0.812949,0 0.908589,0.08369 0.908589,0.66949 v 6.264508 c 0,0.537982 -0.1315,0.537982 -0.908589,0.537982 V 0 c 0.334744,-0.0239103 0.920549,-0.0239103 1.279199,-0.0239103 0.35865,0 0.95642,0 1.29116,0.0239103 v -0.3467 c -0.76513,0 -0.90859,0 -0.90859,-0.537982 z"
       id="g0-108-9" /><path
       d="m 8.57186,-2.90511 c 0,-1.11183 0,-1.44657 -0.27497,-1.82914 -0.3467,-0.46625 -0.9086,-0.53798 -1.31507,-0.53798 -0.99228,0 -1.4944,0.71731 -1.68568,1.18356 -0.16737,-0.92055 -0.81295,-1.18356 -1.56613,-1.18356 -1.15965,0 -1.61395,0.99228 -1.70959,1.23138 H 2.00847 v -1.23138 l -1.625905,0.13151 v 0.3467 c 0.812955,0 0.908595,0.08368 0.908595,0.66949 v 3.239848 c 0,0.537982 -0.13151,0.537982 -0.908595,0.537982 V 0 C 0.6934,-0.0239103 1.33898,-0.0239103 1.67372,-0.0239103 c 0.3467,0 0.99228,0 1.30312,0.0239103 v -0.3467 c -0.76513,0 -0.9086,0 -0.9086,-0.537982 V -3.10834 c 0,-1.2553 0.82491,-1.92479 1.56613,-1.92479 0.74122,0 0.90859,0.60972 0.90859,1.33898 v 2.809468 c 0,0.537982 -0.1315,0.537982 -0.90859,0.537982 V 0 c 0.31084,-0.0239103 0.95641,-0.0239103 1.29116,-0.0239103 0.3467,0 0.99228,0 1.30311,0.0239103 v -0.3467 c -0.76513,0 -0.90859,0 -0.90859,-0.537982 V -3.10834 c 0,-1.2553 0.82491,-1.92479 1.56613,-1.92479 0.74122,0 0.90859,0.60972 0.90859,1.33898 v 2.809468 c 0,0.537982 -0.13151,0.537982 -0.90859,0.537982 V 0 c 0.31083,-0.0239103 0.95641,-0.0239103 1.29115,-0.0239103 0.3467,0 0.99228,0 1.30312,0.0239103 v -0.3467 c -0.59776,0 -0.89664,0 -0.90859,-0.358655 z"
       id="g0-109" /><path
       d="m 2.92902,1.9726 c -0.76513,0 -0.9086,0 -0.9086,-0.53798 v -2.080199 c 0.2152,0.298879 0.70536,0.765131 1.47049,0.765131 1.37484,0 2.58232,-1.159652 2.58232,-2.701872 0,-1.5183 -1.12379,-2.68991 -2.4269,-2.68991 -1.05206,0 -1.61395,0.75318 -1.64982,0.801 v -0.801 l -1.661765,0.13151 v 0.3467 c 0.836865,0 0.908595,0.08368 0.908595,0.60971 v 5.61893 c 0,0.53798 -0.13151,0.53798 -0.908595,0.53798 V 2.3193 C 0.645579,2.29539 1.29116,2.29539 1.6259,2.29539 c 0.3467,0 0.99228,0 1.30312,0.02391 z m -0.9086,-5.7863 c 0,-0.22715 0,-0.2391 0.13151,-0.43038 0.35866,-0.53799 0.94446,-0.76514 1.39875,-0.76514 0.89664,0 1.61395,1.08792 1.61395,2.4269 0,1.42267 -0.81295,2.462768 -1.7335,2.462768 -0.37061,0 -0.71731,-0.155417 -0.95641,-0.382565 C 2.19975,-0.777086 2.02042,-1.01619 2.02042,-1.35093 Z"
       id="g0-112" /><path
       d="m 1.99651,-2.78555 c 0,-1.15966 0.47821,-2.24758 1.39876,-2.24758 0.09564,0 0.11955,0 0.16737,0.01196 -0.09564,0.04782 -0.28692,0.11955 -0.28692,0.44234 0,0.3467 0.27496,0.47821 0.46625,0.47821 0.2391,0 0.4782,-0.15542 0.4782,-0.47821 0,-0.35865 -0.32279,-0.6934 -0.83686,-0.6934 -1.01619,0 -1.36289,1.09988 -1.43462,1.32702 H 1.93674 v -1.32702 l -1.601995,0.13151 v 0.3467 c 0.812955,0 0.908595,0.08368 0.908595,0.66949 v 3.239848 c 0,0.537982 -0.13151,0.537982 -0.908595,0.537982 V 0 c 0.334744,-0.0239103 0.992275,-0.0239103 1.350935,-0.0239103 0.32279,0 1.17161,0 1.44657,0.0239103 v -0.3467 h -0.2391 c -0.87273,0 -0.89664,-0.131507 -0.89664,-0.561893 z"
       id="g0-114" /><path
       d="m 3.9213,-5.05704 c 0,-0.21519 0,-0.27496 -0.11956,-0.27496 -0.09564,0 -0.32279,0.26301 -0.40647,0.37061 C 3.02466,-5.26027 2.65405,-5.332 2.27148,-5.332 c -1.446573,0 -1.876959,0.78904 -1.876959,1.44657 0,0.13151 0,0.54994 0.454296,0.96837 0.382563,0.33474 0.789043,0.41843 1.338983,0.52603 0.65753,0.1315 0.81295,0.16737 1.11183,0.40647 0.21519,0.17933 0.37061,0.44234 0.37061,0.77709 0,0.51407 -0.29888,1.087918 -1.35094,1.087918 -0.78904,0 -1.362887,-0.454296 -1.6259,-1.649808 -0.047821,-0.2152 -0.047821,-0.22715 -0.059776,-0.23911 -0.02391,-0.04782 -0.071731,-0.04782 -0.107597,-0.04782 -0.131506,0 -0.131506,0.05978 -0.131506,0.27497 v 1.625903 c 0,0.2151928 0,0.274969 0.119551,0.274969 0.059776,0 0.071731,-0.011955 0.274969,-0.263014 0.059776,-0.083686 0.059776,-0.107597 0.239099,-0.298879 0.4543,0.561893 1.09988,0.561893 1.30312,0.561893 1.25529,0 1.87696,-0.6934 1.87696,-1.637862 0,-0.64558 -0.39452,-1.02814 -0.50212,-1.13574 -0.43038,-0.37061 -0.75317,-0.44234 -1.54221,-0.5858 -0.35866,-0.07173 -1.231387,-0.2391 -1.231387,-0.95641 0,-0.37061 0.251057,-0.92055 1.327027,-0.92055 1.30311,0 1.37484,1.11183 1.39875,1.48244 0.01196,0.09564 0.09564,0.09564 0.13151,0.09564 0.13151,0 0.13151,-0.05978 0.13151,-0.27497 z"
       id="g0-115" /><path
       d="m 2.00847,-4.80598 h 1.68568 v -0.3467 H 2.00847 V -7.35243 H 1.74545 C 1.7335,-6.22864 1.30311,-5.08095 0.215193,-5.04508 v 0.2391 H 1.23138 v 3.32354 c 0,1.327023 0.88468,1.601992 1.51831,1.601992 0.75317,0 1.14769,-0.741221 1.14769,-1.601992 V -2.16389 H 3.63437 v 0.65754 c 0,0.860771 -0.3467,1.362888 -0.81295,1.362888 -0.81295,0 -0.81295,-1.111828 -0.81295,-1.315068 z"
       id="g0-116-7" /><path
       d="m 3.63437,-5.14072 v 0.3467 c 0.81295,0 0.90859,0.08368 0.90859,0.66949 v 2.13997 c 0,1.016191 -0.53798,1.865008 -1.43462,1.865008 -0.98032,0 -1.0401,-0.561893 -1.0401,-1.195518 v -3.95716 l -1.685675,0.13151 v 0.3467 c 0.908595,0 0.908595,0.03586 0.908595,1.09987 v 1.79328 c 0,0.74122 0,1.171605 0.35865,1.566125 0.28693,0.3108347 0.77709,0.454297 1.3868,0.454297 0.20324,0 0.58581,0 0.99228,-0.3467 0.3467,-0.274969 0.53798,-0.729265 0.53798,-0.729265 V 0.119552 L 6.22864,0 v -0.3467 c -0.81295,0 -0.90859,-0.083686 -0.90859,-0.66949 v -4.25604 z"
       id="g0-117" /><radialGradient
       inkscape:collect="always"
       xlink:href="#linearGradient33"
       id="radialGradient34"
       cx="92.257828"
       cy="113.72405"
       fx="92.257828"
       fy="113.72405"
       r="17.936277"
       gradientTransform="matrix(0.60670116,0,0,1.2374018,-22.825791,-8.5689497)"
       gradientUnits="userSpaceOnUse" /><radialGradient
       inkscape:collect="always"
       xlink:href="#linearGradient41"
       id="radialGradient42"
       cx="104.14241"
       cy="145.86169"
       fx="104.14241"
       fy="145.86169"
       r="8.1096764"
       gradientTransform="matrix(0.71385543,0,0,4.0646778,9.8236671,-460.76256)"
       gradientUnits="userSpaceOnUse" /><radialGradient
       inkscape:collect="always"
       xlink:href="#linearGradient33"
       id="radialGradient34-3"
       cx="92.257828"
       cy="113.72405"
       fx="92.257828"
       fy="113.72405"
       r="17.936277"
       gradientTransform="matrix(0.60670116,0,0,1.2374018,71.411848,-8.5184757)"
       gradientUnits="userSpaceOnUse" /><radialGradient
       inkscape:collect="always"
       xlink:href="#linearGradient41"
       id="radialGradient42-0"
       cx="104.14241"
       cy="145.86169"
       fx="104.14241"
       fy="145.86169"
       r="8.1096764"
       gradientTransform="matrix(0.71385543,0,0,4.0646778,104.06131,-460.71209)"
       gradientUnits="userSpaceOnUse" /><marker
       style="overflow:visible"
       id="Triangle-5"
       refX="0"
       refY="0"
       orient="auto-start-reverse"
       inkscape:stockid="Triangle arrow"
       markerWidth="1"
       markerHeight="1"
       viewBox="0 0 1 1"
       inkscape:isstock="true"
       inkscape:collect="always"
       preserveAspectRatio="xMidYMid"><path
         transform="scale(0.5)"
         style="fill:context-stroke;fill-rule:evenodd;stroke:context-stroke;stroke-width:1pt"
         d="M 5.77,0 -2.88,5 V -5 Z"
         id="path135-4" /></marker><inkscape:path-effect
       effect="rough_hatches"
       id="path-effect42-0"
       is_visible="true"
       lpeversion="1.2"
       direction="192.40314,156.44969 , 25.465812,-1.0642767"
       dist_rdm="0;1"
       growth="0"
       do_bend="false"
       bender="192.40314,161.44969 , 7.7153131,2.8421709e-14"
       bottom_edge_variation="0;1"
       top_edge_variation="0;1"
       bottom_tgt_variation="0;1"
       top_tgt_variation="0;1"
       scale_bf="1"
       scale_bb="1"
       scale_tf="1"
       scale_tb="1"
       top_smth_variation="0;1"
       bottom_smth_variation="0;1"
       fat_output="false"
       stroke_width_top="3.4"
       stroke_width_bottom="1"
       front_thickness="4"
       back_thickness="0.25" /><inkscape:path-effect
       effect="rough_hatches"
       id="path-effect42-0-4"
       is_visible="true"
       lpeversion="1.2"
       direction="192.40314,156.44969 , 25.465812,-1.0642767"
       dist_rdm="0;1"
       growth="0"
       do_bend="false"
       bender="192.40314,161.44969 , 7.7153131,2.8421709e-14"
       bottom_edge_variation="0;1"
       top_edge_variation="0;1"
       bottom_tgt_variation="0;1"
       top_tgt_variation="0;1"
       scale_bf="1"
       scale_bb="1"
       scale_tf="1"
       scale_tb="1"
       top_smth_variation="0;1"
       bottom_smth_variation="0;1"
       fat_output="false"
       stroke_width_top="3.4"
       stroke_width_bottom="1"
       front_thickness="4"
       back_thickness="0.25" /><path
       d="M3.59851 -1.42267C3.53873 -1.21943 3.53873 -1.19552 3.37136 -0.968369C3.10834 -0.633624 2.58232 -0.119552 2.02042 -0.119552C1.53026 -0.119552 1.25529 -0.561893 1.25529 -1.26725C1.25529 -1.92478 1.6259 -3.26376 1.85305 -3.76588C2.25953 -4.60274 2.82142 -5.03313 3.28767 -5.03313C4.07671 -5.03313 4.23213 -4.0528 4.23213 -3.95716C4.23213 -3.94521 4.19626 -3.78979 4.18431 -3.76588L3.59851 -1.42267ZM4.36364 -4.48319C4.23213 -4.79402 3.90934 -5.27223 3.28767 -5.27223C1.93674 -5.27223 0.478207 -3.52677 0.478207 -1.75741C0.478207 -0.573848 1.17161 0.119552 1.98456 0.119552C2.64209 0.119552 3.20399 -0.394521 3.53873 -0.789041C3.65828 -0.0836862 4.22017 0.119552 4.57883 0.119552S5.22441 -0.0956413 5.4396 -0.526027C5.63088 -0.932503 5.79826 -1.66177 5.79826 -1.70959C5.79826 -1.76936 5.75044 -1.81719 5.6787 -1.81719C5.57111 -1.81719 5.55915 -1.75741 5.51133 -1.57808C5.332 -0.872727 5.10486 -0.119552 4.61469 -0.119552C4.268 -0.119552 4.24408 -0.430386 4.24408 -0.669489C4.24408 -0.944458 4.27995 -1.07597 4.38755 -1.54222C4.47123 -1.8411 4.53101 -2.10411 4.62665 -2.45081C5.06899 -4.24408 5.17659 -4.67447 5.17659 -4.7462C5.17659 -4.91357 5.04508 -5.04508 4.86575 -5.04508C4.48319 -5.04508 4.38755 -4.62665 4.36364 -4.48319Z"
       id="g0-97-8" /><path
       d="M2.76164 -7.99801C2.7736 -8.04583 2.79751 -8.11756 2.79751 -8.17733C2.79751 -8.29689 2.67796 -8.29689 2.65405 -8.29689C2.64209 -8.29689 2.21171 -8.26102 1.99651 -8.23711C1.79328 -8.22516 1.61395 -8.20125 1.39875 -8.18929C1.11183 -8.16538 1.02814 -8.15342 1.02814 -7.93823C1.02814 -7.81868 1.1477 -7.81868 1.26725 -7.81868C1.87696 -7.81868 1.87696 -7.71108 1.87696 -7.59153C1.87696 -7.50785 1.78132 -7.16115 1.7335 -6.94595L1.44658 -5.79826C1.32702 -5.32005 0.645579 -2.60623 0.597758 -2.39103C0.537983 -2.09215 0.537983 -1.88892 0.537983 -1.7335C0.537983 -0.514072 1.21943 0.119552 1.99651 0.119552C3.38331 0.119552 4.81793 -1.66177 4.81793 -3.39527C4.81793 -4.49514 4.19626 -5.27223 3.29963 -5.27223C2.67796 -5.27223 2.11606 -4.75816 1.88892 -4.51905L2.76164 -7.99801ZM2.00847 -0.119552C1.6259 -0.119552 1.20747 -0.406476 1.20747 -1.33898C1.20747 -1.7335 1.24334 -1.96065 1.45853 -2.79751C1.4944 -2.95293 1.68568 -3.71806 1.7335 -3.87347C1.75741 -3.96912 2.46276 -5.03313 3.27572 -5.03313C3.80174 -5.03313 4.04085 -4.5071 4.04085 -3.88543C4.04085 -3.31158 3.7061 -1.96065 3.40722 -1.33898C3.10834 -0.6934 2.55841 -0.119552 2.00847 -0.119552Z"
       id="g0-98" /><path
       d="M4.67447 -4.49514C4.44732 -4.49514 4.33973 -4.49514 4.17235 -4.35168C4.10062 -4.29191 3.96912 -4.11258 3.96912 -3.9213C3.96912 -3.68219 4.14844 -3.53873 4.37559 -3.53873C4.66252 -3.53873 4.98531 -3.77783 4.98531 -4.25604C4.98531 -4.82989 4.43537 -5.27223 3.61046 -5.27223C2.04433 -5.27223 0.478207 -3.56264 0.478207 -1.86501C0.478207 -0.824907 1.12379 0.119552 2.34321 0.119552C3.96912 0.119552 4.99726 -1.1477 4.99726 -1.30311C4.99726 -1.37484 4.92553 -1.43462 4.87771 -1.43462C4.84184 -1.43462 4.82989 -1.42267 4.72229 -1.31507C3.95716 -0.298879 2.82142 -0.119552 2.36712 -0.119552C1.54222 -0.119552 1.2792 -0.836862 1.2792 -1.43462C1.2792 -1.85305 1.48244 -3.0127 1.91283 -3.82565C2.22366 -4.38755 2.86924 -5.03313 3.62242 -5.03313C3.77783 -5.03313 4.43537 -5.00922 4.67447 -4.49514Z"
       id="g0-99-9" /><path
       d="M6.01345 -7.99801C6.0254 -8.04583 6.04932 -8.11756 6.04932 -8.17733C6.04932 -8.29689 5.92976 -8.29689 5.90585 -8.29689C5.8939 -8.29689 5.30809 -8.24907 5.24832 -8.23711C5.04508 -8.22516 4.86575 -8.20125 4.65056 -8.18929C4.35168 -8.16538 4.268 -8.15342 4.268 -7.93823C4.268 -7.81868 4.36364 -7.81868 4.53101 -7.81868C5.11681 -7.81868 5.12877 -7.71108 5.12877 -7.59153C5.12877 -7.5198 5.10486 -7.42416 5.0929 -7.38829L4.36364 -4.48319C4.23213 -4.79402 3.90934 -5.27223 3.28767 -5.27223C1.93674 -5.27223 0.478207 -3.52677 0.478207 -1.75741C0.478207 -0.573848 1.17161 0.119552 1.98456 0.119552C2.64209 0.119552 3.20399 -0.394521 3.53873 -0.789041C3.65828 -0.0836862 4.22017 0.119552 4.57883 0.119552S5.22441 -0.0956413 5.4396 -0.526027C5.63088 -0.932503 5.79826 -1.66177 5.79826 -1.70959C5.79826 -1.76936 5.75044 -1.81719 5.6787 -1.81719C5.57111 -1.81719 5.55915 -1.75741 5.51133 -1.57808C5.332 -0.872727 5.10486 -0.119552 4.61469 -0.119552C4.268 -0.119552 4.24408 -0.430386 4.24408 -0.669489C4.24408 -0.71731 4.24408 -0.968369 4.32777 -1.30311L6.01345 -7.99801ZM3.59851 -1.42267C3.53873 -1.21943 3.53873 -1.19552 3.37136 -0.968369C3.10834 -0.633624 2.58232 -0.119552 2.02042 -0.119552C1.53026 -0.119552 1.25529 -0.561893 1.25529 -1.26725C1.25529 -1.92478 1.6259 -3.26376 1.85305 -3.76588C2.25953 -4.60274 2.82142 -5.03313 3.28767 -5.03313C4.07671 -5.03313 4.23213 -4.0528 4.23213 -3.95716C4.23213 -3.94521 4.19626 -3.78979 4.18431 -3.76588L3.59851 -1.42267Z"
       id="g0-100-3" /><path
       d="M3.88543 2.90511C3.88543 2.86924 3.88543 2.84533 3.68219 2.64209C2.48667 1.43462 1.81719 -0.537983 1.81719 -2.97684C1.81719 -5.29614 2.37908 -7.29265 3.76588 -8.70336C3.88543 -8.81096 3.88543 -8.83487 3.88543 -8.87073C3.88543 -8.94247 3.82565 -8.96638 3.77783 -8.96638C3.62242 -8.96638 2.64209 -8.1056 2.05629 -6.934C1.44658 -5.72653 1.17161 -4.44732 1.17161 -2.97684C1.17161 -1.91283 1.33898 -0.490162 1.96065 0.789041C2.666 2.22366 3.64633 3.00075 3.77783 3.00075C3.82565 3.00075 3.88543 2.97684 3.88543 2.90511Z"
       id="g1-40" /><path
       d="M3.37136 -2.97684C3.37136 -3.88543 3.25181 -5.36787 2.58232 -6.75467C1.87696 -8.18929 0.896638 -8.96638 0.765131 -8.96638C0.71731 -8.96638 0.657534 -8.94247 0.657534 -8.87073C0.657534 -8.83487 0.657534 -8.81096 0.860772 -8.60772C2.05629 -7.40025 2.72578 -5.42765 2.72578 -2.98879C2.72578 -0.669489 2.16389 1.32702 0.777086 2.73773C0.657534 2.84533 0.657534 2.86924 0.657534 2.90511C0.657534 2.97684 0.71731 3.00075 0.765131 3.00075C0.920548 3.00075 1.90087 2.13998 2.48667 0.968369C3.09639 -0.251059 3.37136 -1.54222 3.37136 -2.97684Z"
       id="g1-41" /><path
       d="M4.61469 -3.19203C4.61469 -3.83761 4.61469 -4.31582 4.08867 -4.78207C3.67024 -5.16463 3.13225 -5.332 2.60623 -5.332C1.6259 -5.332 0.872727 -4.68643 0.872727 -3.90934C0.872727 -3.56264 1.09988 -3.39527 1.37484 -3.39527C1.66177 -3.39527 1.86501 -3.59851 1.86501 -3.88543C1.86501 -4.37559 1.43462 -4.37559 1.25529 -4.37559C1.53026 -4.87771 2.10411 -5.0929 2.58232 -5.0929C3.13225 -5.0929 3.83761 -4.63861 3.83761 -3.56264V-3.08443C1.43462 -3.04857 0.526027 -2.04433 0.526027 -1.12379C0.526027 -0.179328 1.6259 0.119552 2.35517 0.119552C3.14421 0.119552 3.68219 -0.358655 3.90934 -0.932503C3.95716 -0.37061 4.32777 0.0597758 4.84184 0.0597758C5.0929 0.0597758 5.7863 -0.107597 5.7863 -1.06401V-1.7335H5.52329V-1.06401C5.52329 -0.382565 5.23636 -0.286924 5.06899 -0.286924C4.61469 -0.286924 4.61469 -0.920548 4.61469 -1.09988V-3.19203ZM3.83761 -1.68568C3.83761 -0.514072 2.96488 -0.119552 2.45081 -0.119552C1.86501 -0.119552 1.37484 -0.549938 1.37484 -1.12379C1.37484 -2.70187 3.40722 -2.84533 3.83761 -2.86924V-1.68568Z"
       id="g0-97-46" /><path
       d="M3.58655 -8.16538V-7.81868C4.3995 -7.81868 4.49514 -7.73499 4.49514 -7.14919V-4.5071C4.24408 -4.8538 3.73001 -5.27223 3.00075 -5.27223C1.61395 -5.27223 0.418431 -4.10062 0.418431 -2.57036C0.418431 -1.05205 1.55417 0.119552 2.86924 0.119552C3.77783 0.119552 4.30386 -0.478207 4.47123 -0.705355V0.119552L6.15691 0V-0.3467C5.34396 -0.3467 5.24832 -0.430386 5.24832 -1.01619V-8.29689L3.58655 -8.16538ZM4.47123 -1.39875C4.47123 -1.18356 4.47123 -1.1477 4.30386 -0.884682C4.01694 -0.466252 3.52677 -0.119552 2.92902 -0.119552C2.61818 -0.119552 1.32702 -0.239103 1.32702 -2.55841C1.32702 -3.41918 1.47049 -3.89738 1.7335 -4.29191C1.9726 -4.66252 2.45081 -5.03313 3.04857 -5.03313C3.78979 -5.03313 4.20822 -4.49514 4.32777 -4.30386C4.47123 -4.10062 4.47123 -4.07671 4.47123 -3.86152V-1.39875Z"
       id="g0-100-2" /><path
       d="M2.0802 -7.36438C2.0802 -7.67522 1.82914 -7.95019 1.4944 -7.95019C1.18356 -7.95019 0.920548 -7.69913 0.920548 -7.37634C0.920548 -7.01768 1.20747 -6.79054 1.4944 -6.79054C1.86501 -6.79054 2.0802 -7.10137 2.0802 -7.36438ZM0.430386 -5.14072V-4.79402C1.19552 -4.79402 1.30311 -4.72229 1.30311 -4.13649V-0.884682C1.30311 -0.3467 1.17161 -0.3467 0.394521 -0.3467V0C0.729265 -0.0239103 1.30311 -0.0239103 1.64981 -0.0239103C1.78132 -0.0239103 2.47472 -0.0239103 2.8812 0V-0.3467C2.10411 -0.3467 2.05629 -0.406476 2.05629 -0.872727V-5.27223L0.430386 -5.14072Z"
       id="g0-105-5" /><path
       d="M2.05629 -8.29689L0.394521 -8.16538V-7.81868C1.20747 -7.81868 1.30311 -7.73499 1.30311 -7.14919V-0.884682C1.30311 -0.3467 1.17161 -0.3467 0.394521 -0.3467V0C0.729265 -0.0239103 1.31507 -0.0239103 1.67372 -0.0239103S2.63014 -0.0239103 2.96488 0V-0.3467C2.19975 -0.3467 2.05629 -0.3467 2.05629 -0.884682V-8.29689Z"
       id="g0-108-8" /><path
       d="M8.57186 -2.90511C8.57186 -4.01694 8.57186 -4.35168 8.29689 -4.73425C7.95019 -5.2005 7.38829 -5.27223 6.98182 -5.27223C5.98954 -5.27223 5.48742 -4.55492 5.29614 -4.08867C5.12877 -5.00922 4.48319 -5.27223 3.73001 -5.27223C2.57036 -5.27223 2.11606 -4.27995 2.02042 -4.04085H2.00847V-5.27223L0.382565 -5.14072V-4.79402C1.19552 -4.79402 1.29116 -4.71034 1.29116 -4.12453V-0.884682C1.29116 -0.3467 1.15965 -0.3467 0.382565 -0.3467V0C0.6934 -0.0239103 1.33898 -0.0239103 1.67372 -0.0239103C2.02042 -0.0239103 2.666 -0.0239103 2.97684 0V-0.3467C2.21171 -0.3467 2.06824 -0.3467 2.06824 -0.884682V-3.10834C2.06824 -4.36364 2.89315 -5.03313 3.63437 -5.03313S4.54296 -4.42341 4.54296 -3.69415V-0.884682C4.54296 -0.3467 4.41146 -0.3467 3.63437 -0.3467V0C3.94521 -0.0239103 4.59078 -0.0239103 4.92553 -0.0239103C5.27223 -0.0239103 5.91781 -0.0239103 6.22864 0V-0.3467C5.46351 -0.3467 5.32005 -0.3467 5.32005 -0.884682V-3.10834C5.32005 -4.36364 6.14496 -5.03313 6.88618 -5.03313S7.79477 -4.42341 7.79477 -3.69415V-0.884682C7.79477 -0.3467 7.66326 -0.3467 6.88618 -0.3467V0C7.19701 -0.0239103 7.84259 -0.0239103 8.17733 -0.0239103C8.52403 -0.0239103 9.16961 -0.0239103 9.48045 0V-0.3467C8.88269 -0.3467 8.58381 -0.3467 8.57186 -0.705355V-2.90511Z"
       id="g0-109-6" /><path
       d="M5.48742 -2.55841C5.48742 -4.10062 4.31582 -5.332 2.92902 -5.332C1.4944 -5.332 0.358655 -4.06476 0.358655 -2.55841C0.358655 -1.02814 1.55417 0.119552 2.91706 0.119552C4.32777 0.119552 5.48742 -1.05205 5.48742 -2.55841ZM2.92902 -0.143462C2.48667 -0.143462 1.94869 -0.334745 1.60199 -0.920548C1.2792 -1.45853 1.26725 -2.16389 1.26725 -2.666C1.26725 -3.1203 1.26725 -3.84956 1.63786 -4.38755C1.9726 -4.90162 2.49863 -5.0929 2.91706 -5.0929C3.38331 -5.0929 3.88543 -4.87771 4.20822 -4.41146C4.57883 -3.86152 4.57883 -3.10834 4.57883 -2.666C4.57883 -2.24757 4.57883 -1.50635 4.268 -0.944458C3.93325 -0.37061 3.38331 -0.143462 2.92902 -0.143462Z"
       id="g0-111" /><path
       d="M2.92902 1.9726C2.16389 1.9726 2.02042 1.9726 2.02042 1.43462V-0.645579C2.23562 -0.3467 2.72578 0.119552 3.49091 0.119552C4.86575 0.119552 6.07323 -1.0401 6.07323 -2.58232C6.07323 -4.10062 4.94944 -5.27223 3.64633 -5.27223C2.59427 -5.27223 2.03238 -4.51905 1.99651 -4.47123V-5.27223L0.334745 -5.14072V-4.79402C1.17161 -4.79402 1.24334 -4.71034 1.24334 -4.18431V1.43462C1.24334 1.9726 1.11183 1.9726 0.334745 1.9726V2.3193C0.645579 2.29539 1.29116 2.29539 1.6259 2.29539C1.9726 2.29539 2.61818 2.29539 2.92902 2.3193V1.9726ZM2.02042 -3.8137C2.02042 -4.04085 2.02042 -4.0528 2.15193 -4.24408C2.51059 -4.78207 3.09639 -5.00922 3.55068 -5.00922C4.44732 -5.00922 5.16463 -3.9213 5.16463 -2.58232C5.16463 -1.15965 4.35168 -0.119552 3.43113 -0.119552C3.06052 -0.119552 2.71382 -0.274969 2.47472 -0.502117C2.19975 -0.777086 2.02042 -1.01619 2.02042 -1.35093V-3.8137Z"
       id="g0-112-2" /><path
       d="M1.99651 -2.78555C1.99651 -3.94521 2.47472 -5.03313 3.39527 -5.03313C3.49091 -5.03313 3.51482 -5.03313 3.56264 -5.02117C3.467 -4.97335 3.27572 -4.90162 3.27572 -4.57883C3.27572 -4.23213 3.55068 -4.10062 3.74197 -4.10062C3.98107 -4.10062 4.22017 -4.25604 4.22017 -4.57883C4.22017 -4.93748 3.89738 -5.27223 3.38331 -5.27223C2.36712 -5.27223 2.02042 -4.17235 1.94869 -3.94521H1.93674V-5.27223L0.334745 -5.14072V-4.79402C1.1477 -4.79402 1.24334 -4.71034 1.24334 -4.12453V-0.884682C1.24334 -0.3467 1.11183 -0.3467 0.334745 -0.3467V0C0.669489 -0.0239103 1.32702 -0.0239103 1.68568 -0.0239103C2.00847 -0.0239103 2.85729 -0.0239103 3.13225 0V-0.3467H2.89315C2.02042 -0.3467 1.99651 -0.478207 1.99651 -0.908593V-2.78555Z"
       id="g0-114-8" /><path
       d="M3.9213 -5.05704C3.9213 -5.27223 3.9213 -5.332 3.80174 -5.332C3.7061 -5.332 3.47895 -5.06899 3.39527 -4.96139C3.02466 -5.26027 2.65405 -5.332 2.27148 -5.332C0.824907 -5.332 0.394521 -4.54296 0.394521 -3.88543C0.394521 -3.75392 0.394521 -3.33549 0.848817 -2.91706C1.23138 -2.58232 1.63786 -2.49863 2.1878 -2.39103C2.84533 -2.25953 3.00075 -2.22366 3.29963 -1.98456C3.51482 -1.80523 3.67024 -1.54222 3.67024 -1.20747C3.67024 -0.6934 3.37136 -0.119552 2.3193 -0.119552C1.53026 -0.119552 0.956413 -0.573848 0.6934 -1.76936C0.645579 -1.98456 0.645579 -1.99651 0.633624 -2.00847C0.609714 -2.05629 0.561893 -2.05629 0.526027 -2.05629C0.394521 -2.05629 0.394521 -1.99651 0.394521 -1.78132V-0.155417C0.394521 0.0597758 0.394521 0.119552 0.514072 0.119552C0.573848 0.119552 0.585803 0.107597 0.789041 -0.143462C0.848817 -0.227148 0.848817 -0.251059 1.02814 -0.442341C1.48244 0.119552 2.12802 0.119552 2.33126 0.119552C3.58655 0.119552 4.20822 -0.573848 4.20822 -1.51831C4.20822 -2.16389 3.8137 -2.54645 3.7061 -2.65405C3.27572 -3.02466 2.95293 -3.09639 2.16389 -3.23985C1.80523 -3.31158 0.932503 -3.47895 0.932503 -4.19626C0.932503 -4.56687 1.18356 -5.11681 2.25953 -5.11681C3.56264 -5.11681 3.63437 -4.00498 3.65828 -3.63437C3.67024 -3.53873 3.75392 -3.53873 3.78979 -3.53873C3.9213 -3.53873 3.9213 -3.59851 3.9213 -3.8137V-5.05704Z"
       id="g0-115-4" /><path
       d="M3.63437 -5.14072V-4.79402C4.44732 -4.79402 4.54296 -4.71034 4.54296 -4.12453V-1.98456C4.54296 -0.968369 4.00498 -0.119552 3.10834 -0.119552C2.12802 -0.119552 2.06824 -0.681445 2.06824 -1.31507V-5.27223L0.382565 -5.14072V-4.79402C1.29116 -4.79402 1.29116 -4.75816 1.29116 -3.69415V-1.90087C1.29116 -1.15965 1.29116 -0.729265 1.64981 -0.334745C1.93674 -0.0239103 2.4269 0.119552 3.03661 0.119552C3.23985 0.119552 3.62242 0.119552 4.02889 -0.227148C4.37559 -0.502117 4.56687 -0.956413 4.56687 -0.956413V0.119552L6.22864 0V-0.3467C5.41569 -0.3467 5.32005 -0.430386 5.32005 -1.01619V-5.27223L3.63437 -5.14072Z"
       id="g0-117-7" /><path
       d="M4.87771 -4.01694C4.98531 -4.27995 5.18854 -4.79402 5.95367 -4.80598V-5.15268C5.60697 -5.12877 5.4396 -5.12877 5.06899 -5.12877C4.81793 -5.12877 4.63861 -5.12877 4.08867 -5.15268V-4.80598C4.59078 -4.78207 4.65056 -4.42341 4.65056 -4.29191C4.65056 -4.18431 4.62665 -4.12453 4.56687 -3.98107L3.34745 -0.896638L2.00847 -4.268C1.94869 -4.43537 1.93674 -4.43537 1.93674 -4.49514C1.93674 -4.80598 2.39103 -4.80598 2.60623 -4.80598V-5.15268C2.30735 -5.12877 1.68568 -5.12877 1.36289 -5.12877C0.968369 -5.12877 0.944458 -5.12877 0.215193 -5.15268V-4.80598C0.884682 -4.80598 1.00423 -4.75816 1.1477 -4.38755L2.85729 -0.107597C2.91706 0.0597758 2.94097 0.119552 3.08443 0.119552C3.16812 0.119552 3.23985 0.0956413 3.32354 -0.107597L4.87771 -4.01694Z"
       id="g0-118" /><marker
       style="overflow:visible"
       id="Dot-6"
       refX="0"
       refY="0"
       orient="auto"
       inkscape:stockid="Dot"
       markerWidth="0.60000002"
       markerHeight="0.60000002"
       viewBox="0 0 1 1"
       inkscape:isstock="true"
       inkscape:collect="always"
       preserveAspectRatio="xMidYMid"><path
         transform="scale(0.5)"
         style="fill:context-stroke;fill-rule:evenodd;stroke:none"
         d="M 5,0 C 5,2.76 2.76,5 0,5 -2.76,5 -5,2.76 -5,0 c 0,-2.76 2.3,-5 5,-5 2.76,0 5,2.24 5,5 z"
         sodipodi:nodetypes="sssss"
         id="path17-9" /></marker><path
       d="M3.80174 -5.18854C3.73001 -5.18854 3.61046 -5.17659 3.58655 -5.16463S3.53873 -5.15268 3.37136 -5.15268H1.9726V-6.50361C1.9726 -7.72304 3.0127 -8.17733 3.71806 -8.17733C3.83761 -8.17733 4.41146 -8.16538 4.77011 -7.7589C4.268 -7.7589 4.23213 -7.38829 4.23213 -7.25679C4.23213 -6.91009 4.51905 -6.75467 4.72229 -6.75467C4.93748 -6.75467 5.22441 -6.89813 5.22441 -7.26874C5.22441 -7.87846 4.66252 -8.41644 3.74197 -8.41644C2.65405 -8.41644 1.24334 -7.81868 1.24334 -6.52752V-5.15268H0.310834V-4.80598H1.24334V-0.884682C1.24334 -0.3467 1.11183 -0.3467 0.334745 -0.3467V0C0.669489 -0.0239103 1.25529 -0.0239103 1.61395 -0.0239103S2.57036 -0.0239103 2.90511 0V-0.3467C2.13998 -0.3467 1.99651 -0.3467 1.99651 -0.884682V-4.80598H3.87347C4.42341 -4.80598 4.49514 -4.65056 4.49514 -4.1604V-0.884682C4.49514 -0.3467 4.36364 -0.3467 3.58655 -0.3467V0C3.9213 -0.0239103 4.5071 -0.0239103 4.86575 -0.0239103S5.82217 -0.0239103 6.15691 0V-0.3467C5.39178 -0.3467 5.24832 -0.3467 5.24832 -0.884682V-5.28418L3.80174 -5.18854Z"
       id="g0-12-0" /><path
       d="M4.61469 -3.19203C4.61469 -3.83761 4.61469 -4.31582 4.08867 -4.78207C3.67024 -5.16463 3.13225 -5.332 2.60623 -5.332C1.6259 -5.332 0.872727 -4.68643 0.872727 -3.90934C0.872727 -3.56264 1.09988 -3.39527 1.37484 -3.39527C1.66177 -3.39527 1.86501 -3.59851 1.86501 -3.88543C1.86501 -4.37559 1.43462 -4.37559 1.25529 -4.37559C1.53026 -4.87771 2.10411 -5.0929 2.58232 -5.0929C3.13225 -5.0929 3.83761 -4.63861 3.83761 -3.56264V-3.08443C1.43462 -3.04857 0.526027 -2.04433 0.526027 -1.12379C0.526027 -0.179328 1.6259 0.119552 2.35517 0.119552C3.14421 0.119552 3.68219 -0.358655 3.90934 -0.932503C3.95716 -0.37061 4.32777 0.0597758 4.84184 0.0597758C5.0929 0.0597758 5.7863 -0.107597 5.7863 -1.06401V-1.7335H5.52329V-1.06401C5.52329 -0.382565 5.23636 -0.286924 5.06899 -0.286924C4.61469 -0.286924 4.61469 -0.920548 4.61469 -1.09988V-3.19203ZM3.83761 -1.68568C3.83761 -0.514072 2.96488 -0.119552 2.45081 -0.119552C1.86501 -0.119552 1.37484 -0.549938 1.37484 -1.12379C1.37484 -2.70187 3.40722 -2.84533 3.83761 -2.86924V-1.68568Z"
       id="g0-97-5" /><path
       d="M4.32777 -4.42341C4.18431 -4.42341 3.74197 -4.42341 3.74197 -3.93325C3.74197 -3.64633 3.94521 -3.44309 4.23213 -3.44309C4.5071 -3.44309 4.73425 -3.61046 4.73425 -3.95716C4.73425 -4.75816 3.89738 -5.332 2.92902 -5.332C1.53026 -5.332 0.418431 -4.08867 0.418431 -2.58232C0.418431 -1.05205 1.56613 0.119552 2.91706 0.119552C4.49514 0.119552 4.8538 -1.31507 4.8538 -1.42267S4.77011 -1.53026 4.73425 -1.53026C4.62665 -1.53026 4.61469 -1.4944 4.57883 -1.35093C4.31582 -0.502117 3.67024 -0.143462 3.02466 -0.143462C2.29539 -0.143462 1.32702 -0.777086 1.32702 -2.59427C1.32702 -4.57883 2.34321 -5.06899 2.94097 -5.06899C3.39527 -5.06899 4.0528 -4.88966 4.32777 -4.42341Z"
       id="g0-99-6" /><path
       d="M3.58655 -8.16538V-7.81868C4.3995 -7.81868 4.49514 -7.73499 4.49514 -7.14919V-4.5071C4.24408 -4.8538 3.73001 -5.27223 3.00075 -5.27223C1.61395 -5.27223 0.418431 -4.10062 0.418431 -2.57036C0.418431 -1.05205 1.55417 0.119552 2.86924 0.119552C3.77783 0.119552 4.30386 -0.478207 4.47123 -0.705355V0.119552L6.15691 0V-0.3467C5.34396 -0.3467 5.24832 -0.430386 5.24832 -1.01619V-8.29689L3.58655 -8.16538ZM4.47123 -1.39875C4.47123 -1.18356 4.47123 -1.1477 4.30386 -0.884682C4.01694 -0.466252 3.52677 -0.119552 2.92902 -0.119552C2.61818 -0.119552 1.32702 -0.239103 1.32702 -2.55841C1.32702 -3.41918 1.47049 -3.89738 1.7335 -4.29191C1.9726 -4.66252 2.45081 -5.03313 3.04857 -5.03313C3.78979 -5.03313 4.20822 -4.49514 4.32777 -4.30386C4.47123 -4.10062 4.47123 -4.07671 4.47123 -3.86152V-1.39875Z"
       id="g0-100-6" /><path
       d="M4.57883 -2.7736C4.84184 -2.7736 4.86575 -2.7736 4.86575 -3.00075C4.86575 -4.20822 4.22017 -5.332 2.7736 -5.332C1.41071 -5.332 0.358655 -4.10062 0.358655 -2.61818C0.358655 -1.0401 1.57808 0.119552 2.90511 0.119552C4.32777 0.119552 4.86575 -1.17161 4.86575 -1.42267C4.86575 -1.4944 4.80598 -1.54222 4.73425 -1.54222C4.63861 -1.54222 4.61469 -1.48244 4.59078 -1.42267C4.27995 -0.418431 3.47895 -0.143462 2.97684 -0.143462S1.26725 -0.478207 1.26725 -2.54645V-2.7736H4.57883ZM1.2792 -3.00075C1.37484 -4.87771 2.4269 -5.0929 2.76164 -5.0929C4.04085 -5.0929 4.11258 -3.40722 4.12453 -3.00075H1.2792Z"
       id="g0-101-4" /><path
       d="M1.42267 -2.16389C1.98456 -1.79328 2.46276 -1.79328 2.59427 -1.79328C3.67024 -1.79328 4.47123 -2.60623 4.47123 -3.52677C4.47123 -3.84956 4.37559 -4.30386 3.99303 -4.68643C4.45928 -5.16463 5.02117 -5.16463 5.08095 -5.16463C5.12877 -5.16463 5.18854 -5.16463 5.23636 -5.14072C5.11681 -5.0929 5.05704 -4.97335 5.05704 -4.84184C5.05704 -4.67447 5.17659 -4.53101 5.36787 -4.53101C5.46351 -4.53101 5.6787 -4.59078 5.6787 -4.8538C5.6787 -5.06899 5.51133 -5.40374 5.0929 -5.40374C4.47123 -5.40374 4.00498 -5.02117 3.83761 -4.84184C3.47895 -5.11681 3.06052 -5.27223 2.60623 -5.27223C1.53026 -5.27223 0.729265 -4.45928 0.729265 -3.53873C0.729265 -2.85729 1.1477 -2.41494 1.26725 -2.30735C1.12379 -2.12802 0.908593 -1.78132 0.908593 -1.31507C0.908593 -0.621669 1.32702 -0.32279 1.42267 -0.263014C0.872727 -0.107597 0.32279 0.32279 0.32279 0.944458C0.32279 1.76936 1.44658 2.45081 2.91706 2.45081C4.33973 2.45081 5.52329 1.81719 5.52329 0.920548C5.52329 0.621669 5.4396 -0.0836862 4.72229 -0.454296C4.11258 -0.765131 3.51482 -0.765131 2.48667 -0.765131C1.75741 -0.765131 1.67372 -0.765131 1.45853 -0.992279C1.33898 -1.11183 1.23138 -1.33898 1.23138 -1.59004C1.23138 -1.79328 1.30311 -1.99651 1.42267 -2.16389ZM2.60623 -2.04433C1.55417 -2.04433 1.55417 -3.25181 1.55417 -3.52677C1.55417 -3.74197 1.55417 -4.23213 1.75741 -4.55492C1.98456 -4.90162 2.34321 -5.02117 2.59427 -5.02117C3.64633 -5.02117 3.64633 -3.8137 3.64633 -3.53873C3.64633 -3.32354 3.64633 -2.83337 3.44309 -2.51059C3.21594 -2.16389 2.85729 -2.04433 2.60623 -2.04433ZM2.92902 2.19975C1.78132 2.19975 0.908593 1.61395 0.908593 0.932503C0.908593 0.836862 0.932503 0.37061 1.3868 0.0597758C1.64981 -0.107597 1.75741 -0.107597 2.59427 -0.107597C3.58655 -0.107597 4.93748 -0.107597 4.93748 0.932503C4.93748 1.63786 4.02889 2.19975 2.92902 2.19975Z"
       id="g0-103-0" /><path
       d="M2.0802 -7.36438C2.0802 -7.67522 1.82914 -7.95019 1.4944 -7.95019C1.18356 -7.95019 0.920548 -7.69913 0.920548 -7.37634C0.920548 -7.01768 1.20747 -6.79054 1.4944 -6.79054C1.86501 -6.79054 2.0802 -7.10137 2.0802 -7.36438ZM0.430386 -5.14072V-4.79402C1.19552 -4.79402 1.30311 -4.72229 1.30311 -4.13649V-0.884682C1.30311 -0.3467 1.17161 -0.3467 0.394521 -0.3467V0C0.729265 -0.0239103 1.30311 -0.0239103 1.64981 -0.0239103C1.78132 -0.0239103 2.47472 -0.0239103 2.8812 0V-0.3467C2.10411 -0.3467 2.05629 -0.406476 2.05629 -0.872727V-5.27223L0.430386 -5.14072Z"
       id="g0-105-0" /><path
       d="M2.05629 -8.29689L0.394521 -8.16538V-7.81868C1.20747 -7.81868 1.30311 -7.73499 1.30311 -7.14919V-0.884682C1.30311 -0.3467 1.17161 -0.3467 0.394521 -0.3467V0C0.729265 -0.0239103 1.31507 -0.0239103 1.67372 -0.0239103S2.63014 -0.0239103 2.96488 0V-0.3467C2.19975 -0.3467 2.05629 -0.3467 2.05629 -0.884682V-8.29689Z"
       id="g0-108-4" /><path
       d="M8.57186 -2.90511C8.57186 -4.01694 8.57186 -4.35168 8.29689 -4.73425C7.95019 -5.2005 7.38829 -5.27223 6.98182 -5.27223C5.98954 -5.27223 5.48742 -4.55492 5.29614 -4.08867C5.12877 -5.00922 4.48319 -5.27223 3.73001 -5.27223C2.57036 -5.27223 2.11606 -4.27995 2.02042 -4.04085H2.00847V-5.27223L0.382565 -5.14072V-4.79402C1.19552 -4.79402 1.29116 -4.71034 1.29116 -4.12453V-0.884682C1.29116 -0.3467 1.15965 -0.3467 0.382565 -0.3467V0C0.6934 -0.0239103 1.33898 -0.0239103 1.67372 -0.0239103C2.02042 -0.0239103 2.666 -0.0239103 2.97684 0V-0.3467C2.21171 -0.3467 2.06824 -0.3467 2.06824 -0.884682V-3.10834C2.06824 -4.36364 2.89315 -5.03313 3.63437 -5.03313S4.54296 -4.42341 4.54296 -3.69415V-0.884682C4.54296 -0.3467 4.41146 -0.3467 3.63437 -0.3467V0C3.94521 -0.0239103 4.59078 -0.0239103 4.92553 -0.0239103C5.27223 -0.0239103 5.91781 -0.0239103 6.22864 0V-0.3467C5.46351 -0.3467 5.32005 -0.3467 5.32005 -0.884682V-3.10834C5.32005 -4.36364 6.14496 -5.03313 6.88618 -5.03313S7.79477 -4.42341 7.79477 -3.69415V-0.884682C7.79477 -0.3467 7.66326 -0.3467 6.88618 -0.3467V0C7.19701 -0.0239103 7.84259 -0.0239103 8.17733 -0.0239103C8.52403 -0.0239103 9.16961 -0.0239103 9.48045 0V-0.3467C8.88269 -0.3467 8.58381 -0.3467 8.57186 -0.705355V-2.90511Z"
       id="g0-109-62" /><path
       d="M5.32005 -2.90511C5.32005 -4.01694 5.32005 -4.35168 5.04508 -4.73425C4.69838 -5.2005 4.13649 -5.27223 3.73001 -5.27223C2.57036 -5.27223 2.11606 -4.27995 2.02042 -4.04085H2.00847V-5.27223L0.382565 -5.14072V-4.79402C1.19552 -4.79402 1.29116 -4.71034 1.29116 -4.12453V-0.884682C1.29116 -0.3467 1.15965 -0.3467 0.382565 -0.3467V0C0.6934 -0.0239103 1.33898 -0.0239103 1.67372 -0.0239103C2.02042 -0.0239103 2.666 -0.0239103 2.97684 0V-0.3467C2.21171 -0.3467 2.06824 -0.3467 2.06824 -0.884682V-3.10834C2.06824 -4.36364 2.89315 -5.03313 3.63437 -5.03313S4.54296 -4.42341 4.54296 -3.69415V-0.884682C4.54296 -0.3467 4.41146 -0.3467 3.63437 -0.3467V0C3.94521 -0.0239103 4.59078 -0.0239103 4.92553 -0.0239103C5.27223 -0.0239103 5.91781 -0.0239103 6.22864 0V-0.3467C5.63088 -0.3467 5.332 -0.3467 5.32005 -0.705355V-2.90511Z"
       id="g0-110-6" /><path
       d="M2.00847 -4.80598H3.69415V-5.15268H2.00847V-7.35243H1.74545C1.7335 -6.22864 1.30311 -5.08095 0.215193 -5.04508V-4.80598H1.23138V-1.48244C1.23138 -0.155417 2.11606 0.119552 2.74969 0.119552C3.50286 0.119552 3.89738 -0.621669 3.89738 -1.48244V-2.16389H3.63437V-1.50635C3.63437 -0.645579 3.28767 -0.143462 2.82142 -0.143462C2.00847 -0.143462 2.00847 -1.25529 2.00847 -1.45853V-4.80598Z"
       id="g0-116-75" /></defs><g
     inkscape:label="Layer 1"
     inkscape:groupmode="layer"
     id="layer1"
     transform="translate(-17.871408,-44.537491)"><path
       style="fill:#ff6800;fill-opacity:1;stroke:#000000;stroke-width:0.1;stroke-linecap:round;stroke-linejoin:round;stroke-dasharray:none;stroke-opacity:1"
       d="M 54.816694,53.485553 46.399023,76.283577"
       id="path30" /><path
       style="fill:#ff6800;fill-opacity:1;stroke:#000000;stroke-width:0.1;stroke-linecap:round;stroke-linejoin:round;stroke-dasharray:none;stroke-opacity:1"
       d="m 54.960404,53.470591 8.417671,22.798024"
       id="path30-3" /><path
       style="fill:#ff6800;fill-opacity:1;stroke:#000000;stroke-width:0.1;stroke-linecap:round;stroke-linejoin:round;stroke-dasharray:none;stroke-opacity:1"
       d="m 54.899587,53.460557 -0.08799,22.946921"
       id="path30-4"
       sodipodi:nodetypes="cc" /><path
       style="fill:#ff6800;fill-opacity:1;stroke:#000000;stroke-width:0.1;stroke-linecap:round;stroke-linejoin:round;stroke-dasharray:none;stroke-opacity:1"
       d="m 110.76551,53.537805 -8.41767,22.798024"
       id="path30-44" /><path
       style="fill:#ff6800;fill-opacity:1;stroke:#000000;stroke-width:0.1;stroke-linecap:round;stroke-linejoin:round;stroke-dasharray:none;stroke-opacity:1"
       d="m 110.90922,53.522843 8.41767,22.798024"
       id="path30-3-7" /><path
       style="fill:#ff6800;fill-opacity:1;stroke:#000000;stroke-width:0.1;stroke-linecap:round;stroke-linejoin:round;stroke-dasharray:none;stroke-opacity:1"
       d="m 110.8484,53.512809 -0.088,22.946921"
       id="path30-4-6"
       sodipodi:nodetypes="cc" /><path
       style="fill:#ff6800;fill-opacity:1;stroke:#000000;stroke-width:0.1;stroke-linecap:round;stroke-linejoin:round;stroke-dasharray:none;stroke-opacity:1"
       d="m 159.44838,53.464486 -0.088,22.946921"
       id="path30-4-62"
       sodipodi:nodetypes="cc" /><path
       style="fill:#ff6800;fill-opacity:1;stroke:#000000;stroke-width:0.1;stroke-linecap:round;stroke-linejoin:round;stroke-dasharray:none;stroke-opacity:1"
       d="m 159.36548,53.489482 -8.41767,22.798024"
       id="path30-5" /><path
       style="fill:#ff6800;fill-opacity:1;stroke:#000000;stroke-width:0.1;stroke-linecap:round;stroke-linejoin:round;stroke-dasharray:none;stroke-opacity:1"
       d="m 159.50919,53.47452 8.41767,22.798024"
       id="path30-3-9" /><rect
       style="fill:#000000;fill-opacity:1;stroke-width:0.499999;stroke-linecap:round;stroke-linejoin:round"
       id="rect1"
       width="178.16951"
       height="8.8994837"
       x="18.289957"
       y="44.558197" /><rect
       style="fill:url(#radialGradient13-7);stroke-width:0.499999;stroke-linecap:round;stroke-linejoin:round"
       id="rect1-5-4-8"
       width="9.0680313"
       height="8.8994827"
       x="106.30702"
       y="44.53923" /><rect
       style="fill:url(#radialGradient13-7-1);stroke-width:0.499999;stroke-linecap:round;stroke-linejoin:round"
       id="rect1-5-4-8-0"
       width="9.0680313"
       height="8.8994827"
       x="154.914"
       y="44.557365" /><rect
       style="fill:#9eff00;fill-opacity:1;stroke-width:0.499999;stroke-linecap:round;stroke-linejoin:round"
       id="rect1-5"
       width="1.0798588"
       height="8.8994827"
       x="54.260666"
       y="44.572048" /><rect
       style="fill:url(#radialGradient13);stroke-width:0.499999;stroke-linecap:round;stroke-linejoin:round"
       id="rect1-5-4"
       width="9.0680313"
       height="8.8994827"
       x="50.346378"
       y="44.539295" /><rect
       style="fill:#ffef00;fill-opacity:1;stroke-width:0.499999;stroke-linecap:round;stroke-linejoin:round"
       id="rect1-5-7"
       width="1.0798588"
       height="8.8994827"
       x="110.30918"
       y="44.559807" /><rect
       style="fill:#ff8b00;fill-opacity:1;stroke-width:0.499999;stroke-linecap:round;stroke-linejoin:round"
       id="rect1-5-7-5"
       width="1.0798588"
       height="8.8994827"
       x="158.91762"
       y="44.537491" /><rect
       style="fill:#000000;fill-opacity:1;stroke-width:0.499999;stroke-linecap:round;stroke-linejoin:round"
       id="rect1-7"
       width="178.16951"
       height="8.8994837"
       x="18.231781"
       y="76.26619" /><rect
       style="fill:url(#radialGradient13-7-9);stroke-width:0.499999;stroke-linecap:round;stroke-linejoin:round"
       id="rect1-5-4-8-1"
       width="9.0680313"
       height="8.8994827"
       x="106.24884"
       y="76.247223" /><rect
       style="fill:url(#radialGradient13-7-1-6);stroke-width:0.499999;stroke-linecap:round;stroke-linejoin:round"
       id="rect1-5-4-8-0-7"
       width="9.0680313"
       height="8.8994827"
       x="154.85583"
       y="76.265358" /><rect
       style="fill:url(#radialGradient13-5);stroke-width:0.499999;stroke-linecap:round;stroke-linejoin:round"
       id="rect1-5-4-7"
       width="9.0680313"
       height="8.8994827"
       x="50.288208"
       y="76.247292" /><rect
       style="fill:#9eff00;fill-opacity:1;stroke-width:0.499999;stroke-linecap:round;stroke-linejoin:round"
       id="rect1-5-2"
       width="1.0798588"
       height="8.8994827"
       x="54.20248"
       y="76.280045" /><rect
       style="fill:url(#radialGradient13-5-0);stroke-width:0.499999;stroke-linecap:round;stroke-linejoin:round"
       id="rect1-5-4-7-9"
       width="9.0680313"
       height="8.8994827"
       x="41.949997"
       y="76.299026" /><rect
       style="fill:#7cff00;fill-opacity:1;stroke-width:0.499999;stroke-linecap:round;stroke-linejoin:round"
       id="rect1-5-2-4"
       width="1.0798588"
       height="8.8994827"
       x="45.864269"
       y="76.331779" /><rect
       style="fill:url(#radialGradient13-5-9);stroke-width:0.499999;stroke-linecap:round;stroke-linejoin:round"
       id="rect1-5-4-7-1"
       width="9.0680313"
       height="8.8994827"
       x="58.685352"
       y="76.264153" /><rect
       style="fill:#c1ff00;fill-opacity:1;stroke-width:0.499999;stroke-linecap:round;stroke-linejoin:round"
       id="rect1-5-2-1"
       width="1.0798588"
       height="8.8994827"
       x="62.599625"
       y="76.296906" /><rect
       style="fill:#ffef00;fill-opacity:1;stroke-width:0.499999;stroke-linecap:round;stroke-linejoin:round"
       id="rect1-5-7-2"
       width="1.0798588"
       height="8.8994827"
       x="110.25099"
       y="76.267799" /><rect
       style="fill:url(#radialGradient13-7-9-7);stroke-width:0.499999;stroke-linecap:round;stroke-linejoin:round"
       id="rect1-5-4-8-1-3"
       width="9.0680313"
       height="8.8994827"
       x="97.543198"
       y="76.247284" /><rect
       style="fill:#f5ff00;fill-opacity:1;stroke-width:0.499999;stroke-linecap:round;stroke-linejoin:round"
       id="rect1-5-7-2-6"
       width="1.0798588"
       height="8.8994827"
       x="101.54536"
       y="76.26786" /><rect
       style="fill:url(#radialGradient13-7-9-7-3);stroke-width:0.499999;stroke-linecap:round;stroke-linejoin:round"
       id="rect1-5-4-8-1-3-1"
       width="9.0680313"
       height="8.8994827"
       x="114.82941"
       y="76.228134" /><rect
       style="fill:#ffd900;fill-opacity:1;stroke-width:0.499999;stroke-linecap:round;stroke-linejoin:round"
       id="rect1-5-7-2-6-2"
       width="1.0798588"
       height="8.8994827"
       x="118.83157"
       y="76.248711" /><rect
       style="fill:#ff8b00;fill-opacity:1;stroke-width:0.499999;stroke-linecap:round;stroke-linejoin:round"
       id="rect1-5-7-5-2"
       width="1.0798588"
       height="8.8994827"
       x="158.85945"
       y="76.245483" /><rect
       style="fill:url(#radialGradient13-7-1-6-9);stroke-width:0.499999;stroke-linecap:round;stroke-linejoin:round"
       id="rect1-5-4-8-0-7-5"
       width="9.0680313"
       height="8.8994827"
       x="146.39853"
       y="76.297058" /><rect
       style="fill:#ffa800;fill-opacity:1;stroke-width:0.499999;stroke-linecap:round;stroke-linejoin:round"
       id="rect1-5-7-5-2-0"
       width="1.0798588"
       height="8.8994827"
       x="150.40215"
       y="76.277184" /><rect
       style="fill:url(#radialGradient13-7-1-6-9-3);stroke-width:0.499999;stroke-linecap:round;stroke-linejoin:round"
       id="rect1-5-4-8-0-7-5-1"
       width="9.0680313"
       height="8.8994827"
       x="163.20779"
       y="76.282173" /><rect
       style="fill:url(#linearGradient32);stroke:none;stroke-width:0.1;stroke-linecap:round;stroke-linejoin:round;stroke-dasharray:none;stroke-opacity:1"
       id="rect31"
       width="178.06833"
       height="23.300495"
       x="18.294369"
       y="53.057278" /><rect
       style="fill:#ff6800;fill-opacity:1;stroke-width:0.499999;stroke-linecap:round;stroke-linejoin:round"
       id="rect1-5-7-5-2-0-1"
       width="1.0798588"
       height="8.8994827"
       x="167.21141"
       y="76.262299" /><use
       x="228.345"
       xlink:href="#g0-66"
       y="92.154404"
       id="use1"
       transform="matrix(0.74836736,0,0,0.74836736,-147.74904,-1.806107)" /><g
       id="page1"
       transform="matrix(0.44097222,0,0,0.44097222,-20.351554,9.7192906)"
       style="fill:#f9f9f9"><use
         x="184.774"
         xlink:href="#g0-103-5"
         y="92.154404"
         id="use1-5"
         style="fill:#f9f9f9" /><use
         x="190.605"
         xlink:href="#g0-97-4"
         y="92.154404"
         id="use2"
         style="fill:#f9f9f9" /><use
         x="196.436"
         xlink:href="#g0-115"
         y="92.154404"
         id="use3"
         style="fill:#f9f9f9" /><use
         x="204.938"
         xlink:href="#g0-108-9"
         y="92.154404"
         id="use4"
         style="fill:#f9f9f9" /><use
         x="208.177"
         xlink:href="#g0-97-4"
         y="92.154404"
         id="use5"
         style="fill:#f9f9f9" /><use
         x="214.009"
         xlink:href="#g0-109"
         y="92.154404"
         id="use6"
         style="fill:#f9f9f9" /><use
         x="223.72701"
         xlink:href="#g0-112"
         y="92.154404"
         id="use7"
         style="fill:#f9f9f9" /><use
         x="234.108"
         xlink:href="#g0-115"
         y="92.154404"
         id="use8"
         style="fill:#f9f9f9" /><use
         x="238.70799"
         xlink:href="#g0-112"
         y="92.154404"
         id="use9"
         style="fill:#f9f9f9" /><use
         x="245.51199"
         xlink:href="#g0-101-8"
         y="92.154404"
         id="use10"
         style="fill:#f9f9f9" /><use
         x="250.696"
         xlink:href="#g0-99-1"
         y="92.154404"
         id="use11"
         style="fill:#f9f9f9" /><use
         x="255.879"
         xlink:href="#g0-116-7"
         y="92.154404"
         id="use12"
         style="fill:#f9f9f9" /><use
         x="260.414"
         xlink:href="#g0-114"
         y="92.154404"
         id="use13"
         style="fill:#f9f9f9" /><use
         x="264.94901"
         xlink:href="#g0-117"
         y="92.154404"
         id="use14"
         style="fill:#f9f9f9" /><use
         x="271.42899"
         xlink:href="#g0-109"
         y="92.154404"
         id="use15"
         style="fill:#f9f9f9" /></g><ellipse
       style="fill:#838383;fill-opacity:1;stroke:none;stroke-width:2.14157;stroke-linecap:round;stroke-linejoin:round;stroke-dasharray:none;stroke-opacity:1"
       id="path34"
       cx="31.803995"
       cy="147.22981"
       rx="10.182023"
       ry="2.5455058" /><path
       style="fill:none;fill-opacity:0.462356;stroke:#fdcd00;stroke-width:2.14157;stroke-linecap:round;stroke-linejoin:round;stroke-dasharray:none;stroke-opacity:1"
       d="m 25.381317,146.08757 v -25.80674 c 0,0 -0.164041,-7.24511 7.197775,-7.26704 7.194618,-0.0214 7.304521,6.64579 7.304521,6.64579 1.15265,19.335 0.456565,21.98094 -0.04261,26.40445"
       id="path32"
       sodipodi:nodetypes="ccscc" /><path
       style="fill:none;fill-opacity:0.462356;stroke:url(#radialGradient34);stroke-width:2.69942;stroke-linecap:round;stroke-linejoin:round;stroke-dasharray:none"
       d="m 23.61548,152.99805 v -32.52921 c 0,0 -0.206771,-9.13241 9.072743,-9.16006 9.068767,-0.027 9.207301,8.37698 9.207301,8.37698 1.452904,24.37162 0.575493,27.70681 -0.0537,33.28262"
       id="path32-9"
       sodipodi:nodetypes="ccscc" /><path
       style="fill:none;fill-opacity:1;stroke:#000000;stroke-width:2.14157;stroke-linecap:butt;stroke-linejoin:round;stroke-dasharray:none;stroke-opacity:1"
       d="m 84.401358,124.86069 0,-25.957968 H 18.942193 V 166.03418 H 84.42181 V 139.3927"
       id="path35"
       sodipodi:nodetypes="cccccc" /><rect
       style="fill:url(#radialGradient42);stroke:none;stroke-width:2.14157;stroke-linecap:round;stroke-linejoin:round;stroke-dasharray:none;stroke-opacity:1"
       id="rect35"
       width="11.489135"
       height="14.56155"
       x="78.377167"
       y="124.86112"
       ry="0" /><path
       style="fill:none;fill-opacity:1;stroke:#ffda39;stroke-width:1;stroke-linecap:round;stroke-linejoin:round;stroke-dasharray:none;stroke-opacity:1;marker-start:url(#X)"
       id="rect42"
       width="108.59022"
       height="18.304073"
       x="130.15291"
       y="153.75865"
       inkscape:path-effect="#path-effect42"
       sodipodi:type="rect"
       d="m 238.47492,160.11672 c 0,0 0.19224,4.59984 -2.22175,7.87905 -2.41398,3.27921 -3.1253,-13.74111 -5.68669,-13.98912 -2.5614,-0.248 -1.79643,18.05608 -4.34746,18.05608 -2.55103,0 -3.316,-18.30408 -5.86703,-18.30408 -2.55102,0 -1.78605,18.30408 -4.33708,18.30408 -2.55103,0 -3.316,-18.30408 -5.86703,-18.30408 -2.55103,0 -1.78606,18.30408 -4.33709,18.30408 -2.55103,0 -3.316,-18.30408 -5.86703,-18.30408 -2.55103,0 -1.78606,18.30408 -4.33709,18.30408 -2.55102,0 -3.31599,-18.30408 -5.86702,-18.30408 -2.55103,0 -1.78606,18.30408 -4.33709,18.30408 -2.55103,0 -3.316,-18.30408 -5.86703,-18.30408 -2.55103,0 -1.78606,18.30408 -4.33709,18.30408 -2.55103,0 -3.316,-18.30408 -5.86703,-18.30408 -2.55103,0 -1.78605,18.30408 -4.33708,18.30408 -2.55103,0 -3.316,-18.30408 -5.86703,-18.30408 -2.55103,0 -1.78606,18.30408 -4.33709,18.30408 -2.55103,0 -3.316,-18.30408 -5.86703,-18.30408 -2.55103,0 -1.78606,18.30408 -4.33709,18.30408 -2.55103,0 -3.316,-18.30408 -5.85951,-18.1243 -2.54352,0.17978 -1.80079,17.95164 -4.42387,16.22756 -2.62308,-1.72408 -3.05664,-12.09816 -3.05664,-12.09816"
       ry="8.4920712"
       transform="matrix(0.32994567,0,0,0.32994567,3.3079753,77.434542)" /><ellipse
       style="fill:#838383;fill-opacity:1;stroke:none;stroke-width:2.14157;stroke-linecap:round;stroke-linejoin:round;stroke-dasharray:none;stroke-opacity:1"
       id="path34-9"
       cx="126.04163"
       cy="147.28029"
       rx="10.182023"
       ry="2.5455058" /><path
       style="fill:none;fill-opacity:0.462356;stroke:#fdcd00;stroke-width:2.14157;stroke-linecap:round;stroke-linejoin:round;stroke-dasharray:none;stroke-opacity:1"
       d="M 119.61896,146.13804 V 120.3313 c 0,0 -0.16405,-7.24511 7.19777,-7.26704 7.19462,-0.0214 7.30452,6.64579 7.30452,6.64579 1.15265,19.335 0.45657,21.98094 -0.0426,26.40445"
       id="path32-4"
       sodipodi:nodetypes="ccscc" /><path
       style="fill:none;fill-opacity:0.462356;stroke:url(#radialGradient34-3);stroke-width:2.69942;stroke-linecap:round;stroke-linejoin:round;stroke-dasharray:none"
       d="m 117.85312,153.04852 v -32.52921 c 0,0 -0.20677,-9.13241 9.07274,-9.16006 9.06877,-0.027 9.2073,8.37698 9.2073,8.37698 1.45291,24.37162 0.5755,27.70681 -0.0537,33.28262"
       id="path32-9-6"
       sodipodi:nodetypes="ccscc" /><path
       style="fill:none;fill-opacity:1;stroke:#000000;stroke-width:2.142;stroke-linecap:butt;stroke-linejoin:round;stroke-dasharray:none;stroke-opacity:1"
       d="m 178.639,124.92392 0,-25.970728 h -65.45917 v 67.131458 h 65.47962 l 0,-26.64824"
       id="path35-9"
       sodipodi:nodetypes="cccccc" /><rect
       style="fill:url(#radialGradient42-0);stroke:none;stroke-width:2.14157;stroke-linecap:round;stroke-linejoin:round;stroke-dasharray:none;stroke-opacity:1"
       id="rect35-2"
       width="11.489135"
       height="14.56155"
       x="172.61481"
       y="124.91161"
       ry="0" /><path
       style="fill:none;fill-opacity:1;stroke:#ffda39;stroke-width:1;stroke-linecap:round;stroke-linejoin:round;stroke-dasharray:none;stroke-opacity:1;marker-start:url(#Triangle-5)"
       id="rect42-2"
       width="164.62207"
       height="17.302717"
       x="130.15291"
       y="153.75865"
       inkscape:path-effect="#path-effect42-0"
       sodipodi:type="rect"
       d="m 294.73798,163.47682 c 0,0 -0.12506,-2.9926 -2.80627,-6.10753 -2.68121,-3.11493 -2.01102,12.9214 -4.54594,13.30674 -2.53493,0.38534 -3.25805,-16.91738 -5.80908,-16.91738 -2.55103,0 -1.82791,17.30272 -4.37893,17.30272 -2.55103,0 -3.27415,-17.30272 -5.82518,-17.30272 -2.55103,0 -1.82791,17.30272 -4.37894,17.30272 -2.55103,0 -3.27415,-17.30272 -5.82518,-17.30272 -2.55103,0 -1.82791,17.30272 -4.37894,17.30272 -2.55103,0 -3.27415,-17.30272 -5.82518,-17.30272 -2.55103,0 -1.8279,17.30272 -4.37893,17.30272 -2.55103,0 -3.27415,-17.30272 -5.82518,-17.30272 -2.55103,0 -1.82791,17.30272 -4.37894,17.30272 -2.55103,0 -3.27415,-17.30272 -5.82518,-17.30272 -2.55103,0 -1.82791,17.30272 -4.37894,17.30272 -2.55102,0 -3.27415,-17.30272 -5.82518,-17.30272 -2.55102,0 -1.8279,17.30272 -4.37893,17.30272 -2.55103,0 -3.27415,-17.30272 -5.82518,-17.30272 -2.55103,0 -1.82791,17.30272 -4.37894,17.30272 -2.55103,0 -3.27415,-17.30272 -5.82518,-17.30272 -2.55103,0 -1.82791,17.30272 -4.37893,17.30272 -2.55103,0 -3.27415,-17.30272 -5.82518,-17.30272 -2.55103,0 -1.82791,17.30272 -4.37894,17.30272 -2.55103,0 -3.27415,-17.30272 -5.82518,-17.30272 -2.55103,0 -1.82791,17.30272 -4.37894,17.30272 -2.55103,0 -3.27415,-17.30272 -5.82518,-17.30272 -2.55103,0 -1.8279,17.30272 -4.37893,17.30272 -2.55103,0 -3.27415,-17.30272 -5.82518,-17.30272 -2.55103,0 -1.82791,17.30272 -4.37894,17.30272 -2.55103,0 -3.27415,-17.30272 -5.82518,-17.30272 -2.55103,0 -1.82791,17.30272 -4.37894,17.30272 -2.55102,0 -3.27415,-17.30272 -5.81824,-17.13677 -2.54409,0.16594 -1.84157,16.97589 -4.46454,15.25443 -2.62297,-1.72146 -3.01857,-11.18728 -3.01857,-11.18728"
       ry="8.3808813"
       transform="matrix(0.32994567,0,0,0.32994567,97.545614,77.485016)" /><g
       id="g42"
       transform="matrix(-0.67609074,0,0,-0.67609074,271.36586,243.94356)"><path
         style="fill:none;fill-opacity:0.462356;stroke:#fd0a00;stroke-width:10;stroke-linecap:butt;stroke-linejoin:round;stroke-dasharray:none;stroke-opacity:1"
         d="m 129.63428,148.00294 v -13.64466 c 0,0 -0.16404,-7.24511 7.19777,-7.26704 7.19462,-0.0214 7.30452,6.64579 7.30452,6.64579 0.0678,5.32106 0.23163,9.62934 0.18452,14.05285"
         id="path32-8"
         sodipodi:nodetypes="ccscc" /><path
         style="fill:none;fill-opacity:0.462356;stroke:#838383;stroke-width:10;stroke-linecap:butt;stroke-linejoin:round;stroke-dasharray:none;stroke-opacity:1"
         d="m 129.63774,154.79324 v -7.30825 m 14.65654,0.0347 c 0,3.15453 0.0353,2.7384 -0.0118,7.16192"
         id="path32-8-7"
         sodipodi:nodetypes="cccc" /></g><g
       id="g43"
       transform="translate(12.766522,-0.09915106)"
       style="fill:#f9f9f9"><use
         x="225.50101"
         xlink:href="#g1-40"
         y="92.154404"
         id="use1-8"
         transform="matrix(0.7056905,0,0,0.7056905,-153.88287,-13.843292)"
         style="fill:#f9f9f9" /><use
         x="230.036"
         xlink:href="#g0-97-8"
         y="92.154404"
         id="use2-0"
         transform="matrix(0.7056905,0,0,0.7056905,-153.88287,-13.843292)"
         style="fill:#f9f9f9" /><use
         x="236.158"
         xlink:href="#g1-41"
         y="92.154404"
         id="use3-2"
         transform="matrix(0.7056905,0,0,0.7056905,-153.88287,-13.843292)"
         style="fill:#f9f9f9" /></g><g
       id="g44"
       transform="translate(11.611023,31.337564)"><use
         x="226.66901"
         xlink:href="#g1-40"
         y="109.589"
         id="use4-1"
         transform="matrix(0.7056905,0,0,0.7056905,-153.88287,-13.843292)" /><use
         x="231.20399"
         xlink:href="#g0-98"
         y="109.589"
         id="use5-0"
         transform="matrix(0.7056905,0,0,0.7056905,-153.88287,-13.843292)" /><use
         x="236.16299"
         xlink:href="#g1-41"
         y="109.589"
         id="use6-5"
         transform="matrix(0.7056905,0,0,0.7056905,-153.88287,-13.843292)" /></g><g
       id="g45"
       transform="translate(64.748213,16.008584)"><use
         x="213.09599"
         xlink:href="#g0-115-4"
         y="92.154404"
         id="use1-4"
         transform="matrix(0.44097222,0,0,0.44097222,-111.97749,58.225449)" /><use
         x="217.696"
         xlink:href="#g0-111"
         y="92.154404"
         id="use2-06"
         transform="matrix(0.44097222,0,0,0.44097222,-111.97749,58.225449)" /><use
         x="223.85201"
         xlink:href="#g0-100-2"
         y="92.154404"
         id="use3-29"
         transform="matrix(0.44097222,0,0,0.44097222,-111.97749,58.225449)" /><use
         x="230.33099"
         xlink:href="#g0-105-5"
         y="92.154404"
         id="use4-9"
         transform="matrix(0.44097222,0,0,0.44097222,-111.97749,58.225449)" /><use
         x="233.57001"
         xlink:href="#g0-117-7"
         y="92.154404"
         id="use5-08"
         transform="matrix(0.44097222,0,0,0.44097222,-111.97749,58.225449)" /><use
         x="240.05"
         xlink:href="#g0-109-6"
         y="92.154404"
         id="use6-1"
         transform="matrix(0.44097222,0,0,0.44097222,-111.97749,58.225449)" /><use
         x="253.67"
         xlink:href="#g0-118"
         y="92.154404"
         id="use7-3"
         transform="matrix(0.44097222,0,0,0.44097222,-111.97749,58.225449)" /><use
         x="259.17499"
         xlink:href="#g0-97-46"
         y="92.154404"
         id="use8-1"
         transform="matrix(0.44097222,0,0,0.44097222,-111.97749,58.225449)" /><use
         x="265.00601"
         xlink:href="#g0-112-2"
         y="92.154404"
         id="use9-1"
         transform="matrix(0.44097222,0,0,0.44097222,-111.97749,58.225449)" /><use
         x="271.81"
         xlink:href="#g0-111"
         y="92.154404"
         id="use10-0"
         transform="matrix(0.44097222,0,0,0.44097222,-111.97749,58.225449)" /><use
         x="277.64099"
         xlink:href="#g0-114-8"
         y="92.154404"
         id="use11-3"
         transform="matrix(0.44097222,0,0,0.44097222,-111.97749,58.225449)" /></g><g
       id="g46"
       transform="translate(64.008215,52.270521)"><use
         x="183.83099"
         xlink:href="#g0-115-4"
         y="109.589"
         id="use12-4"
         transform="matrix(0.44097222,0,0,0.44097222,-111.97749,58.225449)" /><use
         x="188.431"
         xlink:href="#g0-111"
         y="109.589"
         id="use13-0"
         transform="matrix(0.44097222,0,0,0.44097222,-111.97749,58.225449)" /><use
         x="194.58701"
         xlink:href="#g0-100-2"
         y="109.589"
         id="use14-3"
         transform="matrix(0.44097222,0,0,0.44097222,-111.97749,58.225449)" /><use
         x="201.06599"
         xlink:href="#g0-105-5"
         y="109.589"
         id="use15-9"
         transform="matrix(0.44097222,0,0,0.44097222,-111.97749,58.225449)" /><use
         x="204.306"
         xlink:href="#g0-117-7"
         y="109.589"
         id="use16"
         transform="matrix(0.44097222,0,0,0.44097222,-111.97749,58.225449)" /><use
         x="210.785"
         xlink:href="#g0-109-6"
         y="109.589"
         id="use17"
         transform="matrix(0.44097222,0,0,0.44097222,-111.97749,58.225449)" /><use
         x="224.405"
         xlink:href="#g0-118"
         y="109.589"
         id="use18"
         transform="matrix(0.44097222,0,0,0.44097222,-111.97749,58.225449)" /><use
         x="229.91"
         xlink:href="#g0-97-46"
         y="109.589"
         id="use19"
         transform="matrix(0.44097222,0,0,0.44097222,-111.97749,58.225449)" /><use
         x="235.741"
         xlink:href="#g0-112-2"
         y="109.589"
         id="use20"
         transform="matrix(0.44097222,0,0,0.44097222,-111.97749,58.225449)" /><use
         x="242.545"
         xlink:href="#g0-111"
         y="109.589"
         id="use21"
         transform="matrix(0.44097222,0,0,0.44097222,-111.97749,58.225449)" /><use
         x="248.37601"
         xlink:href="#g0-114-8"
         y="109.589"
         id="use22"
         transform="matrix(0.44097222,0,0,0.44097222,-111.97749,58.225449)" /><use
         x="256.814"
         xlink:href="#g0-108-8"
         y="109.589"
         id="use23"
         transform="matrix(0.44097222,0,0,0.44097222,-111.97749,58.225449)" /><use
         x="260.05301"
         xlink:href="#g0-97-46"
         y="109.589"
         id="use24"
         transform="matrix(0.44097222,0,0,0.44097222,-111.97749,58.225449)" /><use
         x="265.884"
         xlink:href="#g0-109-6"
         y="109.589"
         id="use25"
         transform="matrix(0.44097222,0,0,0.44097222,-111.97749,58.225449)" /><use
         x="275.603"
         xlink:href="#g0-112-2"
         y="109.589"
         id="use26"
         transform="matrix(0.44097222,0,0,0.44097222,-111.97749,58.225449)" /></g><path
       style="fill:#f9f9f9;fill-opacity:1;stroke:#000000;stroke-width:0.7;stroke-linecap:butt;stroke-linejoin:round;stroke-dasharray:none;stroke-opacity:1;marker-end:url(#Dot)"
       d="m 74.598426,117.19098 7.032233,9.31775"
       id="path46" /><path
       style="fill:#f9f9f9;fill-opacity:1;stroke:#000000;stroke-width:0.7;stroke-linecap:butt;stroke-linejoin:round;stroke-dasharray:none;stroke-opacity:1;marker-end:url(#Dot-6)"
       d="M 58.232718,155.18223 40.909277,134.95745"
       id="path46-3"
       sodipodi:nodetypes="cc" /><g
       id="page1-6"
       transform="matrix(0.44097222,0,0,0.44097222,57.650674,77.72366)"><use
         x="197.358"
         xlink:href="#g0-109-62"
         y="92.154404"
         id="use1-9" /><use
         x="207.076"
         xlink:href="#g0-97-5"
         y="92.154404"
         id="use2-8" /><use
         x="212.907"
         xlink:href="#g0-103-0"
         y="92.154404"
         id="use3-7" /><use
         x="218.73801"
         xlink:href="#g0-110-6"
         y="92.154404"
         id="use4-2" /><use
         x="225.217"
         xlink:href="#g0-101-4"
         y="92.154404"
         id="use5-8" /><use
         x="230.401"
         xlink:href="#g0-116-75"
         y="92.154404"
         id="use6-2" /><use
         x="234.936"
         xlink:href="#g0-105-0"
         y="92.154404"
         id="use7-9" /><use
         x="238.175"
         xlink:href="#g0-99-6"
         y="92.154404"
         id="use8-9" /><use
         x="247.261"
         xlink:href="#g0-12-0"
         y="92.154404"
         id="use9-6" /><use
         x="253.74001"
         xlink:href="#g0-101-4"
         y="92.154404"
         id="use10-02" /><use
         x="258.923"
         xlink:href="#g0-108-4"
         y="92.154404"
         id="use11-7" /><use
         x="262.16199"
         xlink:href="#g0-100-6"
         y="92.154404"
         id="use12-6" /></g><path
       style="fill:none;fill-opacity:1;stroke:#000000;stroke-width:0.7;stroke-linecap:butt;stroke-linejoin:round;stroke-dasharray:none;stroke-opacity:1"
       d="m 170.03845,139.69589 h -1.2323 l 0,-15.17351 h 1.15022"
       id="path47"
       sodipodi:nodetypes="cccc" /><path
       style="fill:none;fill-opacity:1;stroke:#000000;stroke-width:0.7;stroke-linecap:butt;stroke-linejoin:round;stroke-dasharray:none;stroke-opacity:1"
       d="m 168.7864,132.31444 -9.24394,-12.63843"
       id="path48" /></g></svg>
