\relax 
\providecommand\babel@aux[2]{}
\@nameuse{bbl@beforestart}
\providecommand\hyper@newdestlabel[2]{}
\providecommand\HyperFirstAtBeginDocument{\AtBeginDocument}
\HyperFirstAtBeginDocument{\ifx\hyper@anchor\@undefined
\global\let\oldnewlabel\newlabel
\gdef\newlabel#1#2{\newlabelxx{#1}#2}
\gdef\newlabelxx#1#2#3#4#5#6{\oldnewlabel{#1}{{#2}{#3}}}
\AtEndDocument{\ifx\hyper@anchor\@undefined
\let\newlabel\oldnewlabel
\fi}
\fi}
\global\let\hyper@last\relax 
\gdef\HyperFirstAtBeginDocument#1{#1}
\providecommand\HyField@AuxAddToFields[1]{}
\providecommand\HyField@AuxAddToCoFields[2]{}
\babel@aux{british}{}
\@writefile{toc}{\contentsline {chapter}{\numberline {1}Topology in physics}{3}{chapter.1}\protected@file@percent }
\@writefile{lof}{\addvspace {10\p@ }}
\@writefile{lot}{\addvspace {10\p@ }}
\pgfsyspdfmark {pgfid1}{4661699}{45132695}
\pgfsyspdfmark {pgfid2}{4661699}{38415951}
\@writefile{toc}{\contentsline {section}{\numberline {1.1}Topology in a nutshell}{4}{section.1.1}\protected@file@percent }
\@writefile{lof}{\contentsline {figure}{\numberline {1.1}{\ignorespaces Decomposition of surfaces into elementary cells (contractible surfaces). The circle $(a)$ is decomposed in a point and a segment $(b)$ wich are both contractible. The torus $(c)$ is decomposed in an open cylinder and a circle $(d)$, the open cylinder can be reduced to a circle, both circle reduced to points and segments. $(e)$ presents another decomposition of the torus by cutting it transversely, despite being different these two decompostions end up computing the same characteristic of Euler: $\chi (\ensuremath  {\operatorname  {Torus}}) = 0$. $(f)$ presents a decomposition of the sphere into elementary cells.\relax }}{5}{figure.caption.2}\protected@file@percent }
\providecommand*\caption@xref[2]{\@setref\relax\@undefined{#1}}
\newlabel{fig:elem_cells}{{1.1}{5}{Decomposition of surfaces into elementary cells (contractible surfaces). The circle $(a)$ is decomposed in a point and a segment $(b)$ wich are both contractible. The torus $(c)$ is decomposed in an open cylinder and a circle $(d)$, the open cylinder can be reduced to a circle, both circle reduced to points and segments. $(e)$ presents another decomposition of the torus by cutting it transversely, despite being different these two decompostions end up computing the same characteristic of Euler: $\chi (\tmop {Torus}) = 0$. $(f)$ presents a decomposition of the sphere into elementary cells.\relax }{figure.caption.2}{}}
\newlabel{fig:elem_cells@cref}{{[figure][1][1]1.1}{[1][4][]5}}
\citation{Zangeneh-Nejad2020}
\citation{Ozawa2019Mar}
\citation{Choi2023Mar}
\@writefile{lof}{\contentsline {figure}{\numberline {1.2}{\ignorespaces Zoology: $(a)$ Sphere: $g = 0$ $(b)$ Torus: $g = 1$ $(c)$ Klein botle: $g = 2$ the Klein bottle is made of two M{\"o}bius strip sticked together, it is a non orientable-shape and thus the genus we refer two is slightly different from the one we define in the body of the text. $(d)$ M{\"o}bius strip is also a non-orientable shape. $(e)$ Simple strip, mathematically $\mathcal  {S}^1\times \mathbb  {R}$.\relax }}{6}{figure.caption.3}\protected@file@percent }
\newlabel{fig:zoology}{{1.2}{6}{Zoology: $(a)$ Sphere: $g = 0$ $(b)$ Torus: $g = 1$ $(c)$ Klein botle: $g = 2$ the Klein bottle is made of two M{\"o}bius strip sticked together, it is a non orientable-shape and thus the genus we refer two is slightly different from the one we define in the body of the text. $(d)$ M{\"o}bius strip is also a non-orientable shape. $(e)$ Simple strip, mathematically $\mathcal {S}^1\times \mathbb {R}$.\relax }{figure.caption.3}{}}
\newlabel{fig:zoology@cref}{{[figure][2][1]1.2}{[1][4][]6}}
\citation{Susstrunk2015Jul}
\citation{Nash2015Nov}
\citation{Zhang2018Dec}
\citation{Fleury2014Jan}
\@writefile{toc}{\contentsline {section}{\numberline {1.2}Topology in classical wave mechanics}{7}{section.1.2}\protected@file@percent }
\@writefile{toc}{\contentsline {subsection}{\numberline {1.2.1}Mechanical waves}{7}{subsection.1.2.1}\protected@file@percent }
\newlabel{eq:newton}{{1.5}{7}{Mechanical waves}{equation.1.2.5}{}}
\newlabel{eq:newton@cref}{{[equation][5][1]1.5}{[1][7][]7}}
\@writefile{toc}{\contentsline {subsection}{\numberline {1.2.2}Acoustic waves}{7}{subsection.1.2.2}\protected@file@percent }
\citation{Berry1980Jul}
\citation{Aharonov1959Aug}
\@writefile{lof}{\contentsline {figure}{\numberline {1.3}{\ignorespaces $(a)$ A ring filled with a fluid, such as air in the experiment, allows the propagation of sound. In the static state, the ring hosts two counterpropagating modes with identical frequencies. However, when the ring rotates at speed $v$, the mode moving in the direction of the ring's rotation experiences an increase in frequencies, while the other mode experiences a decrease. Consequently, this action lifts the degeneracy between the two modes. $(b)$ An example of honeycomb lattice. $(c)$ Masses attached to the ground via springs rotate at a frequency of 300Hz due to a DC motor. A powerful neodymium magnet creates repulsion between the rotating masses, forming a system assembled in a honeycomb lattice. $(d)$ A lattice consisting of gyroscopes interconnected by springs. Each gyroscope experiences three forces from the three springs it's attached to, along with a torque resulting from its internal rotation.\relax }}{8}{figure.caption.4}\protected@file@percent }
\@writefile{toc}{\contentsline {subsection}{\numberline {1.2.3}Equatorial waves}{8}{subsection.1.2.3}\protected@file@percent }
\@writefile{toc}{\contentsline {subsubsection}{Aharonov-Bohm effect}{8}{subsection.1.2.3}\protected@file@percent }
\citation{Chambers1960Jul}
\citation{Tonomura2003Jul}
\@writefile{lof}{\contentsline {figure}{\numberline {1.4}{\ignorespaces Experimental setup to demonstrate the Aharonov-Bohm effect: A source emits electrons from the left, and upon reaching the screen, an interference pattern emerges, even though the magnetic field is seemingly undetectable outside the hatched area. This highlights the significance of a quantity responsible for creating the magnetic field, which exists throughout space: the vector potential. \relax }}{9}{figure.caption.5}\protected@file@percent }
\newlabel{fig:ab_effect}{{1.4}{9}{Experimental setup to demonstrate the Aharonov-Bohm effect: A source emits electrons from the left, and upon reaching the screen, an interference pattern emerges, even though the magnetic field is seemingly undetectable outside the hatched area. This highlights the significance of a quantity responsible for creating the magnetic field, which exists throughout space: the vector potential. \relax }{figure.caption.5}{}}
\newlabel{fig:ab_effect@cref}{{[figure][4][1]1.4}{[1][9][]9}}
\@writefile{toc}{\contentsline {subsubsection}{Coriolis force}{9}{figure.caption.5}\protected@file@percent }
\newlabel{eq:coriolis-force}{{1.8}{9}{Coriolis force}{equation.1.2.8}{}}
\newlabel{eq:coriolis-force@cref}{{[equation][8][1]1.8}{[1][9][]9}}
\citation{Taylor1922Jan}
\citation{Taylor1922Jan}
\citation{Delplace2020}
\citation{Taylor1922Jan}
\citation{Maxworthy1983Apr}
\citation{Matsuno1966}
\citation{Faure2023}
\@writefile{lof}{\contentsline {figure}{\numberline {1.5}{\ignorespaces The Foucault pendulum is depicted here, with a large mass attached to the room's ceiling, chosen to ensure oscillations lasting at least an hour, allowing for a noticeable deviation. The release of the pendulum was surrounded by a ritual: to prevent any incidental movements that could induce rotation in the pendulum, a cord holding the mass was burned using a candle after ensuring the perfect symmetry of the entire setup. The position of the mass is given by angle $\theta $ and $\phi $. Insets shows the Earth with the latitude angle $\lambda $.\relax }}{10}{figure.caption.6}\protected@file@percent }
\newlabel{fig:foucault_pendulum}{{1.5}{10}{The Foucault pendulum is depicted here, with a large mass attached to the room's ceiling, chosen to ensure oscillations lasting at least an hour, allowing for a noticeable deviation. The release of the pendulum was surrounded by a ritual: to prevent any incidental movements that could induce rotation in the pendulum, a cord holding the mass was burned using a candle after ensuring the perfect symmetry of the entire setup. The position of the mass is given by angle $\theta $ and $\phi $. Insets shows the Earth with the latitude angle $\lambda $.\relax }{figure.caption.6}{}}
\newlabel{fig:foucault_pendulum@cref}{{[figure][5][1]1.5}{[1][9][]10}}
\@writefile{toc}{\contentsline {subsubsection}{Kelvin waves}{10}{equation.1.2.9}\protected@file@percent }
\citation{Klitzing1980Aug}
\citation{Suddards2012Aug}
\citation{Haldane1988Oct}
\citation{Haldane2008Jan}
\citation{Raghu2008Sep}
\citation{Wang2009Oct}
\citation{Bernevig2006Dec}
\citation{Chang2013Apr}
\citation{Oh2013Apr}
\citation{Shalaev2019Jan}
\citation{Bandres2018Mar}
\citation{Harari2018Mar}
\citation{Bongiovanni2021Oct}
\citation{Barbuto}
\citation{Klitzing1980Aug}
\citation{Suddards2012Aug}
\citation{Haldane1988Oct}
\citation{Haldane2008Jan}
\citation{Raghu2008Sep}
\citation{Wang2009Oct}
\citation{Bernevig2006Dec}
\citation{Chang2013Apr}
\citation{Oh2013Apr}
\citation{Shalaev2019Jan}
\citation{Bandres2018Mar}
\citation{Harari2018Mar}
\citation{Bongiovanni2021Oct}
\citation{Barbuto}
\citation{Haldane2008Jan}
\citation{Wang2008Jan}
\citation{Raghu2008Sep}
\citation{Ozawa2019Mar}
\citation{JalaliMehrabad2023Oct}
\citation{Li2009Apr}
\citation{Groth2009Nov}
\citation{Liu2017Nov}
\citation{Stutzer2018Aug}
\citation{Meier2018Nov}
\citation{Liu2020Sep}
\@writefile{lof}{\contentsline {figure}{\numberline {1.6}{\ignorespaces The two large arrows on the Earth represent Kelvin waves near the equator. Due to the Coriolis effect, Kelvin waves in the northern hemisphere propagate eastward and cannot cross the equator. The inset displays marine currents from the website \href  {https://earth.nullschool.net}{nullschool} the first of november 2023. On the right, we focus on the channel between France and the UK. Here, because of the Coriolis effect, tidal waves are stronger on France's beaches compared to those in the UK \cite  {Taylor1922Jan} \relax }}{11}{figure.caption.7}\protected@file@percent }
\@writefile{lot}{\contentsline {table}{\numberline {1.1}{\ignorespaces \relax }}{11}{table.caption.8}\protected@file@percent }
\newlabel{tab:summary_table}{{1.1}{11}{\relax }{table.caption.8}{}}
\newlabel{tab:summary_table@cref}{{[table][1][1]1.1}{[1][10][]11}}
\@writefile{toc}{\contentsline {section}{\numberline {1.3}Topology in Photonic}{11}{section.1.3}\protected@file@percent }
\@writefile{toc}{\contentsline {subsection}{\numberline {1.3.1}Genesis of photonic topology}{11}{subsection.1.3.1}\protected@file@percent }
\@writefile{toc}{\contentsline {subsection}{\numberline {1.3.2}The surprising topological anderson insulator}{11}{subsection.1.3.2}\protected@file@percent }
\@writefile{toc}{\contentsline {subsection}{\numberline {1.3.3}Topological photonic fibers}{11}{subsection.1.3.3}\protected@file@percent }
\citation{Roberts2022Dec}
\citation{Bandres2018Mar}
\citation{Harari2018Mar}
\@writefile{lof}{\contentsline {figure}{\numberline {1.7}{\ignorespaces $(a)$\cite  {Klitzing1980Aug}\cite  {Suddards2012Aug} The discovery of the QHE earned Klaud Von Klitzing a Nobel, however the graph presented here comes from a more recent source as the historical measure was not so acurate. Haldane devised a model $(b)$\cite  {Haldane1988Oct} that replicates, without a magnetic field, an effect similar to the Quantum Hall Effect in a periodic honeycomb lattice, this is called the anomalous QHE, Later on, he and Raghu proposed another system $(c)$\cite  {Haldane2008Jan},\cite  {Raghu2008Sep} that enables the realization of the QHE using photons instead of electrons, this effect was experimentally observed in $(f)$\cite  {Wang2009Oct}.$(d)$\cite  {Bernevig2006Dec} Using spin instead of magnetic field, the so-called QSHE is realized and finally with the experimental realization of the QAHE $(h)$\cite  {Chang2013Apr} the quantum Hall trio is complete.\cite  {Oh2013Apr}. The theory behind photonic crystal is improved $(g)$\cite  {Shalaev2019Jan} and it opens the door to a lot of industrial applications such as topological lasers $(e)$\cite  {Bandres2018Mar}\cite  {Harari2018Mar}, topological solitons $(i)$\cite  {Bongiovanni2021Oct} or even topological antennas $(j)$\cite  {Barbuto}. TODO: cite in text \relax }}{12}{figure.caption.9}\protected@file@percent }
\newlabel{fig:timeline}{{1.7}{12}{$(a)$\cite {Klitzing1980Aug}\cite {Suddards2012Aug} The discovery of the QHE earned Klaud Von Klitzing a Nobel, however the graph presented here comes from a more recent source as the historical measure was not so acurate. Haldane devised a model $(b)$\cite {Haldane1988Oct} that replicates, without a magnetic field, an effect similar to the Quantum Hall Effect in a periodic honeycomb lattice, this is called the anomalous QHE, Later on, he and Raghu proposed another system $(c)$\cite {Haldane2008Jan},\cite {Raghu2008Sep} that enables the realization of the QHE using photons instead of electrons, this effect was experimentally observed in $(f)$\cite {Wang2009Oct}.$(d)$\cite {Bernevig2006Dec} Using spin instead of magnetic field, the so-called QSHE is realized and finally with the experimental realization of the QAHE $(h)$\cite {Chang2013Apr} the quantum Hall trio is complete.\cite {Oh2013Apr}. The theory behind photonic crystal is improved $(g)$\cite {Shalaev2019Jan} and it opens the door to a lot of industrial applications such as topological lasers $(e)$\cite {Bandres2018Mar}\cite {Harari2018Mar}, topological solitons $(i)$\cite {Bongiovanni2021Oct} or even topological antennas $(j)$\cite {Barbuto}. TODO: cite in text \relax }{figure.caption.9}{}}
\newlabel{fig:timeline@cref}{{[figure][7][1]1.7}{[1][11][]12}}
\@writefile{lof}{\contentsline {figure}{\numberline {1.8}{\ignorespaces The Su–Schrieffer–Heeger (SSH) model, fermions can freely move on the one dimensionnal lattice, they can either jump on the right or on the left with different strength of hoping. \relax }}{12}{figure.caption.10}\protected@file@percent }
\newlabel{fig:ssh}{{1.8}{12}{The Su–Schrieffer–Heeger (SSH) model, fermions can freely move on the one dimensionnal lattice, they can either jump on the right or on the left with different strength of hoping. \relax }{figure.caption.10}{}}
\newlabel{fig:ssh@cref}{{[figure][8][1]1.8}{[1][12][]12}}
\@writefile{toc}{\contentsline {subsection}{\numberline {1.3.4}Topological laser}{12}{subsection.1.3.4}\protected@file@percent }
\citation{Bandres2018Mar}
\citation{Haldane1988Oct}
\@writefile{lof}{\contentsline {figure}{\numberline {1.9}{\ignorespaces Glass fibers (orange) are stacked in one super fiber, then some holes are made to allow modes to navigate within the super fiber. The fibers that separate the holes are represented in green and red to highlight that they are of different sizes and thus couple the holes with different strength.\relax }}{13}{figure.caption.11}\protected@file@percent }
\newlabel{fig:tpf}{{1.9}{13}{Glass fibers (orange) are stacked in one super fiber, then some holes are made to allow modes to navigate within the super fiber. The fibers that separate the holes are represented in green and red to highlight that they are of different sizes and thus couple the holes with different strength.\relax }{figure.caption.11}{}}
\newlabel{fig:tpf@cref}{{[figure][9][1]1.9}{[1][12][]13}}
\@writefile{toc}{\contentsline {subsection}{\numberline {1.3.5}Summary}{13}{subsection.1.3.5}\protected@file@percent }
\@writefile{toc}{\contentsline {chapter}{\numberline {2}Introducing tools for topological phase study }{15}{chapter.2}\protected@file@percent }
\@writefile{lof}{\addvspace {10\p@ }}
\@writefile{lot}{\addvspace {10\p@ }}
\pgfsyspdfmark {pgfid4}{4661699}{45101612}
\pgfsyspdfmark {pgfid5}{4661699}{36356623}
\citation{Wallace1947May}
\citation{Novoselov2004Oct}
\citation{Yves2017Nov}
\citation{Kittel2004Nov}
\@writefile{toc}{\contentsline {section}{\numberline {2.1}Graphene}{17}{section.2.1}\protected@file@percent }
\@writefile{toc}{\contentsline {subsection}{\numberline {2.1.1}Analysing Graphene's Brillouin zone}{17}{subsection.2.1.1}\protected@file@percent }
\@writefile{lof}{\contentsline {figure}{\numberline {2.1}{\ignorespaces (Left) Graphene can be seen as a superposition of two triangular sublattices $A$ (blue disks) and $B$ (red disks). $\mathbf  {a}_1, \mathbf  {a}_2$ and $\mathbf  {a}_3$ are basis vector of the lattice. $a$ is the unique parameter of this lattice. (Right) represents the first Brillouin zone with different paths: the blue one followed to construct the band diagram shown in \cref  {fig:haldane_bs}.\relax }}{17}{figure.caption.12}\protected@file@percent }
\newlabel{fig:fig_graphene_bs}{{2.1}{17}{(Left) Graphene can be seen as a superposition of two triangular sublattices $A$ (blue disks) and $B$ (red disks). $\mathbf {a}_1, \mathbf {a}_2$ and $\mathbf {a}_3$ are basis vector of the lattice. $a$ is the unique parameter of this lattice. (Right) represents the first Brillouin zone with different paths: the blue one followed to construct the band diagram shown in \cref {fig:haldane_bs}.\relax }{figure.caption.12}{}}
\newlabel{fig:fig_graphene_bs@cref}{{[figure][1][2]2.1}{[1][17][]17}}
\newlabel{eq:h-graphene}{{2.2}{17}{Analysing Graphene's Brillouin zone}{equation.2.1.2}{}}
\newlabel{eq:h-graphene@cref}{{[equation][2][2]2.2}{[1][17][]17}}
\newlabel{eq:schrodinger}{{2.3}{17}{Analysing Graphene's Brillouin zone}{equation.2.1.3}{}}
\newlabel{eq:schrodinger@cref}{{[equation][3][2]2.3}{[1][17][]17}}
\newlabel{eq:nnschro}{{2.4}{17}{Analysing Graphene's Brillouin zone}{equation.2.1.4}{}}
\newlabel{eq:nnschro@cref}{{[equation][4][2]2.4}{[1][17][]17}}
\newlabel{eq:eqA}{{2.8}{18}{Analysing Graphene's Brillouin zone}{equation.2.1.8}{}}
\newlabel{eq:eqA@cref}{{[subsection][1][2,1]2.1.1}{[1][18][]18}}
\newlabel{eq:eqB}{{2.9}{18}{Analysing Graphene's Brillouin zone}{equation.2.1.8}{}}
\newlabel{eq:eqB@cref}{{[subsection][1][2,1]2.1.1}{[1][18][]18}}
\newlabel{eq:eqE2}{{2.11}{18}{Analysing Graphene's Brillouin zone}{equation.2.1.11}{}}
\newlabel{eq:eqE2@cref}{{[equation][11][2]2.11}{[1][18][]18}}
\@writefile{lof}{\contentsline {figure}{\numberline {2.2}{\ignorespaces  Band structure of graphene for a bit more than the Brillouin zone, notice the so-called six ``Dirac points'' where the conduction band and the valence band are touching each other.\relax }}{19}{figure.caption.13}\protected@file@percent }
\newlabel{fig:graphene_bs}{{2.2}{19}{Band structure of graphene for a bit more than the Brillouin zone, notice the so-called six ``Dirac points'' where the conduction band and the valence band are touching each other.\relax }{figure.caption.13}{}}
\newlabel{fig:graphene_bs@cref}{{[figure][2][2]2.2}{[1][19][]19}}
\newlabel{eq:nitrure-bore}{{2.16}{19}{Analysing Graphene's Brillouin zone}{equation.2.1.16}{}}
\newlabel{eq:nitrure-bore@cref}{{[equation][16][2]2.16}{[1][19][]19}}
\@writefile{toc}{\contentsline {subsection}{\numberline {2.1.2}Graphene nanoribbon}{19}{subsection.2.1.2}\protected@file@percent }
\newlabel{sec:graphene-nanoribbon}{{2.1.2}{19}{Graphene nanoribbon}{subsection.2.1.2}{}}
\newlabel{sec:graphene-nanoribbon@cref}{{[subsection][2][2,1]2.1.2}{[1][19][]19}}
\@writefile{lof}{\contentsline {figure}{\numberline {2.3}{\ignorespaces \relax }}{19}{figure.caption.14}\protected@file@percent }
\newlabel{fig:nanoribbon_schema}{{2.3}{19}{\relax }{figure.caption.14}{}}
\newlabel{fig:nanoribbon_schema@cref}{{[figure][3][2]2.3}{[1][19][]19}}
\citation{Haldane1988Oct}
\@writefile{toc}{\contentsline {section}{\numberline {2.2}Haldane's model}{21}{section.2.2}\protected@file@percent }
\@writefile{toc}{\contentsline {subsection}{\numberline {2.2.1}Brillouin zone}{21}{subsection.2.2.1}\protected@file@percent }
\@writefile{lof}{\contentsline {figure}{\numberline {2.4}{\ignorespaces Haldane's model rules for next nearest neghour coupling. If we are on sites $A$ and the vector between two interacting sites is in $\{ e_0, e_1, e_{- 1} \}$ (respectively $\{ - e_0, - e_1, - e_{- 1} \}$) then the strength of the interaction will be $t_2$ (respectively $\overline  {t_2}$). On sites $B$ the rule is the same but both $t 2$ and $\overline  {t_2}$ are multiplied by $- 1$.\relax }}{21}{figure.caption.15}\protected@file@percent }
\newlabel{fig:haldane_nanoribbon}{{2.4}{21}{Haldane's model rules for next nearest neghour coupling. If we are on sites $A$ and the vector between two interacting sites is in $\{ e_0, e_1, e_{- 1} \}$ (respectively $\{ - e_0, - e_1, - e_{- 1} \}$) then the strength of the interaction will be $t_2$ (respectively $\overline {t_2}$). On sites $B$ the rule is the same but both $t 2$ and $\overline {t_2}$ are multiplied by $- 1$.\relax }{figure.caption.15}{}}
\newlabel{fig:haldane_nanoribbon@cref}{{[figure][4][2]2.4}{[1][21][]21}}
\@writefile{lof}{\contentsline {figure}{\numberline {2.5}{\ignorespaces Zoom on a dirac point following a path in the Brillouin Zone, the dispersion relation is clearly linear (red line) for the graphene model. Blue and teal lines represents Haldane's model for $(t = 1, M = 0.2)$ and $(t = 1, t_2 = 0.15)$, width of the gap is given by $2 \left | M - 3 \sqrt  []{3} t_2 \right |$.\relax }}{22}{figure.caption.16}\protected@file@percent }
\newlabel{fig:haldane_bs}{{2.5}{22}{Zoom on a dirac point following a path in the Brillouin Zone, the dispersion relation is clearly linear (red line) for the graphene model. Blue and teal lines represents Haldane's model for $(t = 1, M = 0.2)$ and $(t = 1, t_2 = 0.15)$, width of the gap is given by $2 \left | M - 3 \sqrt []{3} t_2 \right |$.\relax }{figure.caption.16}{}}
\newlabel{fig:haldane_bs@cref}{{[figure][5][2]2.5}{[1][22][]22}}
\@writefile{lof}{\contentsline {figure}{\numberline {2.6}{\ignorespaces First band of the Hamiltonian for the Haldane's model with a trivial gap on left and with time-reversal symmetry broken on right. The band is color-coded as a function of weight of the quasimodes on the atomic sublattice $A$: $W^A_1$.\relax }}{23}{figure.caption.17}\protected@file@percent }
\newlabel{fig:weight_a}{{2.6}{23}{First band of the Hamiltonian for the Haldane's model with a trivial gap on left and with time-reversal symmetry broken on right. The band is color-coded as a function of weight of the quasimodes on the atomic sublattice $A$: $W^A_1$.\relax }{figure.caption.17}{}}
\newlabel{fig:weight_a@cref}{{[figure][6][2]2.6}{[1][22][]23}}
\@writefile{toc}{\contentsline {subsection}{\numberline {2.2.2}Nanoribbon}{23}{subsection.2.2.2}\protected@file@percent }
\newlabel{eq:ea-nano}{{2.32}{23}{Nanoribbon}{equation.2.2.32}{}}
\newlabel{eq:ea-nano@cref}{{[equation][32][2]2.32}{[1][22][]23}}
\newlabel{eq:eb-nano}{{2.33}{23}{Nanoribbon}{equation.2.2.33}{}}
\newlabel{eq:eb-nano@cref}{{[equation][33][2]2.33}{[1][23][]23}}
\citation{Dalibard2018}
\@writefile{lof}{\contentsline {figure}{\numberline {2.7}{\ignorespaces Band structure of a Nanoribbon of graphene folowing a path defined by $\left \{ (k_x, 0), k_x \in \left [ 0 ; 2 \pi / \sqrt  {3} \right ] \right \}$. On the left we added the parameter $M$ that represents the onsite energy and on the right $t_2$ is a pure imaginary coefficient that make coupling between next nearest neighbours. Using a nanoribbon allows one to see the edge states that are present in the case $3 \sqrt  {2} t_2 > M$.\relax }}{24}{figure.caption.18}\protected@file@percent }
\newlabel{fig:nanoribbon_simu}{{2.7}{24}{Band structure of a Nanoribbon of graphene folowing a path defined by $\left \{ (k_x, 0), k_x \in \left [ 0 ; 2 \pi / \sqrt {3} \right ] \right \}$. On the left we added the parameter $M$ that represents the onsite energy and on the right $t_2$ is a pure imaginary coefficient that make coupling between next nearest neighbours. Using a nanoribbon allows one to see the edge states that are present in the case $3 \sqrt {2} t_2 > M$.\relax }{figure.caption.18}{}}
\newlabel{fig:nanoribbon_simu@cref}{{[figure][7][2]2.7}{[1][24][]24}}
\@writefile{toc}{\contentsline {subsection}{\numberline {2.2.3}Chern number}{24}{subsection.2.2.3}\protected@file@percent }
\newlabel{eq:berry_curvature_eq}{{2.37}{24}{Chern number}{equation.2.2.37}{}}
\newlabel{eq:berry_curvature_eq@cref}{{[equation][37][2]2.37}{[1][24][]24}}
\citation{Fukui2005Jun}
\citation{Fukui2005Jun}
\citation{Fukui2005Jun}
\@writefile{toc}{\contentsline {subsection}{\numberline {2.2.4}Real space}{25}{subsection.2.2.4}\protected@file@percent }
\citation{VanTiggelen1999}
\@writefile{lof}{\contentsline {figure}{\numberline {2.8}{\ignorespaces Discretized Brillouin zone used to compute Berry curvature and thus Chern number using the method recommanded by \cite  {Fukui2005Jun}. The red points are not considered in the sum giving the chern number as they are repetition of other points in the Brillouin zone. Vectors $\mathbf  {u}_x$ and $\mathbf  {u}_y$ are defined to ensure \ $\| \mathbf  {u}_x \| / \| \mathbf  {u}_y \| = 1 / \sqrt  {3}$ in the goal of having discretized point to fall exactly on the border of the Brillouin zone.\relax }}{26}{figure.caption.19}\protected@file@percent }
\newlabel{fig:discretized_bz}{{2.8}{26}{Discretized Brillouin zone used to compute Berry curvature and thus Chern number using the method recommanded by \cite {Fukui2005Jun}. The red points are not considered in the sum giving the chern number as they are repetition of other points in the Brillouin zone. Vectors $\mathbf {u}_x$ and $\mathbf {u}_y$ are defined to ensure \ $\| \mathbf {u}_x \| / \| \mathbf {u}_y \| = 1 / \sqrt {3}$ in the goal of having discretized point to fall exactly on the border of the Brillouin zone.\relax }{figure.caption.19}{}}
\newlabel{fig:discretized_bz@cref}{{[figure][8][2]2.8}{[1][25][]26}}
\@writefile{lof}{\contentsline {figure}{\numberline {2.9}{\ignorespaces Berry curvature in the trivial (left) and topological case (right). In the trivial case Berry cuvature compensates itself at points $K$ and $K'$, however in the topologcial case it becomes zero for $K'$ points thus making the Chern number non zero.\relax }}{26}{figure.caption.20}\protected@file@percent }
\newlabel{fig:berry_curvature}{{2.9}{26}{Berry curvature in the trivial (left) and topological case (right). In the trivial case Berry cuvature compensates itself at points $K$ and $K'$, however in the topologcial case it becomes zero for $K'$ points thus making the Chern number non zero.\relax }{figure.caption.20}{}}
\newlabel{fig:berry_curvature@cref}{{[figure][9][2]2.9}{[1][25][]26}}
\citation{Toniolo2022Dec}
\@writefile{lof}{\contentsline {figure}{\numberline {2.10}{\ignorespaces This figure highlights the distinct edge structures found in a honeycomb lattice. These edge configurations play a crucial role in the appearance of edges states.\relax }}{27}{figure.caption.21}\protected@file@percent }
\@writefile{lof}{\contentsline {figure}{\numberline {2.11}{\ignorespaces Density of states of the Haldane's model with $t_2 = 0.2$ for two systems with open (OBC) and periodic (PBC) boundary conditions. Note that in the OBC case, states are present within the gap. These states localize on the edges of the sample as shown by the IPR map on the right.\relax }}{27}{figure.caption.22}\protected@file@percent }
\newlabel{fig:dos_ipr}{{2.11}{27}{Density of states of the Haldane's model with $t_2 = 0.2$ for two systems with open (OBC) and periodic (PBC) boundary conditions. Note that in the OBC case, states are present within the gap. These states localize on the edges of the sample as shown by the IPR map on the right.\relax }{figure.caption.22}{}}
\newlabel{fig:dos_ipr@cref}{{[figure][11][2]2.11}{[1][27][]27}}
\@writefile{toc}{\contentsline {subsection}{\numberline {2.2.5}Bott index}{27}{subsection.2.2.5}\protected@file@percent }
\newlabel{sec:bott_index}{{2.2.5}{27}{Bott index}{subsection.2.2.5}{}}
\newlabel{sec:bott_index@cref}{{[subsection][5][2,2]2.2.5}{[1][27][]27}}
\@writefile{toc}{\contentsline {subsubsection}{Bott index of two unitary matrices}{27}{subsection.2.2.5}\protected@file@percent }
\newlabel{sec:bott_unitary}{{2.2.5}{27}{Bott index of two unitary matrices}{subsection.2.2.5}{}}
\newlabel{sec:bott_unitary@cref}{{[subsection][5][2,2]2.2.5}{[1][27][]27}}
\citation{Toniolo2022Dec}
\citation{Loring2011Jan}
\citation{Loring2019Jul}
\@writefile{toc}{\contentsline {subsubsection}{Bott index of two invertible matrix}{28}{equation.2.2.48}\protected@file@percent }
\newlabel{sec:bott_invertible}{{2.2.5}{28}{Bott index of two invertible matrix}{equation.2.2.48}{}}
\newlabel{sec:bott_invertible@cref}{{[subsection][5][2,2]2.2.5}{[1][28][]28}}
\@writefile{toc}{\contentsline {subsubsection}{Vanishing of Bott index}{28}{equation.2.2.51}\protected@file@percent }
\citation{Toniolo2022Dec}
\@writefile{toc}{\contentsline {subsubsection}{Bott index for the physicist}{29}{equation.2.2.53}\protected@file@percent }
\newlabel{sec:bott_physicist}{{2.2.5}{29}{Bott index for the physicist}{equation.2.2.53}{}}
\newlabel{sec:bott_physicist@cref}{{[subsection][5][2,2]2.2.5}{[1][28][]29}}
\newlabel{eq:bott-index-final}{{2.60}{29}{Bott index for the physicist}{equation.2.2.60}{}}
\newlabel{eq:bott-index-final@cref}{{[equation][60][2]2.60}{[1][29][]29}}
\@writefile{toc}{\contentsline {subsubsection}{Bott Index on Haldane's model}{30}{equation.2.2.62}\protected@file@percent }
\@writefile{lof}{\contentsline {figure}{\numberline {2.12}{\ignorespaces Chern number and Bott index computed for various values of $t_2$ and $M$, black line is $t_2 = M / \left ( 3 \sqrt  {3} \right )$ and shows the transition between the topological ($C = 1$ or $C_{\text  {B}} = 1$) and trivial ($C = 0$ or $C_{\text  {B}} = 0$) phase. These two figures demonstrate the equivalence between the two topological invariants.\relax }}{30}{figure.caption.23}\protected@file@percent }
\newlabel{fig:phase_diagram_chern_bott}{{2.12}{30}{Chern number and Bott index computed for various values of $t_2$ and $M$, black line is $t_2 = M / \left ( 3 \sqrt {3} \right )$ and shows the transition between the topological ($C = 1$ or $C_{\text {B}} = 1$) and trivial ($C = 0$ or $C_{\text {B}} = 0$) phase. These two figures demonstrate the equivalence between the two topological invariants.\relax }{figure.caption.23}{}}
\newlabel{fig:phase_diagram_chern_bott@cref}{{[figure][12][2]2.12}{[1][30][]30}}
\citation{Kane2005Sep}
\citation{Sheng2006Jul}
\@writefile{lof}{\contentsline {figure}{\numberline {2.13}{\ignorespaces Bott index is computed here for a very small number of sites: for $N=24$, despite almost all the sites being on the edges of the sample, the structure of the phase diagram still emerges.\relax }}{31}{figure.caption.24}\protected@file@percent }
\newlabel{fig:phase_bott_24}{{2.13}{31}{Bott index is computed here for a very small number of sites: for $N=24$, despite almost all the sites being on the edges of the sample, the structure of the phase diagram still emerges.\relax }{figure.caption.24}{}}
\newlabel{fig:phase_bott_24@cref}{{[figure][13][2]2.13}{[1][30][]31}}
\@writefile{toc}{\contentsline {section}{\numberline {2.3}Kane-Mele model}{31}{section.2.3}\protected@file@percent }
\@writefile{toc}{\contentsline {subsection}{\numberline {2.3.1}Band structure}{31}{subsection.2.3.1}\protected@file@percent }
\@writefile{lof}{\contentsline {figure}{\numberline {2.14}{\ignorespaces Band structure for the Kane-Mele model. Four bands are present as each sites $A$ and $B$ have to be considered either for spin up or for spin down. \relax }}{31}{figure.caption.25}\protected@file@percent }
\citation{Huang2018Sep}
\@writefile{toc}{\contentsline {subsection}{\numberline {2.3.2}Spin Chern number}{32}{subsection.2.3.2}\protected@file@percent }
\newlabel{sec:spin_chern_number}{{2.3.2}{32}{Spin Chern number}{subsection.2.3.2}{}}
\newlabel{sec:spin_chern_number@cref}{{[subsection][2][2,3]2.3.2}{[1][31][]32}}
\@writefile{toc}{\contentsline {subsection}{\numberline {2.3.3}Spin Bott index}{32}{subsection.2.3.3}\protected@file@percent }
\@writefile{lof}{\contentsline {figure}{\numberline {2.15}{\ignorespaces On the left I show the density of states for the Kane-Mele's model with $t_2=1$ and $M=2$ on $N=216$ sites. Because of the spin we have a total of $N_{\textrm  {states}}=2N$ eigenstates. The red line drawn at $\omega =0$ shows that only the states on the left are taken into account when computing the operator $P\sigma P$. This line has to be in the gap, it is a parameter of the spin Bott index. On the right we demonstrate how the states are selected to compute $C_{\mathrm  {B}}^+$ (below red line) and $C_{\mathrm  {B}}^-$ (above blue line). This value is a second parameter of the spin Bott, it has to be fine tuned depending of the model, here I used $0.1$.\relax }}{33}{figure.caption.26}\protected@file@percent }
\newlabel{fig:dos_and_psp_spectrum}{{2.15}{33}{On the left I show the density of states for the Kane-Mele's model with $t_2=1$ and $M=2$ on $N=216$ sites. Because of the spin we have a total of $N_{\textrm {states}}=2N$ eigenstates. The red line drawn at $\omega =0$ shows that only the states on the left are taken into account when computing the operator $P\sigma P$. This line has to be in the gap, it is a parameter of the spin Bott index. On the right we demonstrate how the states are selected to compute $C_{\mathrm {B}}^+$ (below red line) and $C_{\mathrm {B}}^-$ (above blue line). This value is a second parameter of the spin Bott, it has to be fine tuned depending of the model, here I used $0.1$.\relax }{figure.caption.26}{}}
\newlabel{fig:dos_and_psp_spectrum@cref}{{[figure][15][2]2.15}{[1][32][]33}}
\@writefile{lof}{\contentsline {figure}{\numberline {2.16}{\ignorespaces Spin Chern number and Spin Bott index computed for Kane-Mele's Model $N = 216$, when computing Spin Bott index near the line $t_2=M/3\sqrt  {3}$, it can take the values $0.5$ or $-0.5$. This because in these situations the gap is very small, eigenstates that should be used to compute $C_B^+$ can end up in the computation of $C_B^-$ and vice versa, this does not contradict the property that says that the Bott index is an integer.\relax }}{33}{figure.caption.27}\protected@file@percent }
\newlabel{fig:spin_index}{{2.16}{33}{Spin Chern number and Spin Bott index computed for Kane-Mele's Model $N = 216$, when computing Spin Bott index near the line $t_2=M/3\sqrt {3}$, it can take the values $0.5$ or $-0.5$. This because in these situations the gap is very small, eigenstates that should be used to compute $C_B^+$ can end up in the computation of $C_B^-$ and vice versa, this does not contradict the property that says that the Bott index is an integer.\relax }{figure.caption.27}{}}
\newlabel{fig:spin_index@cref}{{[figure][16][2]2.16}{[1][33][]33}}
\@writefile{toc}{\contentsline {subsection}{\numberline {2.3.4}Notation}{33}{subsection.2.3.4}\protected@file@percent }
\@writefile{lot}{\contentsline {table}{\numberline {2.1}{\ignorespaces We summarize here the different models thats has been encountered and the use of topological indices on it. Grayed cases significates that this computation does not make sens.\relax }}{34}{table.caption.28}\protected@file@percent }
\citation{cohen98}
\citation{agarwal95}
\citation{agarwal13}
\citation{scully09}
\citation{rohl10}
\citation{joan08}
\citation{antezza09pra}
\citation{skip20epj}
\citation{perczel17}
\citation{perczel17pra}
\citation{bettles17}
\citation{nous}
\citation{antezza13}
\citation{skip20prb}
\citation{skip23}
\citation{polini13}
\citation{perczel17}
\citation{reisner21}
\@writefile{toc}{\contentsline {chapter}{\numberline {3}The honeycomb lattice between plates of metal}{35}{chapter.3}\protected@file@percent }
\@writefile{lof}{\addvspace {10\p@ }}
\@writefile{lot}{\addvspace {10\p@ }}
\pgfsyspdfmark {pgfid9}{4661699}{45122192}
\pgfsyspdfmark {pgfid10}{4661699}{36094318}
\@writefile{toc}{\contentsline {section}{\numberline {3.1}Introduction}{35}{section.3.1}\protected@file@percent }
\newlabel{sec:intro}{{3.1}{35}{Introduction}{section.3.1}{}}
\newlabel{sec:intro@cref}{{[section][1][3]3.1}{[1][35][]35}}
\citation{skip15}
\citation{perczel17}
\citation{nous}
\citation{skip23}
\@writefile{toc}{\contentsline {section}{\numberline {3.2}Honeycomb atomic lattice in the free space}{36}{section.3.2}\protected@file@percent }
\newlabel{sec:free}{{3.2}{36}{Honeycomb atomic lattice in the free space}{section.3.2}{}}
\newlabel{sec:free@cref}{{[section][2][3]3.2}{[1][36][]36}}
\@writefile{toc}{\contentsline {subsection}{\numberline {3.2.1}The model}{36}{subsection.3.2.1}\protected@file@percent }
\@writefile{lof}{\contentsline {figure}{\numberline {3.1}{\ignorespaces $(a)$ Honeycomb lattice of two-level atoms with interatomic spacing $a$. The lattice can be seen as a superposition of two triangular sublattices $A$ (blue disks) and $B$ (red disks). The wavy line indicates coupling of each atom to all the others via the electromagnetic field. The lattice is placed in a static magnetic field $\textbf  {B}$ perpendicular to the atomic plane. $\textbf  {a}_1$, $\textbf  {a}_2$ and $\textbf  {a}_3$ are basis vectors of the lattice. $(b)$ The first Brillouin zone of the honeycomb atomic lattice. The purple path is followed to construct the band diagram in \cref  {fig:bd}. The dashed circle delimits the free-space light cone $|\textbf  {k}|<k_0$.\relax }}{36}{figure.caption.29}\protected@file@percent }
\newlabel{fig:lattice}{{3.1}{36}{$(a)$ Honeycomb lattice of two-level atoms with interatomic spacing $a$. The lattice can be seen as a superposition of two triangular sublattices $A$ (blue disks) and $B$ (red disks). The wavy line indicates coupling of each atom to all the others via the electromagnetic field. The lattice is placed in a static magnetic field $\textbf {B}$ perpendicular to the atomic plane. $\textbf {a}_1$, $\textbf {a}_2$ and $\textbf {a}_3$ are basis vectors of the lattice. $(b)$ The first Brillouin zone of the honeycomb atomic lattice. The purple path is followed to construct the band diagram in \cref {fig:bd}. The dashed circle delimits the free-space light cone $|\textbf {k}|<k_0$.\relax }{figure.caption.29}{}}
\newlabel{fig:lattice@cref}{{[figure][1][3]3.1}{[1][36][]36}}
\newlabel{ham}{{3.1}{36}{The model}{equation.3.2.1}{}}
\newlabel{ham@cref}{{[equation][1][3]3.1}{[1][36][]36}}
\citation{perczel17}
\citation{nous}
\newlabel{greena}{{3.2}{37}{The model}{equation.3.2.2}{}}
\newlabel{greena@cref}{{[subsection][1][3,2]3.2.1}{[1][37][]37}}
\newlabel{ham2d}{{3.4}{37}{The model}{equation.3.2.4}{}}
\newlabel{ham2d@cref}{{[subsection][1][3,2]3.2.1}{[1][37][]37}}
\newlabel{greenb}{{3.5}{37}{The model}{equation.3.2.5}{}}
\newlabel{greenb@cref}{{[subsection][1][3,2]3.2.1}{[1][37][]37}}
\newlabel{dmatrix}{{3.6}{37}{The model}{equation.3.2.6}{}}
\newlabel{dmatrix@cref}{{[subsection][1][3,2]3.2.1}{[1][37][]37}}
\@writefile{toc}{\contentsline {subsection}{\numberline {3.2.2}Band diagram of a honeycomb lattice in the free space}{37}{subsection.3.2.2}\protected@file@percent }
\newlabel{seq}{{3.7}{37}{Band diagram of a honeycomb lattice in the free space}{equation.3.2.7}{}}
\newlabel{seq@cref}{{[subsection][2][3,2]3.2.2}{[1][37][]37}}
\citation{antezza09pra}
\citation{perczel17}
\@writefile{lof}{\contentsline {figure}{\numberline {3.2}{\ignorespaces Band diagrams of a honeycomb lattice of atoms coupled via the electromagnetic field for $k_0a=2\pi \times 0.05$ [see \cref  {fig:lattice}(a)] and four different pairs of $\Delta _{{\mathbf  B}}$, $\Delta _{AB}$. Horizontal axis corresponds to the path shown in purple in the 2D Brillouin zone in \cref  {fig:lattice}(b). Color code corresponds to the decay rate $\Gamma $ of quasimodes capped at $\Gamma /\Gamma _0 = 100$ (i.e., all $\Gamma /\Gamma _0 \geq 100$ are shown in yellow). We label bands from bottom to top by an index $\alpha = 1$--4. Gray shaded areas are band gaps between the second and third spectral bands, gray dashed lines delimit the free-space light cone \(|\textbf  {k}| \leq k_0\) where $\Gamma > 0$.\relax }}{38}{figure.caption.30}\protected@file@percent }
\newlabel{fig:bd}{{3.2}{38}{Band diagrams of a honeycomb lattice of atoms coupled via the electromagnetic field for $k_0a=2\pi \times 0.05$ [see \cref {fig:lattice}(a)] and four different pairs of $\Delta _{\vec {B}}$, $\Delta _{AB}$. Horizontal axis corresponds to the path shown in purple in the 2D Brillouin zone in \cref {fig:lattice}(b). Color code corresponds to the decay rate $\Gamma $ of quasimodes capped at $\Gamma /\Gamma _0 = 100$ (i.e., all $\Gamma /\Gamma _0 \geq 100$ are shown in yellow). We label bands from bottom to top by an index $\alpha = 1$--4. Gray shaded areas are band gaps between the second and third spectral bands, gray dashed lines delimit the free-space light cone \(|\textbf {k}| \leq k_0\) where $\Gamma > 0$.\relax }{figure.caption.30}{}}
\newlabel{fig:bd@cref}{{[figure][2][3]3.2}{[1][38][]38}}
\newlabel{hamk}{{3.8}{38}{Band diagram of a honeycomb lattice in the free space}{equation.3.2.8}{}}
\newlabel{hamk@cref}{{[equation][8][3]3.8}{[1][37][]38}}
\newlabel{h11}{{3.9}{38}{Band diagram of a honeycomb lattice in the free space}{equation.3.2.9}{}}
\newlabel{h11@cref}{{[subsection][2][3,2]3.2.2}{[1][38][]38}}
\newlabel{h12}{{3.10}{38}{Band diagram of a honeycomb lattice in the free space}{equation.3.2.9}{}}
\newlabel{h12@cref}{{[subsection][2][3,2]3.2.2}{[1][38][]38}}
\newlabel{h21}{{3.11}{38}{Band diagram of a honeycomb lattice in the free space}{equation.3.2.9}{}}
\newlabel{h21@cref}{{[subsection][2][3,2]3.2.2}{[1][38][]38}}
\newlabel{h22}{{3.12}{38}{Band diagram of a honeycomb lattice in the free space}{equation.3.2.9}{}}
\newlabel{h22@cref}{{[subsection][2][3,2]3.2.2}{[1][38][]38}}
\newlabel{sum1}{{3.13}{38}{Band diagram of a honeycomb lattice in the free space}{equation.3.2.13}{}}
\newlabel{sum1@cref}{{[equation][13][3]3.13}{[1][38][]38}}
\citation{wallace71}
\citation{gross82}
\newlabel{g2d}{{3.14}{39}{Band diagram of a honeycomb lattice in the free space}{equation.3.2.14}{}}
\newlabel{g2d@cref}{{[subsection][2][3,2]3.2.2}{[1][38][]39}}
\newlabel{green3dft}{{3.16}{39}{Band diagram of a honeycomb lattice in the free space}{equation.3.2.15}{}}
\newlabel{green3dft@cref}{{[subsection][2][3,2]3.2.2}{[1][39][]39}}
\newlabel{sum2}{{3.17}{39}{Band diagram of a honeycomb lattice in the free space}{equation.3.2.17}{}}
\newlabel{sum2@cref}{{[equation][17][3]3.17}{[1][39][]39}}
\newlabel{g2dcut}{{3.18}{39}{Band diagram of a honeycomb lattice in the free space}{equation.3.2.18}{}}
\newlabel{g2dcut@cref}{{[subsection][2][3,2]3.2.2}{[1][39][]39}}
\newlabel{g3dcut}{{3.19}{39}{Band diagram of a honeycomb lattice in the free space}{equation.3.2.18}{}}
\newlabel{g3dcut@cref}{{[subsection][2][3,2]3.2.2}{[1][39][]39}}
\citation{perczel17}
\@writefile{lof}{\contentsline {figure}{\numberline {3.3}{\ignorespaces Width of the gap between the second and third bands in the band diagram of Fig.\ \ref {fig:bd} as a function of $\Delta _{\textbf  {B}}$ for three different values of $\Delta _{AB}$ and fixed $k_0a = 2\pi \times 0.05$. Symbols show $\Delta _{\text  {gap}}$ determined via numerical diagonalization of the Hamiltonian $\hat  {{\cal  H}}({\mathbf  k})$, gray dashed lines represent the analytical result (\ref {eqn:wgap}).\relax }}{40}{figure.caption.31}\protected@file@percent }
\newlabel{fig:gap}{{3.3}{40}{Width of the gap between the second and third bands in the band diagram of Fig.\ \ref {fig:bd} as a function of $\Delta _{\textbf {B}}$ for three different values of $\Delta _{AB}$ and fixed $k_0a = 2\pi \times 0.05$. Symbols show $\Delta _{\text {gap}}$ determined via numerical diagonalization of the Hamiltonian $\hat {{\cal H}}(\vec {k})$, gray dashed lines represent the analytical result (\ref {eqn:wgap}).\relax }{figure.caption.31}{}}
\newlabel{fig:gap@cref}{{[figure][3][3]3.3}{[1][39][]40}}
\@writefile{toc}{\contentsline {subsection}{\numberline {3.2.3}Width of the band gap}{40}{subsection.3.2.3}\protected@file@percent }
\newlabel{sec:width}{{3.2.3}{40}{Width of the band gap}{subsection.3.2.3}{}}
\newlabel{sec:width@cref}{{[subsection][3][3,2]3.2.3}{[1][39][]40}}
\newlabel{eqn:wgap}{{3.20}{40}{Width of the band gap}{equation.3.2.20}{}}
\newlabel{eqn:wgap@cref}{{[subsection][3][3,2]3.2.3}{[1][40][]40}}
\citation{fukui05}
\citation{fukui05}
\citation{fukui05}
\@writefile{lof}{\contentsline {figure}{\numberline {3.4}{\ignorespaces $(a)$ Maximum width of the gap $\max (\Delta _{\text  {gap}})$ between the second and third bands in the band diagram of Fig.\ \ref {fig:bd} as a function of $\Delta _{AB}$ for three different values of $k_0a$. Solid lines show numerical results obtained for $\Delta _{\textbf  {B}} = 30$. Dashed lines correspond to the formula in the second line of Eq.\ (\ref {eqn:wgap}). $(b)$ Log-log plot of $\max (\Delta _{\text  {gap}})$ as a function of $k_0a$ at $\Delta _{AB}=0$. Symbols show numerical results obtained for $\Delta _{\textbf  {B}}=12$. Gray dashed line is a power-law fit $\max (\Delta _{\text  {gap}}) = A(k_0a/2\pi )^{-3}$ for $k_0a/2\pi < 0.05$ with the best-fit value $A = 3.24 \times 10^{-3}$.\relax }}{41}{figure.caption.32}\protected@file@percent }
\newlabel{fig:saturation}{{3.4}{41}{$(a)$ Maximum width of the gap $\max (\Delta _{\text {gap}})$ between the second and third bands in the band diagram of Fig.\ \ref {fig:bd} as a function of $\Delta _{AB}$ for three different values of $k_0a$. Solid lines show numerical results obtained for $\Delta _{\textbf {B}} = 30$. Dashed lines correspond to the formula in the second line of Eq.\ (\ref {eqn:wgap}). $(b)$ Log-log plot of $\max (\Delta _{\text {gap}})$ as a function of $k_0a$ at $\Delta _{AB}=0$. Symbols show numerical results obtained for $\Delta _{\textbf {B}}=12$. Gray dashed line is a power-law fit $\max (\Delta _{\text {gap}}) = A(k_0a/2\pi )^{-3}$ for $k_0a/2\pi < 0.05$ with the best-fit value $A = 3.24 \times 10^{-3}$.\relax }{figure.caption.32}{}}
\newlabel{fig:saturation@cref}{{[figure][4][3]3.4}{[1][40][]41}}
\@writefile{toc}{\contentsline {subsection}{\numberline {3.2.4}Topological properties of the band structure}{41}{subsection.3.2.4}\protected@file@percent }
\newlabel{sec:topo}{{3.2.4}{41}{Topological properties of the band structure}{subsection.3.2.4}{}}
\newlabel{sec:topo@cref}{{[subsection][4][3,2]3.2.4}{[1][41][]41}}
\newlabel{chern}{{3.21}{41}{Topological properties of the band structure}{equation.3.2.21}{}}
\newlabel{chern@cref}{{[equation][21][3]3.21}{[1][41][]41}}
\newlabel{link}{{3.23}{41}{Topological properties of the band structure}{equation.3.2.23}{}}
\newlabel{link@cref}{{[subsection][4][3,2]3.2.4}{[1][41][]41}}
\newlabel{f12a}{{3.24}{41}{Topological properties of the band structure}{equation.3.2.24}{}}
\newlabel{f12a@cref}{{[subsection][4][3,2]3.2.4}{[1][41][]41}}
\newlabel{f12b}{{3.25}{41}{Topological properties of the band structure}{equation.3.2.24}{}}
\newlabel{f12b@cref}{{[subsection][4][3,2]3.2.4}{[1][41][]41}}
\citation{fukui05}
\@writefile{lof}{\contentsline {figure}{\numberline {3.5}{\ignorespaces $(a)$ Chern number of the spectral gap $C$ as a function of $\Delta _{\textbf  {B}}$ and $\Delta _{AB}$ for $k_0 a = 2\pi \times 0.05$: $C=0$ means that the gap is trivial, $C=\pm 1$ means that the gap is topological. The set of discrete values $\Delta _{\textbf  {B}}$, $\Delta _{AB}$ used to create this graph is chosen to avoid the exact equality $|\Delta _{\textbf  {B}}| = |\Delta _{AB}|$ for which there is no spectral gap between the second and third bands in \cref  {fig:bd}(a) and the two bands cannot be separated unambiguously. $(b)$ Discrete lattice of points ${\mathbf  k}_n$ used to compute the Chern number $C_{\alpha }$ of spectral bands. Summation in Eq.\ (\ref {chernlattice}) is performed over ${\mathbf  k}_n$ corresponding to blue dots whereas red dots belong to adjacent Brillouin zones and are not included in the sum.\relax }}{42}{figure.caption.33}\protected@file@percent }
\newlabel{fig:chern_map}{{3.5}{42}{$(a)$ Chern number of the spectral gap $C$ as a function of $\Delta _{\textbf {B}}$ and $\Delta _{AB}$ for $k_0 a = 2\pi \times 0.05$: $C=0$ means that the gap is trivial, $C=\pm 1$ means that the gap is topological. The set of discrete values $\Delta _{\textbf {B}}$, $\Delta _{AB}$ used to create this graph is chosen to avoid the exact equality $|\Delta _{\textbf {B}}| = |\Delta _{AB}|$ for which there is no spectral gap between the second and third bands in \cref {fig:bd}(a) and the two bands cannot be separated unambiguously. $(b)$ Discrete lattice of points $\vec {k}_n$ used to compute the Chern number $C_{\alpha }$ of spectral bands. Summation in Eq.\ (\ref {chernlattice}) is performed over $\vec {k}_n$ corresponding to blue dots whereas red dots belong to adjacent Brillouin zones and are not included in the sum.\relax }{figure.caption.33}{}}
\newlabel{fig:chern_map@cref}{{[figure][5][3]3.5}{[1][41][]42}}
\newlabel{chernlattice}{{3.26}{42}{Topological properties of the band structure}{equation.3.2.26}{}}
\newlabel{chernlattice@cref}{{[subsection][4][3,2]3.2.4}{[1][41][]42}}
\newlabel{wa}{{3.27}{42}{Topological properties of the band structure}{equation.3.2.27}{}}
\newlabel{wa@cref}{{[subsection][4][3,2]3.2.4}{[1][42][]42}}
\newlabel{wb}{{3.28}{42}{Topological properties of the band structure}{equation.3.2.27}{}}
\newlabel{wb@cref}{{[subsection][4][3,2]3.2.4}{[1][42][]42}}
\citation{khanikaev17}
\citation{ozawa19}
\citation{tang22}
\citation{ni23}
\citation{parap20}
\citation{reisner21}
\@writefile{lof}{\contentsline {figure}{\numberline {3.6}{\ignorespaces Topological (a) and trivial (b) band structures color-coded as a function of the weight of the quasimodes on the atomic sublattice $A$, $W_{\alpha }^A({\mathbf  k})$. Horizontal axes correspond to the path shown in purple in the 2D Brillouin zone in \cref  {fig:lattice}(b). $(c)$ and $(d)$ show the second band as a function of ${\mathbf  k}$ in the 2D Brillouin zone for band diagrams in panels (a) and (b), respectively.\relax }}{43}{figure.caption.34}\protected@file@percent }
\newlabel{fig:bd_sites_A}{{3.6}{43}{Topological (a) and trivial (b) band structures color-coded as a function of the weight of the quasimodes on the atomic sublattice $A$, $W_{\alpha }^A(\vec {k})$. Horizontal axes correspond to the path shown in purple in the 2D Brillouin zone in \cref {fig:lattice}(b). $(c)$ and $(d)$ show the second band as a function of $\vec {k}$ in the 2D Brillouin zone for band diagrams in panels (a) and (b), respectively.\relax }{figure.caption.34}{}}
\newlabel{fig:bd_sites_A@cref}{{[figure][6][3]3.6}{[1][42][]43}}
\@writefile{toc}{\contentsline {section}{\numberline {3.3}Honeycomb atomic lattice in a Fabry-P\'{e}rot cavity}{43}{section.3.3}\protected@file@percent }
\newlabel{sec:fp}{{3.3}{43}{Honeycomb atomic lattice in a Fabry-P\'{e}rot cavity}{section.3.3}{}}
\newlabel{sec:fp@cref}{{[section][3][3]3.3}{[1][43][]43}}
\@writefile{toc}{\contentsline {subsection}{\numberline {3.3.1}Green's function in a Fabry-P\'{e}rot cavity}{44}{subsection.3.3.1}\protected@file@percent }
\newlabel{sec:greenfp}{{3.3.1}{44}{Green's function in a Fabry-P\'{e}rot cavity}{subsection.3.3.1}{}}
\newlabel{sec:greenfp@cref}{{[subsection][1][3,3]3.3.1}{[1][44][]44}}
\newlabel{greenplates}{{3.29}{44}{Green's function in a Fabry-P\'{e}rot cavity}{equation.3.3.29}{}}
\newlabel{greenplates@cref}{{[subsection][1][3,3]3.3.1}{[1][44][]44}}
\newlabel{greenplatesft}{{3.30}{44}{Green's function in a Fabry-P\'{e}rot cavity}{equation.3.3.30}{}}
\newlabel{greenplatesft@cref}{{[subsection][1][3,3]3.3.1}{[1][44][]44}}
\newlabel{g2dcutplates}{{3.31}{44}{Green's function in a Fabry-P\'{e}rot cavity}{equation.3.3.31}{}}
\newlabel{g2dcutplates@cref}{{[subsection][1][3,3]3.3.1}{[1][44][]44}}
\citation{haroche89}
\citation{dowling93}
\citation{hulet85}
\citation{jhe87}
\citation{milonni73}
\citation{milonni73}
\citation{milonni73}
\citation{milonni73}
\citation{milonni73}
\newlabel{g3dcutplates}{{3.32}{45}{Green's function in a Fabry-P\'{e}rot cavity}{equation.3.3.32}{}}
\newlabel{g3dcutplates@cref}{{[subsection][1][3,3]3.3.1}{[1][44][]45}}
\@writefile{toc}{\contentsline {subsection}{\numberline {3.3.2}Atom in a Fabry-P\'{e}rot cavity}{45}{subsection.3.3.2}\protected@file@percent }
\newlabel{sec:1atom}{{3.3.2}{45}{Atom in a Fabry-P\'{e}rot cavity}{subsection.3.3.2}{}}
\newlabel{sec:1atom@cref}{{[subsection][2][3,3]3.3.2}{[1][45][]45}}
\newlabel{shift}{{3.33}{45}{Atom in a Fabry-P\'{e}rot cavity}{equation.3.3.33}{}}
\newlabel{shift@cref}{{[subsection][2][3,3]3.3.2}{[1][45][]45}}
\newlabel{decay}{{3.34}{45}{Atom in a Fabry-P\'{e}rot cavity}{equation.3.3.33}{}}
\newlabel{decay@cref}{{[subsection][2][3,3]3.3.2}{[1][45][]45}}
\newlabel{maxmin}{{3.35}{45}{Atom in a Fabry-P\'{e}rot cavity}{equation.3.3.35}{}}
\newlabel{maxmin@cref}{{[subsection][2][3,3]3.3.2}{[1][45][]45}}
\newlabel{2pin}{{3.36}{45}{Atom in a Fabry-P\'{e}rot cavity}{equation.3.3.36}{}}
\newlabel{2pin@cref}{{[subsection][2][3,3]3.3.2}{[1][45][]45}}
\@writefile{lof}{\contentsline {figure}{\numberline {3.7}{\ignorespaces Shift of the resonance frequency (a) and decay rate of the excited state (b) of a single atom in the middle of a Fabry-P\'{e}rot cavity for the dipole moment of the atomic transition parallel to the mirrors (red solid lines). Dashed lines show results of Ref.\ \cite  {milonni73}. Dotted lines in (b) show Eq.\ (\ref {maxmin}).\relax }}{46}{figure.caption.35}\protected@file@percent }
\newlabel{fig:1atom}{{3.7}{46}{Shift of the resonance frequency (a) and decay rate of the excited state (b) of a single atom in the middle of a Fabry-P\'{e}rot cavity for the dipole moment of the atomic transition parallel to the mirrors (red solid lines). Dashed lines show results of Ref.\ \cite {milonni73}. Dotted lines in (b) show Eq.\ (\ref {maxmin}).\relax }{figure.caption.35}{}}
\newlabel{fig:1atom@cref}{{[figure][7][3]3.7}{[1][45][]46}}
\@writefile{toc}{\contentsline {subsection}{\numberline {3.3.3}Band diagram of a honeycomb lattice in a Fabry-P\'{e}rot cavity}{46}{subsection.3.3.3}\protected@file@percent }
\@writefile{lof}{\contentsline {figure}{\numberline {3.8}{\ignorespaces Same as \cref  {fig:bd} but for a honeycomb atomic lattice placed in the middle of a Fabry-P\'{e}rot cavity of width $k_0d=2$. The band diagrams of \cref  {fig:bd} are also shown for comparison (gray points).\relax }}{47}{figure.caption.36}\protected@file@percent }
\newlabel{fig:bd_2}{{3.8}{47}{Same as \cref {fig:bd} but for a honeycomb atomic lattice placed in the middle of a Fabry-P\'{e}rot cavity of width $k_0d=2$. The band diagrams of \cref {fig:bd} are also shown for comparison (gray points).\relax }{figure.caption.36}{}}
\newlabel{fig:bd_2@cref}{{[figure][8][3]3.8}{[1][46][]47}}
\@writefile{toc}{\contentsline {subsection}{\numberline {3.3.4}Topological properties of the band structure}{47}{subsection.3.3.4}\protected@file@percent }
\newlabel{sec:topofp}{{3.3.4}{47}{Topological properties of the band structure}{subsection.3.3.4}{}}
\newlabel{sec:topofp@cref}{{[subsection][4][3,3]3.3.4}{[1][47][]47}}
\@writefile{lof}{\contentsline {figure}{\numberline {3.9}{\ignorespaces Same as \cref  {fig:bd_2} but for $k_0d=11$. The band diagrams of \cref  {fig:bd} are also shown for comparison (gray points in the background).\relax }}{48}{figure.caption.37}\protected@file@percent }
\newlabel{fig:bd_100}{{3.9}{48}{Same as \cref {fig:bd_2} but for $k_0d=11$. The band diagrams of \cref {fig:bd} are also shown for comparison (gray points in the background).\relax }{figure.caption.37}{}}
\newlabel{fig:bd_100@cref}{{[figure][9][3]3.9}{[1][46][]48}}
\@writefile{toc}{\contentsline {section}{\numberline {3.4}Conclusion}{48}{section.3.4}\protected@file@percent }
\newlabel{sec:concl}{{3.4}{48}{Conclusion}{section.3.4}{}}
\newlabel{sec:concl@cref}{{[section][4][3]3.4}{[1][48][]48}}
\citation{nas15}
\citation{anderson20}
\citation{olmos13}
\citation{khanikaev17}
\citation{ozawa19}
\citation{reisner21}
\citation{tang22}
\citation{ni23}
\citation{mili17}
\citation{reisner21}
\@writefile{lof}{\contentsline {figure}{\numberline {3.10}{\ignorespaces (a) Maximum decay rate for the band diagram of \cref  {fig:bd_2} as a function of cut-off length $h$ (red circles). Blue dashed line shows a parabolic fit to the numerical data. (b) Width of the gap between the second and third bands of the spectrum of a honeycomb atomic lattice in the middle of a Fabry-P\'{e}rot cavity ($k_0 d = 2$), as a function of lattice spacing $a$, for a system that is topologically trivial (upper line) or not (lower line). Color code shows Chern number of the gap: $C=0$ (blue) or $C = 1$ (red). Horizontal dashed line shows the gap width in the limit $a \to \infty $.\relax }}{49}{figure.caption.38}\protected@file@percent }
\newlabel{fig:gmax}{{3.10}{49}{(a) Maximum decay rate for the band diagram of \cref {fig:bd_2} as a function of cut-off length $h$ (red circles). Blue dashed line shows a parabolic fit to the numerical data. (b) Width of the gap between the second and third bands of the spectrum of a honeycomb atomic lattice in the middle of a Fabry-P\'{e}rot cavity ($k_0 d = 2$), as a function of lattice spacing $a$, for a system that is topologically trivial (upper line) or not (lower line). Color code shows Chern number of the gap: $C=0$ (blue) or $C = 1$ (red). Horizontal dashed line shows the gap width in the limit $a \to \infty $.\relax }{figure.caption.38}{}}
\newlabel{fig:gmax@cref}{{[figure][10][3]3.10}{[1][47][]49}}
\@writefile{toc}{\contentsline {chapter}{Appendices}{51}{chapter*.39}\protected@file@percent }
\@writefile{toc}{\contentsline {section}{\numberline {A}Fiber Bundles}{51}{section.3.1}\protected@file@percent }
\@writefile{toc}{\contentsline {section}{\numberline {B}Derivation of the formula for the width of the spectral gap}{51}{section.3.2}\protected@file@percent }
\newlabel{sec:deriv_gap}{{B}{51}{Derivation of the formula for the width of the spectral gap}{section.3.2}{}}
\newlabel{sec:deriv_gap@cref}{{[section][2][3]B}{[1][51][]51}}
\newlabel{appc0}{{3.38}{51}{Derivation of the formula for the width of the spectral gap}{equation.3.2.38}{}}
\newlabel{appc0@cref}{{[section][2][3]B}{[1][51][]51}}
\newlabel{appomega}{{3.39}{51}{Derivation of the formula for the width of the spectral gap}{equation.3.2.38}{}}
\newlabel{appomega@cref}{{[section][2][3]B}{[1][51][]51}}
\newlabel{lambda14}{{3.40}{51}{Derivation of the formula for the width of the spectral gap}{equation.3.2.40}{}}
\newlabel{lambda14@cref}{{[section][2][3]B}{[1][51][]51}}
\newlabel{lambda23}{{3.41}{51}{Derivation of the formula for the width of the spectral gap}{equation.3.2.41}{}}
\newlabel{lambda23@cref}{{[section][2][3]B}{[1][51][]51}}
\@writefile{lof}{\contentsline {figure}{\numberline {3.11}{\ignorespaces Symbolic representation of the various elements involved when discussing a vector bundle. Here, $\mathcal  {E}$ represents the total space, $\mathcal  {B}$ denotes the base space, typically a manifold. The map $p:\mathcal  {E}\rightarrow \mathcal  {B}$ simply generates the fibers $p^{-1}(b)$, which are vector spaces created from the vectors of $\mathcal  {B}$. The set of $U_{\alpha }$ are open sets covering $\mathcal  {B}$ and locally $p^{-1}(U_{\alpha })$ is homeomorphic to $U_{\alpha }\times \mathbb  {R}^n$, describing a local trivialization of the bundle. $s:\mathcal  {B}\rightarrow \mathcal  {E}$ represents a section of the fibers such that $s(x)=s_x \in p^{-1}(x)$ which transports every vector $x$ of $\mathcal  {B}$ to one vector in $p^{-1}(x)$.\relax }}{52}{figure.caption.40}\protected@file@percent }
\newlabel{fig:fiber_bundle}{{3.11}{52}{Symbolic representation of the various elements involved when discussing a vector bundle. Here, $\mathcal {E}$ represents the total space, $\mathcal {B}$ denotes the base space, typically a manifold. The map $p:\mathcal {E}\rightarrow \mathcal {B}$ simply generates the fibers $p^{-1}(b)$, which are vector spaces created from the vectors of $\mathcal {B}$. The set of $U_{\alpha }$ are open sets covering $\mathcal {B}$ and locally $p^{-1}(U_{\alpha })$ is homeomorphic to $U_{\alpha }\times \mathbb {R}^n$, describing a local trivialization of the bundle. $s:\mathcal {B}\rightarrow \mathcal {E}$ represents a section of the fibers such that $s(x)=s_x \in p^{-1}(x)$ which transports every vector $x$ of $\mathcal {B}$ to one vector in $p^{-1}(x)$.\relax }{figure.caption.40}{}}
\newlabel{fig:fiber_bundle@cref}{{[figure][11][3]3.11}{[1][51][]52}}
\newlabel{appc1c3}{{3.43}{52}{Derivation of the formula for the width of the spectral gap}{equation.3.2.43}{}}
\newlabel{appc1c3@cref}{{[section][2][3]B}{[1][52][]52}}
\newlabel{appc2c3}{{3.44}{52}{Derivation of the formula for the width of the spectral gap}{equation.3.2.43}{}}
\newlabel{appc2c3@cref}{{[section][2][3]B}{[1][52][]52}}
\newlabel{lambda0}{{3.45}{52}{Derivation of the formula for the width of the spectral gap}{equation.3.2.45}{}}
\newlabel{lambda0@cref}{{[section][2][3]B}{[1][52][]52}}
\bibstyle{apalike}
\bibdata{../chapter-1-thesis/tex/refs_chapter1,../chapter-2-thesis/tex/refs_chapter2,../chapter-3-thesis/tex/refs_chapter3}
\newlabel{defgap}{{3.46}{53}{Derivation of the formula for the width of the spectral gap}{equation.3.2.46}{}}
\newlabel{defgap@cref}{{[section][2][3]B}{[1][52][]53}}
\newlabel{d1}{{3.47}{53}{Derivation of the formula for the width of the spectral gap}{equation.3.2.47}{}}
\newlabel{d1@cref}{{[section][2][3]B}{[1][53][]53}}
\newlabel{d2}{{3.48}{53}{Derivation of the formula for the width of the spectral gap}{equation.3.2.47}{}}
\newlabel{d2@cref}{{[section][2][3]B}{[1][53][]53}}
\newlabel{d3}{{3.49}{53}{Derivation of the formula for the width of the spectral gap}{equation.3.2.47}{}}
\newlabel{d3@cref}{{[section][2][3]B}{[1][53][]53}}
\newlabel{threshold}{{3.49}{53}{Derivation of the formula for the width of the spectral gap}{equation.3.2.47}{}}
\newlabel{threshold@cref}{{[section][2][3]B}{[1][53][]53}}
\newlabel{sdef}{{3.50}{53}{Derivation of the formula for the width of the spectral gap}{equation.3.2.50}{}}
\newlabel{sdef@cref}{{[section][2][3]B}{[1][53][]53}}
\newlabel{appgap}{{3.51}{53}{Derivation of the formula for the width of the spectral gap}{equation.3.2.51}{}}
\newlabel{appgap@cref}{{[section][2][3]B}{[1][53][]53}}
\bibcite{agarwal95}{Agarwal, 1995}
\bibcite{agarwal13}{Agarwal, 2013}
\bibcite{Aharonov1959Aug}{Aharonov and Bohm, 1959}
\bibcite{anderson20}{Anderson et~al., 2020}
\bibcite{antezza09pra}{Antezza and Castin, 2009}
\bibcite{antezza13}{Antezza and Castin, 2013}
\bibcite{Bandres2018Mar}{Bandres et~al., 2018}
\bibcite{Barbuto}{Barbuto et~al., }
\bibcite{Bernevig2006Dec}{Bernevig et~al., 2006}
\bibcite{Berry1980Jul}{Berry et~al., 1980}
\bibcite{bettles17}{Bettles et~al., 2017}
\bibcite{Bongiovanni2021Oct}{Bongiovanni et~al., 2021}
\bibcite{Chambers1960Jul}{Chambers, 1960}
\bibcite{Chang2013Apr}{Chang et~al., 2013}
\bibcite{Choi2023Mar}{Choi, 2023}
\bibcite{cohen98}{Cohen-Tannoudji et~al., 1998}
\bibcite{Dalibard2018}{Dalibard, 2018}
\bibcite{Delplace2020}{Delplace and Venaille, 2020}
\bibcite{dowling93}{Dowling, 1993}
\bibcite{Faure2023}{Faure, 2023}
\bibcite{Fleury2014Jan}{Fleury et~al., 2014}
\bibcite{Fukui2005Jun}{Fukui et~al., 2005a}
\bibcite{fukui05}{Fukui et~al., 2005b}
\bibcite{gross82}{Gross and Haroche, 1982}
\bibcite{Groth2009Nov}{Groth et~al., 2009}
\bibcite{Haldane1988Oct}{Haldane, 1988}
\bibcite{Haldane2008Jan}{Haldane and Raghu, 2008}
\bibcite{Harari2018Mar}{Harari et~al., 2018}
\bibcite{haroche89}{Haroche and Kleppner, 1989}
\bibcite{Huang2018Sep}{Huang and Liu, 2018}
\bibcite{hulet85}{Hulet et~al., 1985}
\bibcite{JalaliMehrabad2023Oct}{Jalali~Mehrabad et~al., 2023}
\bibcite{jhe87}{Jhe et~al., 1987}
\bibcite{joan08}{Joannopoulos et~al., 2008}
\bibcite{Kane2005Sep}{Kane and Mele, 2005}
\bibcite{khanikaev17}{Khanikaev and Shvets, 2017}
\bibcite{Kittel2004Nov}{Kittel, 2004}
\bibcite{Klitzing1980Aug}{Klitzing et~al., 1980}
\bibcite{Li2009Apr}{Li et~al., 2009}
\bibcite{Liu2017Nov}{Liu et~al., 2017}
\bibcite{Liu2020Sep}{Liu et~al., 2020}
\bibcite{Loring2019Jul}{Loring, 2019}
\bibcite{Loring2011Jan}{Loring and Hastings, 2011}
\bibcite{Matsuno1966}{Matsuno, 1966}
\bibcite{Maxworthy1983Apr}{Maxworthy, 1983}
\bibcite{Meier2018Nov}{Meier et~al., 2018}
\bibcite{mili17}{Mili\'{c}{}evi\'{c}{} et~al., 2017}
\bibcite{milonni73}{Milonni and Knight, 1973}
\bibcite{nas15}{Nascimbene et~al., 2015}
\bibcite{Nash2015Nov}{Nash et~al., 2015}
\bibcite{ni23}{Ni et~al., 2023}
\bibcite{Novoselov2004Oct}{Novoselov et~al., 2004}
\bibcite{Oh2013Apr}{Oh, 2013}
\bibcite{olmos13}{Olmos et~al., 2013}
\bibcite{Ozawa2019Mar}{Ozawa et~al., 2019a}
\bibcite{ozawa19}{Ozawa et~al., 2019b}
\bibcite{parap20}{Parappurath et~al., 2020}
\bibcite{perczel17pra}{Perczel et~al., 2017a}
\bibcite{perczel17}{Perczel et~al., 2017b}
\bibcite{polini13}{Polini et~al., 2013}
\bibcite{Raghu2008Sep}{Raghu and Haldane, 2008}
\bibcite{reisner21}{Reisner et~al., 2021}
\bibcite{Roberts2022Dec}{Roberts et~al., 2022}
\bibcite{rohl10}{Röhlsberger et~al., 2010}
\bibcite{scully09}{Scully, 2009}
\bibcite{Shalaev2019Jan}{Shalaev et~al., 2019}
\bibcite{Sheng2006Jul}{Sheng et~al., 2006}
\bibcite{skip20epj}{Skipetrov, 2020a}
\bibcite{skip20prb}{Skipetrov, 2020b}
\bibcite{skip15}{Skipetrov and Sokolov, 2015}
\bibcite{nous}{Skipetrov and Wulles, 2022}
\bibcite{skip23}{Skipetrov and Wulles, 2023}
\bibcite{Stutzer2018Aug}{St{\"{u}}tzer et~al., 2018}
\bibcite{Suddards2012Aug}{Suddards et~al., 2012}
\bibcite{Susstrunk2015Jul}{S{\"{u}}sstrunk and Huber, 2015}
\bibcite{tang22}{Tang et~al., 2022}
\bibcite{Taylor1922Jan}{Taylor, 1922}
\bibcite{Toniolo2022Dec}{Toniolo, 2022}
\bibcite{Tonomura2003Jul}{Tonomura, 2003}
\bibcite{VanTiggelen1999}{Van~Tiggelen, 1999}
\bibcite{wallace71}{Wallace, 1947a}
\bibcite{Wallace1947May}{Wallace, 1947b}
\bibcite{Wang2009Oct}{Wang et~al., 2009}
\bibcite{Wang2008Jan}{Wang et~al., 2008}
\bibcite{Yves2017Nov}{Yves et~al., 2017}
\bibcite{Zangeneh-Nejad2020}{Zangeneh-Nejad et~al., 2020}
\bibcite{Zhang2018Dec}{Zhang et~al., 2018}
\gdef \@abspage@last{59}
