This is BibTeX, Version 0.99d (TeX Live 2023/Arch Linux)
Capacity: max_strings=200000, hash_size=200000, hash_prime=170003
The top-level auxiliary file: manuscript.aux
The style file: apalike.bst
Database file #1: ../chapter-1-thesis/tex/refs_chapter1.bib
Database file #2: ../chapter-2-thesis/tex/refs_chapter2.bib
Repeated entry---line 39 of file ../chapter-2-thesis/tex/refs_chapter2.bib
 : @article{Haldane1988Oct
 :                        ,
I'm skipping whatever remains of this entry
Repeated entry---line 155 of file ../chapter-2-thesis/tex/refs_chapter2.bib
 : @article{Yves2017Nov
 :                     ,
I'm skipping whatever remains of this entry
Database file #3: ../chapter-3-thesis/tex/refs_chapter3.bib
Warning--empty year in Barbuto
You've used 87 entries,
            1935 wiz_defined-function locations,
            1021 strings with 19142 characters,
and the built_in function-call counts, 38016 in all, are:
= -- 3592
> -- 1936
< -- 42
+ -- 685
- -- 678
* -- 3518
:= -- 6734
add.period$ -- 264
call.type$ -- 87
change.case$ -- 770
chr.to.int$ -- 82
cite$ -- 88
duplicate$ -- 1245
empty$ -- 2478
format.name$ -- 799
if$ -- 7252
int.to.chr$ -- 6
int.to.str$ -- 0
missing$ -- 89
newline$ -- 438
num.names$ -- 263
pop$ -- 602
preamble$ -- 1
purify$ -- 774
quote$ -- 0
skip$ -- 923
stack$ -- 0
substring$ -- 2628
swap$ -- 107
text.length$ -- 3
text.prefix$ -- 0
top$ -- 0
type$ -- 512
warning$ -- 1
while$ -- 286
width$ -- 0
write$ -- 1133
(There were 2 error messages)
