\relax 
\citation{Perczel2017Jul}
\citation{mortessagne}
\citation{Wu2015Jun}
\citation{Prodan2009Sep}
\citation{skipetrov2023photonic}
\citation{skipetrov2022topological}
\citation{*}
\bibstyle{plain}
\bibdata{refs}
\bibcite{skipetrov2023photonic}{1}
\bibcite{Fukui2005Jun}{2}
\bibcite{maximo}{3}
\bibcite{Perczel2017Jul}{4}
\bibcite{Prodan2009Sep}{5}
\bibcite{mortessagne}{6}
\bibcite{skipetrov2022topological}{7}
\bibcite{Toniolo2017Aug}{8}
\bibcite{Wu2015Jun}{9}
\gdef \@abspage@last{2}
