This is BibTeX, Version 0.99d (TeX Live 2022/Arch Linux)
Capacity: max_strings=200000, hash_size=200000, hash_prime=170003
The top-level auxiliary file: abstract.aux
The style file: plain.bst
Database file #1: refs.bib
You've used 9 entries,
            2118 wiz_defined-function locations,
            570 strings with 5575 characters,
and the built_in function-call counts, 3083 in all, are:
= -- 293
> -- 160
< -- 0
+ -- 63
- -- 54
* -- 262
:= -- 537
add.period$ -- 27
call.type$ -- 9
change.case$ -- 54
chr.to.int$ -- 0
cite$ -- 9
duplicate$ -- 98
empty$ -- 227
format.name$ -- 54
if$ -- 611
int.to.chr$ -- 0
int.to.str$ -- 9
missing$ -- 9
newline$ -- 48
num.names$ -- 18
pop$ -- 38
preamble$ -- 1
purify$ -- 45
quote$ -- 0
skip$ -- 66
stack$ -- 0
substring$ -- 207
swap$ -- 9
text.length$ -- 0
text.prefix$ -- 0
top$ -- 0
type$ -- 36
warning$ -- 0
while$ -- 29
width$ -- 10
write$ -- 100
