<?xml version="1.0" encoding="UTF-8" standalone="no"?>
<svg
   width="933.76666pt"
   height="774.11932pt"
   viewBox="0 0 933.76671 774.11932"
   version="1.2"
   id="svg227"
   sodipodi:docname="graphene_schema.svg"
   inkscape:version="1.3.2 (091e20ef0f, 2023-11-25, custom)"
   xml:space="preserve"
   inkscape:export-filename="graphene_schema.png"
   inkscape:export-xdpi="96"
   inkscape:export-ydpi="96"
   xmlns:inkscape="http://www.inkscape.org/namespaces/inkscape"
   xmlns:sodipodi="http://sodipodi.sourceforge.net/DTD/sodipodi-0.dtd"
   xmlns="http://www.w3.org/2000/svg"
   xmlns:svg="http://www.w3.org/2000/svg"
   xmlns:rdf="http://www.w3.org/1999/02/22-rdf-syntax-ns#"
   xmlns:cc="http://creativecommons.org/ns#"
   xmlns:dc="http://purl.org/dc/elements/1.1/"><metadata
     id="metadata231"><rdf:RDF><cc:Work
         rdf:about=""><dc:format>image/svg+xml</dc:format><dc:type
           rdf:resource="http://purl.org/dc/dcmitype/StillImage" /></cc:Work></rdf:RDF></metadata><sodipodi:namedview
     pagecolor="#ffffff"
     bordercolor="#666666"
     borderopacity="1"
     objecttolerance="10"
     gridtolerance="10"
     guidetolerance="10"
     inkscape:pageopacity="0"
     inkscape:pageshadow="2"
     inkscape:window-width="1920"
     inkscape:window-height="1025"
     id="namedview229"
     showgrid="false"
     inkscape:zoom="0.41693546"
     inkscape:cx="625.99617"
     inkscape:cy="467.69829"
     inkscape:window-x="0"
     inkscape:window-y="31"
     inkscape:window-maximized="1"
     inkscape:current-layer="svg227"
     inkscape:showpageshadow="0"
     inkscape:pagecheckerboard="0"
     inkscape:deskcolor="#d1d1d1"
     inkscape:document-units="pt" /><defs
     id="defs50"><clipPath
       id="clip1"><path
         d="m 502,213 h 39.41016 V 331 H 502 Z m 0,0"
         id="path2" /></clipPath><clipPath
       id="clip2"><path
         d="M 375,0 H 541.41016 V 111 H 375 Z m 0,0"
         id="path5" /></clipPath><clipPath
       id="clip3"><path
         d="M 248,433 H 420 V 544.40234 H 248 Z m 0,0"
         id="path8" /></clipPath><clipPath
       id="clip4"><path
         d="M 0,433 H 165 V 544.40234 H 0 Z m 0,0"
         id="path11" /></clipPath><clipPath
       id="clip5"><path
         d="M 121,433 H 293 V 544.40234 H 121 Z m 0,0"
         id="path14" /></clipPath><clipPath
       id="clip6"><path
         d="M 375,433 H 541.41016 V 544.40234 H 375 Z m 0,0"
         id="path17" /></clipPath><clipPath
       id="clip7"><path
         d="m 502,433 h 39.41016 V 544.40234 H 502 Z m 0,0"
         id="path20" /></clipPath><clipPath
       id="clip8"><path
         d="M 0,433 H 38 V 544.40234 H 0 Z m 0,0"
         id="path23" /></clipPath><clipPath
       id="clip9"><path
         d="m 141,527 h 5 v 17.40234 h -5 z m 0,0"
         id="path26" /></clipPath><clipPath
       id="clip10"><path
         d="m 395,527 h 5 v 17.40234 h -5 z m 0,0"
         id="path29" /></clipPath><clipPath
       id="clip11"><path
         d="m 127,511 h 33 v 33.40234 h -33 z m 0,0"
         id="path32" /></clipPath><clipPath
       id="clip12"><path
         d="m 508,440 h 33.41016 v 34 H 508 Z m 0,0"
         id="path35" /></clipPath><clipPath
       id="clip13"><path
         d="m 381,511 h 34 v 33.40234 h -34 z m 0,0"
         id="path38" /></clipPath><clipPath
       id="clip14"><path
         d="m 502,0 h 39.41016 V 111 H 502 Z m 0,0"
         id="path41" /></clipPath><clipPath
       id="clip15"><path
         d="m 508,0 h 33.41016 V 33 H 508 Z m 0,0"
         id="path44" /></clipPath><clipPath
       id="clip16"><path
         d="m 508,291 h 33.41016 v 34 H 508 Z m 0,0"
         id="path47" /></clipPath><clipPath
       id="clip1-3"><path
         d="m 502,213 h 39.41016 V 331 H 502 Z m 0,0"
         id="path2-6" /></clipPath><clipPath
       id="clip2-7"><path
         d="M 375,0 H 541.41016 V 111 H 375 Z m 0,0"
         id="path5-5" /></clipPath><clipPath
       id="clip3-3"><path
         d="M 248,433 H 420 V 544.40234 H 248 Z m 0,0"
         id="path8-5" /></clipPath><clipPath
       id="clip4-6"><path
         d="M 0,433 H 165 V 544.40234 H 0 Z m 0,0"
         id="path11-2" /></clipPath><clipPath
       id="clip5-9"><path
         d="M 121,433 H 293 V 544.40234 H 121 Z m 0,0"
         id="path14-1" /></clipPath><clipPath
       id="clip6-2"><path
         d="M 375,433 H 541.41016 V 544.40234 H 375 Z m 0,0"
         id="path17-7" /></clipPath><clipPath
       id="clip7-0"><path
         d="m 502,433 h 39.41016 V 544.40234 H 502 Z m 0,0"
         id="path20-9" /></clipPath><clipPath
       id="clip8-3"><path
         d="M 0,433 H 38 V 544.40234 H 0 Z m 0,0"
         id="path23-6" /></clipPath><clipPath
       id="clip14-0"><path
         d="m 502,0 h 39.41016 V 111 H 502 Z m 0,0"
         id="path41-6" /></clipPath><clipPath
       id="clip9-2"><path
         d="m 141,527 h 5 v 17.40234 h -5 z m 0,0"
         id="path26-6" /></clipPath><clipPath
       id="clip10-1"><path
         d="m 395,527 h 5 v 17.40234 h -5 z m 0,0"
         id="path29-8" /></clipPath><clipPath
       id="clip11-7"><path
         d="m 127,511 h 33 v 33.40234 h -33 z m 0,0"
         id="path32-9" /></clipPath><clipPath
       id="clip13-2"><path
         d="m 381,511 h 34 v 33.40234 h -34 z m 0,0"
         id="path38-0" /></clipPath><clipPath
       id="clip16-2"><path
         d="m 508,291 h 33.41016 v 34 H 508 Z m 0,0"
         id="path47-3" /></clipPath><clipPath
       id="clip12-7"><path
         d="m 508,440 h 33.41016 v 34 H 508 Z m 0,0"
         id="path35-5" /></clipPath><clipPath
       id="clip15-9"><path
         d="m 508,0 h 33.41016 V 33 H 508 Z m 0,0"
         id="path44-2" /></clipPath><clipPath
       id="clip5-1"><path
         d="M 121,433 H 293 V 544.40234 H 121 Z m 0,0"
         id="path14-15" /></clipPath><clipPath
       id="clip5-1-3"><path
         d="M 121,433 H 293 V 544.40234 H 121 Z m 0,0"
         id="path14-15-6" /></clipPath><clipPath
       id="clip3-3-6"><path
         d="M 248,433 H 420 V 544.40234 H 248 Z m 0,0"
         id="path8-5-2" /></clipPath><clipPath
       id="clip5-9-8"><path
         d="M 121,433 H 293 V 544.40234 H 121 Z m 0,0"
         id="path14-1-4" /></clipPath><clipPath
       id="clip6-2-7"><path
         d="M 375,433 H 541.41016 V 544.40234 H 375 Z m 0,0"
         id="path17-7-2" /></clipPath><clipPath
       id="clip9-2-4"><path
         d="m 141,527 h 5 v 17.40234 h -5 z m 0,0"
         id="path26-6-0" /></clipPath><clipPath
       id="clip10-1-6"><path
         d="m 395,527 h 5 v 17.40234 h -5 z m 0,0"
         id="path29-8-2" /></clipPath><clipPath
       id="clip11-7-9"><path
         d="m 127,511 h 33 v 33.40234 h -33 z m 0,0"
         id="path32-9-9" /></clipPath><clipPath
       id="clip13-2-0"><path
         d="m 381,511 h 34 v 33.40234 h -34 z m 0,0"
         id="path38-0-8" /></clipPath><clipPath
       id="clip3-1"><path
         d="M 248,433 H 420 V 544.40234 H 248 Z m 0,0"
         id="path8-3" /></clipPath><clipPath
       id="clip4-1"><path
         d="M 0,433 H 165 V 544.40234 H 0 Z m 0,0"
         id="path11-1" /></clipPath><clipPath
       id="clip5-0"><path
         d="M 121,433 H 293 V 544.40234 H 121 Z m 0,0"
         id="path14-3" /></clipPath><clipPath
       id="clip6-4"><path
         d="M 375,433 H 541.41016 V 544.40234 H 375 Z m 0,0"
         id="path17-0" /></clipPath><clipPath
       id="clip7-3"><path
         d="m 502,433 h 39.41016 V 544.40234 H 502 Z m 0,0"
         id="path20-91" /></clipPath><clipPath
       id="clip8-9"><path
         d="M 0,433 H 38 V 544.40234 H 0 Z m 0,0"
         id="path23-69" /></clipPath><clipPath
       id="clip9-3"><path
         d="m 141,527 h 5 v 17.40234 h -5 z m 0,0"
         id="path26-3" /></clipPath><clipPath
       id="clip10-8"><path
         d="m 395,527 h 5 v 17.40234 h -5 z m 0,0"
         id="path29-0" /></clipPath><clipPath
       id="clip11-5"><path
         d="m 127,511 h 33 v 33.40234 h -33 z m 0,0"
         id="path32-6" /></clipPath><clipPath
       id="clip13-6"><path
         d="m 381,511 h 34 v 33.40234 h -34 z m 0,0"
         id="path38-4" /></clipPath><clipPath
       id="clip12-0"><path
         d="m 508,440 h 33.41016 v 34 H 508 Z m 0,0"
         id="path35-0" /></clipPath></defs><path
     style="fill:none;stroke:#b8b8b8;stroke-width:3.86929;stroke-linecap:butt;stroke-linejoin:miter;stroke-miterlimit:4;stroke-dasharray:3.86929, 3.86929;stroke-opacity:1"
     d="M 407.76155,537.91312 280.60921,464.49906"
     id="path72-6" /><g
     clip-path="url(#clip5-1-3)"
     clip-rule="nonzero"
     id="g98-7-3"
     transform="translate(5.91581,10.77218)"><path
       style="fill:none;stroke:#b8b8b8;stroke-width:3.86929;stroke-linecap:butt;stroke-linejoin:miter;stroke-miterlimit:4;stroke-dasharray:3.86929, 3.86929;stroke-opacity:1"
       d="M 270.25,455.62109 143.09766,529.03516"
       id="path96-7-9" /></g><g
     clip-path="url(#clip2-7)"
     clip-rule="nonzero"
     id="g58-7"
     transform="translate(-120.2867,229.71697)"><path
       style="fill:none;stroke:#b8b8b8;stroke-width:3.86929;stroke-linecap:butt;stroke-linejoin:miter;stroke-miterlimit:4;stroke-dasharray:3.86929, 3.86929;stroke-opacity:1"
       d="M 397.40625,88.558594 524.55859,15.148438"
       id="path56-3" /></g><g
     clip-path="url(#clip3-3)"
     clip-rule="nonzero"
     id="g62-6"
     transform="translate(-120.2867,229.71697)"><path
       style="fill:none;stroke:#b8b8b8;stroke-width:3.86929;stroke-linecap:butt;stroke-linejoin:miter;stroke-miterlimit:4;stroke-dasharray:3.86929, 3.86929;stroke-opacity:1"
       d="M 397.40625,529.03516 270.25,455.62109"
       id="path60-1" /></g><path
     style="fill:none;stroke:#b8b8b8;stroke-width:3.86929;stroke-linecap:butt;stroke-linejoin:miter;stroke-miterlimit:4;stroke-dasharray:3.86929, 3.86929;stroke-opacity:1"
     d="M 149.9633,538.51385 V 685.33807"
     id="path64-2" /><path
     style="fill:none;stroke:#b8b8b8;stroke-width:3.86929;stroke-linecap:butt;stroke-linejoin:miter;stroke-miterlimit:4;stroke-dasharray:3.86929, 3.86929;stroke-opacity:1"
     d="M 277.12814,316.40665 V 463.23088"
     id="path64-2-7" /><path
     style="fill:none;stroke:#b8b8b8;stroke-width:3.86929;stroke-linecap:butt;stroke-linejoin:miter;stroke-miterlimit:4;stroke-dasharray:3.86929, 3.86929;stroke-opacity:1"
     d="M 23.07433,319.03238 V 465.85661"
     id="path64-2-7-8" /><path
     style="fill:none;stroke:#b8b8b8;stroke-width:3.86929;stroke-linecap:butt;stroke-linejoin:miter;stroke-miterlimit:4;stroke-dasharray:3.86929, 3.86929;stroke-opacity:1"
     d="m 149.9633,244.86541 127.15625,73.41015"
     id="path68-3" /><path
     style="fill:none;stroke:#b8b8b8;stroke-width:4.15276;stroke-linecap:butt;stroke-linejoin:miter;stroke-miterlimit:4;stroke-dasharray:4.15276, 4.15276;stroke-opacity:1"
     d="M 22.81096,318.27556 149.9633,244.86541"
     id="path70-1" /><path
     style="fill:none;stroke:#b8b8b8;stroke-width:3.86929;stroke-linecap:butt;stroke-linejoin:miter;stroke-miterlimit:4;stroke-dasharray:3.86929, 3.86929;stroke-opacity:1"
     d="M 149.9633,538.51385 22.81096,465.09979"
     id="path72-9" /><path
     style="fill:#0000ff;fill-opacity:1;fill-rule:nonzero;stroke:none"
     d="m 286.98283,466.25604 c 0,5.14453 -4.16797,9.31641 -9.31641,9.31641 -5.14453,0 -9.3125,-4.17188 -9.3125,-9.31641 0,-5.14453 4.16797,-9.3164 9.3125,-9.3164 5.14844,0 9.31641,4.17187 9.31641,9.3164 z m 0,0"
     id="path76-4" /><g
     clip-path="url(#clip5-9)"
     clip-rule="nonzero"
     id="g98-5"
     transform="translate(-120.2867,229.71697)"><path
       style="fill:none;stroke:#b8b8b8;stroke-width:3.86929;stroke-linecap:butt;stroke-linejoin:miter;stroke-miterlimit:4;stroke-dasharray:3.86929, 3.86929;stroke-opacity:1"
       d="M 270.25,455.62109 143.09766,529.03516"
       id="path96-0" /></g><g
     clip-path="url(#clip6-2)"
     clip-rule="nonzero"
     id="g112-1"
     transform="translate(-120.2867,229.71697)"><path
       style="fill:none;stroke:#b8b8b8;stroke-width:3.86929;stroke-linecap:butt;stroke-linejoin:miter;stroke-miterlimit:4;stroke-dasharray:3.86929, 3.86929;stroke-opacity:1"
       d="M 524.55859,455.62109 397.40625,529.03516"
       id="path110-0" /></g><path
     style="fill:none;stroke:#b8b8b8;stroke-width:3.86929;stroke-linecap:butt;stroke-linejoin:miter;stroke-miterlimit:4;stroke-dasharray:3.86929, 3.86929;stroke-opacity:1"
     d="M 149.9633,98.0412 V 244.86541"
     id="path152-1" /><path
     style="fill:#c1282e;fill-opacity:1;fill-rule:nonzero;stroke:none"
     d="m 286.98283,319.41619 c 0,5.14453 -4.16797,9.31641 -9.31641,9.31641 -5.14453,0 -9.3125,-4.17188 -9.3125,-9.31641 0,-5.14453 4.16797,-9.31641 9.3125,-9.31641 5.14844,0 9.31641,4.17188 9.31641,9.31641 z m 0,0"
     id="path74-6" /><path
     style="fill:#c1282e;fill-opacity:1;fill-rule:nonzero;stroke:none"
     d="m 166.62346,537.58026 c 0,9.00391 -7.29688,16.30469 -16.30079,16.30469 -9.0039,0 -16.30078,-7.30078 -16.30078,-16.30469 0,-9 7.29688,-16.30078 16.30078,-16.30078 9.00391,0 16.30079,7.30078 16.30079,16.30078 z m 0,0"
     id="path78-5" /><path
     style="fill:#c1282e;fill-opacity:1;fill-rule:nonzero;stroke:none"
     d="m 32.67424,319.41619 c 0,5.14453 -4.16797,9.31641 -9.3125,9.31641 -5.14453,0 -9.31641,-4.17188 -9.31641,-9.31641 0,-5.14453 4.17188,-9.31641 9.31641,-9.31641 5.14453,0 9.3125,4.17188 9.3125,9.31641 z m 0,0"
     id="path84-6" /><path
     style="fill:#c1282e;fill-opacity:1;fill-rule:nonzero;stroke:none"
     d="m 32.48674,757.81854 c 0,5.14453 -4.17188,9.31641 -9.31641,9.31641 -5.14453,0 -9.31641,-4.17188 -9.31641,-9.31641 0,-5.14453 4.17188,-9.3164 9.31641,-9.3164 5.14453,0 9.31641,4.17187 9.31641,9.3164 z m 0,0"
     id="path102-3" /><path
     style="fill:#c1282e;fill-opacity:1;fill-rule:nonzero;stroke:none"
     d="m 286.79142,757.81854 c 0,5.14453 -4.16796,9.31641 -9.3125,9.31641 -5.14843,0 -9.3164,-4.17188 -9.3164,-9.31641 0,-5.14453 4.16797,-9.3164 9.3164,-9.3164 5.14454,0 9.3125,4.17187 9.3125,9.3164 z m 0,0"
     id="path116-7" /><g
     clip-path="url(#clip9-2)"
     clip-rule="nonzero"
     id="g128-4"
     style="fill:#c1282e;fill-opacity:1"
     transform="translate(-120.2867,229.71697)"><path
       style="fill:#c1282e;fill-opacity:1;stroke:#b8b8b8;stroke-width:3.86929;stroke-linecap:butt;stroke-linejoin:miter;stroke-miterlimit:4;stroke-dasharray:3.86929, 3.86929;stroke-opacity:1"
       d="M 143.09766,529.03516 V 675.85937"
       id="path126-5" /></g><path
     style="fill:#c1282e;fill-opacity:1;fill-rule:nonzero;stroke:none"
     d="m 32.48674,757.81854 c 0,5.14453 -4.17188,9.31641 -9.31641,9.31641 -5.14453,0 -9.31641,-4.17188 -9.31641,-9.31641 0,-5.14453 4.17188,-9.3164 9.31641,-9.3164 5.14453,0 9.31641,4.17187 9.31641,9.3164 z m 0,0"
     id="path132-2" /><g
     clip-path="url(#clip10-1)"
     clip-rule="nonzero"
     id="g136-5"
     style="fill:#c1282e;fill-opacity:1"
     transform="translate(-120.2867,229.71697)"><path
       style="fill:#c1282e;fill-opacity:1;stroke:#b8b8b8;stroke-width:3.86929;stroke-linecap:butt;stroke-linejoin:miter;stroke-miterlimit:4;stroke-dasharray:3.86929, 3.86929;stroke-opacity:1"
       d="M 397.40625,529.03516 V 675.85937"
       id="path134-4" /></g><path
     style="fill:#c1282e;fill-opacity:1;fill-rule:nonzero;stroke:none"
     d="m 286.79142,757.81854 c 0,5.14453 -4.16796,9.31641 -9.3125,9.31641 -5.14843,0 -9.3164,-4.17188 -9.3164,-9.31641 0,-5.14453 4.16797,-9.3164 9.3164,-9.3164 5.14454,0 9.3125,4.17187 9.3125,9.3164 z m 0,0"
     id="path138-7" /><g
     clip-path="url(#clip11-7)"
     clip-rule="nonzero"
     id="g144-4"
     style="fill:#c1282e;fill-opacity:1"
     transform="translate(-120.2867,229.71697)"><path
       style="fill:#c1282e;fill-opacity:1;fill-rule:nonzero;stroke:none"
       d="m 159.75781,528.10156 c 0,9.00391 -7.29687,16.30078 -16.30078,16.30078 -9.00391,0 -16.30469,-7.29687 -16.30469,-16.30078 0,-9.0039 7.30078,-16.30078 16.30469,-16.30078 9.00391,0 16.30078,7.29688 16.30078,16.30078 z m 0,0"
       id="path142-4" /></g><path
     style="fill:#c1282e;fill-opacity:1;fill-rule:nonzero;stroke:none"
     d="m 39.47111,317.34588 c 0,9.0039 -7.29687,16.30079 -16.30078,16.30079 -9.00391,0 -16.30469,-7.29689 -16.30469,-16.30079 0,-9.00391 7.30078,-16.30469 16.30469,-16.30469 9.00391,0 16.30078,7.30078 16.30078,16.30469 z m 0,0"
     id="path156-3" /><path
     style="fill:#c1282e;fill-opacity:1;fill-rule:nonzero;stroke:none"
     d="m 286.79142,317.34588 c 0,5.14453 -4.16796,9.3125 -9.3125,9.3125 -5.14843,0 -9.3164,-4.16797 -9.3164,-9.3125 0,-5.14453 4.16797,-9.31641 9.3164,-9.31641 5.14454,0 9.3125,4.17188 9.3125,9.31641 z m 0,0"
     id="path164-0" /><g
     clip-path="url(#clip13-2)"
     clip-rule="nonzero"
     id="g172-7"
     style="fill:#c1282e;fill-opacity:1"
     transform="translate(-120.2867,229.71697)"><path
       style="fill:#c1282e;fill-opacity:1;fill-rule:nonzero;stroke:none"
       d="m 414.06641,528.10156 c 0,9.00391 -7.30079,16.30078 -16.30079,16.30078 -9.0039,0 -16.30468,-7.29687 -16.30468,-16.30078 0,-9.0039 7.30078,-16.30078 16.30468,-16.30078 9,0 16.30079,7.29688 16.30079,16.30078 z m 0,0"
       id="path170-8" /></g><path
     style="fill:#c1282e;fill-opacity:1;fill-rule:nonzero;stroke:none"
     d="m 293.77971,317.34588 c 0,9.0039 -7.30079,16.30079 -16.30079,16.30079 -9.0039,0 -16.30468,-7.29689 -16.30468,-16.30079 0,-9.00391 7.30078,-16.30469 16.30468,-16.30469 9,0 16.30079,7.30078 16.30079,16.30469 z m 0,0"
     id="path182-6" /><path
     style="fill:#0000a6;fill-opacity:1;fill-rule:nonzero;stroke:none"
     d="m 159.04142,247.34197 c 0,5.14453 -4.17187,9.31641 -9.3164,9.31641 -5.14453,0 -9.31641,-4.17188 -9.31641,-9.31641 0,-5.14453 4.17188,-9.3125 9.31641,-9.3125 5.14453,0 9.3164,4.16797 9.3164,9.3125 z m 0,0"
     id="path80-9" /><path
     style="fill:#0000a6;fill-opacity:1;fill-rule:nonzero;stroke:none"
     d="m 39.66252,466.25604 c 0,9.00391 -7.29688,16.30078 -16.30078,16.30078 -9.00391,0 -16.30469,-7.29687 -16.30469,-16.30078 0,-9.0039 7.30078,-16.30078 16.30469,-16.30078 9.0039,0 16.30078,7.29688 16.30078,16.30078 z m 0,0"
     id="path86-2" /><path
     style="fill:#0000a6;fill-opacity:1;fill-rule:nonzero;stroke:none"
     d="m 159.83049,686.49432 c 0,5.14453 -4.17188,9.3125 -9.31641,9.3125 -5.14453,0 -9.31641,-4.16797 -9.31641,-9.3125 0,-5.14453 4.17188,-9.3164 9.31641,-9.3164 5.14453,0 9.31641,4.17187 9.31641,9.3164 z m 0,0"
     id="path100-6" /><path
     style="fill:#0000a6;fill-opacity:1;fill-rule:nonzero;stroke:none"
     d="m 166.81486,686.49432 c 0,9.00391 -7.29687,16.30078 -16.30078,16.30078 -9.00391,0 -16.30078,-7.29687 -16.30078,-16.30078 0,-9.0039 7.29687,-16.30468 16.30078,-16.30468 9.00391,0 16.30078,7.30078 16.30078,16.30468 z m 0,0"
     id="path130-2" /><path
     style="fill:#0000a6;fill-opacity:1;fill-rule:nonzero;stroke:none"
     d="m 159.83049,246.01775 c 0,5.14453 -4.17188,9.31641 -9.31641,9.31641 -5.14453,0 -9.31641,-4.17188 -9.31641,-9.31641 0,-5.14453 4.17188,-9.3125 9.31641,-9.3125 5.14453,0 9.31641,4.16797 9.31641,9.3125 z m 0,0"
     id="path154-9" /><path
     style="fill:#0000a6;fill-opacity:1;fill-rule:nonzero;stroke:none"
     d="m 166.81486,246.01775 c 0,9.00391 -7.29687,16.30469 -16.30078,16.30469 -9.00391,0 -16.30078,-7.30078 -16.30078,-16.30469 0,-9.0039 7.29687,-16.30078 16.30078,-16.30078 9.00391,0 16.30078,7.29688 16.30078,16.30078 z m 0,0"
     id="path158-5" /><path
     style="fill:#0000a6;fill-opacity:1;fill-rule:nonzero;stroke:none"
     d="m 293.97111,466.25604 c 0,9.00391 -7.30078,16.30078 -16.30469,16.30078 -9,0 -16.30078,-7.29687 -16.30078,-16.30078 0,-9.0039 7.30078,-16.30078 16.30078,-16.30078 9.00391,0 16.30469,7.29688 16.30469,16.30078 z m 0,0"
     id="path184-7" /><path
     style="fill:none;stroke:#b8b8b8;stroke-width:3.86929;stroke-linecap:butt;stroke-linejoin:miter;stroke-miterlimit:4;stroke-dasharray:3.86929, 3.86929;stroke-opacity:1"
     d="M 146.39591,94.20849 19.24357,20.79443"
     id="path72-6-2" /><path
     style="fill:#0000a6;fill-opacity:1;fill-rule:nonzero;stroke:none"
     d="m 32.60547,22.55141 c 0,9.00391 -7.30078,16.30078 -16.30469,16.30078 C 7.30078,38.85219 0,31.55532 0,22.55141 0,13.54751 7.30078,6.25063 16.30078,6.25063 c 9.00391,0 16.30469,7.29688 16.30469,16.30078 z m 0,0"
     id="path184-7-8" /><path
     style="fill:none;stroke:#b8b8b8;stroke-width:3.86929;stroke-linecap:butt;stroke-linejoin:miter;stroke-miterlimit:4;stroke-dasharray:3.86929, 3.86929;stroke-opacity:1"
     d="M 536.03066,312.77726 V 459.60148"
     id="path64-1" /><g
     clip-path="url(#clip1)"
     clip-rule="nonzero"
     id="g54"
     transform="translate(392.35648,225.88223)"><path
       style="fill:none;stroke:#b8b8b8;stroke-width:3.86929;stroke-linecap:butt;stroke-linejoin:miter;stroke-miterlimit:4;stroke-dasharray:3.86929, 3.86929;stroke-opacity:1"
       d="M 524.55859,308.79687 651.71094,235.38281"
       id="path52" /></g><g
     clip-path="url(#clip2)"
     clip-rule="nonzero"
     id="g58"
     transform="translate(392.35648,225.88223)"><path
       style="fill:none;stroke:#b8b8b8;stroke-width:3.86929;stroke-linecap:butt;stroke-linejoin:miter;stroke-miterlimit:4;stroke-dasharray:3.86929, 3.86929;stroke-opacity:1"
       d="M 397.40625,88.558594 524.55859,15.148438"
       id="path56" /></g><g
     clip-path="url(#clip3)"
     clip-rule="nonzero"
     id="g62"
     transform="translate(392.35648,225.88223)"><path
       style="fill:none;stroke:#b8b8b8;stroke-width:3.86929;stroke-linecap:butt;stroke-linejoin:miter;stroke-miterlimit:4;stroke-dasharray:3.86929, 3.86929;stroke-opacity:1"
       d="M 397.40625,529.03516 270.25,455.62109"
       id="path60" /></g><path
     style="fill:none;stroke:#b8b8b8;stroke-width:3.86929;stroke-linecap:butt;stroke-linejoin:miter;stroke-miterlimit:4;stroke-dasharray:3.86929, 3.86929;stroke-opacity:1"
     d="M 662.60648,534.6791 V 681.50332"
     id="path64" /><path
     style="fill:none;stroke:#b8b8b8;stroke-width:3.86929;stroke-linecap:butt;stroke-linejoin:miter;stroke-miterlimit:4;stroke-dasharray:3.86929, 3.86929;stroke-opacity:1"
     d="M 408.29789,534.6791 V 681.50332"
     id="path66" /><path
     style="fill:none;stroke:#b8b8b8;stroke-width:3.86929;stroke-linecap:butt;stroke-linejoin:miter;stroke-miterlimit:4;stroke-dasharray:3.86929, 3.86929;stroke-opacity:1"
     d="m 662.60648,241.03067 127.15625,73.41015"
     id="path68" /><path
     style="fill:none;stroke:#b8b8b8;stroke-width:3.86929;stroke-linecap:butt;stroke-linejoin:miter;stroke-miterlimit:4;stroke-dasharray:3.86929, 3.86929;stroke-opacity:1"
     d="m 414.86501,241.8077 127.15625,73.41016"
     id="path68-7" /><path
     style="fill:none;stroke:#b8b8b8;stroke-width:4.15276;stroke-linecap:butt;stroke-linejoin:miter;stroke-miterlimit:4;stroke-dasharray:4.15276, 4.15276;stroke-opacity:1"
     d="M 535.45414,314.44082 662.60648,241.03067"
     id="path70" /><path
     style="fill:none;stroke:#b8b8b8;stroke-width:3.86929;stroke-linecap:butt;stroke-linejoin:miter;stroke-miterlimit:4;stroke-dasharray:3.86929, 3.86929;stroke-opacity:1"
     d="M 662.60648,534.6791 535.45414,461.26504"
     id="path72" /><path
     style="fill:#0000ff;fill-opacity:1;fill-rule:nonzero;stroke:none"
     d="m 799.62601,462.42129 c 0,5.14453 -4.16797,9.31641 -9.31641,9.31641 -5.14453,0 -9.3125,-4.17188 -9.3125,-9.31641 0,-5.14453 4.16797,-9.3164 9.3125,-9.3164 5.14844,0 9.31641,4.17187 9.31641,9.3164 z m 0,0"
     id="path76" /><g
     clip-path="url(#clip4)"
     clip-rule="nonzero"
     id="g94"
     transform="translate(392.35648,225.88223)"><path
       style="fill:none;stroke:#b8b8b8;stroke-width:3.86929;stroke-linecap:butt;stroke-linejoin:miter;stroke-miterlimit:4;stroke-dasharray:3.86929, 3.86929;stroke-opacity:1"
       d="M 143.09766,529.03516 15.941406,455.62109"
       id="path92" /></g><g
     clip-path="url(#clip5)"
     clip-rule="nonzero"
     id="g98"
     transform="translate(392.35648,225.88223)"><path
       style="fill:none;stroke:#b8b8b8;stroke-width:3.86929;stroke-linecap:butt;stroke-linejoin:miter;stroke-miterlimit:4;stroke-dasharray:3.86929, 3.86929;stroke-opacity:1"
       d="M 270.25,455.62109 143.09766,529.03516"
       id="path96" /></g><g
     clip-path="url(#clip5-1)"
     clip-rule="nonzero"
     id="g98-7"
     transform="translate(260.76074,7.53816)"><path
       style="fill:none;stroke:#b8b8b8;stroke-width:3.86929;stroke-linecap:butt;stroke-linejoin:miter;stroke-miterlimit:4;stroke-dasharray:3.86929, 3.86929;stroke-opacity:1"
       d="M 270.25,455.62109 143.09766,529.03516"
       id="path96-7" /></g><path
     style="fill:none;stroke:#b8b8b8;stroke-width:3.86929;stroke-linecap:butt;stroke-linejoin:miter;stroke-miterlimit:4;stroke-dasharray:3.86929, 3.86929;stroke-opacity:1"
     d="M 916.9151,534.6791 V 681.50332"
     id="path106" /><path
     style="fill:#ff0000;fill-opacity:1;fill-rule:nonzero;stroke:none"
     d="m 926.5908,533.74551 c 0,5.14453 -4.1718,9.31641 -9.3164,9.31641 -5.1445,0 -9.3164,-4.17188 -9.3164,-9.31641 0,-5.14453 4.1719,-9.3125 9.3164,-9.3125 5.1446,0 9.3164,4.16797 9.3164,9.3125 z m 0,0"
     id="path108" /><g
     clip-path="url(#clip6)"
     clip-rule="nonzero"
     id="g112"
     transform="translate(392.35648,225.88223)"><path
       style="fill:none;stroke:#b8b8b8;stroke-width:3.86929;stroke-linecap:butt;stroke-linejoin:miter;stroke-miterlimit:4;stroke-dasharray:3.86929, 3.86929;stroke-opacity:1"
       d="M 524.55859,455.62109 397.40625,529.03516"
       id="path110" /></g><g
     clip-path="url(#clip7)"
     clip-rule="nonzero"
     id="g120"
     transform="translate(392.35648,225.88223)"><path
       style="fill:none;stroke:#b8b8b8;stroke-width:3.86929;stroke-linecap:butt;stroke-linejoin:miter;stroke-miterlimit:4;stroke-dasharray:3.86929, 3.86929;stroke-opacity:1"
       d="M 651.71094,529.03516 524.55859,455.62109"
       id="path118" /></g><g
     clip-path="url(#clip8)"
     clip-rule="nonzero"
     id="g124"
     transform="translate(392.35648,225.88223)"><path
       style="fill:none;stroke:#b8b8b8;stroke-width:3.86929;stroke-linecap:butt;stroke-linejoin:miter;stroke-miterlimit:4;stroke-dasharray:3.86929, 3.86929;stroke-opacity:1"
       d="M 15.941406,455.62109 -111.21094,529.03516"
       id="path122" /></g><path
     style="fill:none;stroke:#b8b8b8;stroke-width:3.86929;stroke-linecap:butt;stroke-linejoin:miter;stroke-miterlimit:4;stroke-dasharray:3.86929, 3.86929;stroke-opacity:1"
     d="M 408.29789,94.20645 V 241.03067"
     id="path146" /><path
     style="fill:none;stroke:#b8b8b8;stroke-width:3.86929;stroke-linecap:butt;stroke-linejoin:miter;stroke-miterlimit:4;stroke-dasharray:3.86929, 3.86929;stroke-opacity:1"
     d="M 662.60648,94.20645 V 241.03067"
     id="path152" /><path
     style="fill:none;stroke:#b8b8b8;stroke-width:3.86929;stroke-linecap:butt;stroke-linejoin:miter;stroke-miterlimit:4;stroke-dasharray:3.86929, 3.86929;stroke-opacity:1"
     d="M 916.9151,94.20645 V 241.03067"
     id="path160" /><g
     clip-path="url(#clip14)"
     clip-rule="nonzero"
     id="g176"
     transform="translate(392.35648,225.88223)"><path
       style="fill:none;stroke:#b8b8b8;stroke-width:3.86929;stroke-linecap:butt;stroke-linejoin:miter;stroke-miterlimit:4;stroke-dasharray:3.86929, 3.86929;stroke-opacity:1"
       d="M 651.71094,88.558594 524.55859,15.148438"
       id="path174" /></g><path
     style="fill:#c1282e;fill-opacity:1;fill-rule:nonzero;stroke:none"
     d="m 799.62601,315.58145 c 0,5.14453 -4.16797,9.3164 -9.31641,9.3164 -5.14453,0 -9.3125,-4.17187 -9.3125,-9.3164 0,-5.14453 4.16797,-9.31641 9.3125,-9.31641 5.14844,0 9.31641,4.17188 9.31641,9.31641 z m 0,0"
     id="path74" /><path
     style="fill:#c1282e;fill-opacity:1;fill-rule:nonzero;stroke:none"
     d="m 679.26664,533.74551 c 0,9.00391 -7.29688,16.30469 -16.30079,16.30469 -9.0039,0 -16.30078,-7.30078 -16.30078,-16.30469 0,-9 7.29688,-16.30078 16.30078,-16.30078 9.00391,0 16.30079,7.30078 16.30079,16.30078 z m 0,0"
     id="path78" /><path
     style="fill:#c1282e;fill-opacity:1;fill-rule:nonzero;stroke:none"
     d="m 545.31742,315.58145 c 0,5.14453 -4.16797,9.3164 -9.3125,9.3164 -5.14453,0 -9.31641,-4.17187 -9.31641,-9.3164 0,-5.14453 4.17188,-9.31641 9.31641,-9.31641 5.14453,0 9.3125,4.17188 9.3125,9.31641 z m 0,0"
     id="path84" /><path
     style="fill:#c1282e;fill-opacity:1;fill-rule:nonzero;stroke:none"
     d="m 424.96195,533.74551 c 0,9.00391 -7.30078,16.30469 -16.30469,16.30469 -9.00391,0 -16.30078,-7.30078 -16.30078,-16.30469 0,-9 7.29687,-16.30078 16.30078,-16.30078 9.00391,0 16.30469,7.30078 16.30469,16.30078 z m 0,0"
     id="path88" /><path
     style="fill:#c1282e;fill-opacity:1;fill-rule:nonzero;stroke:none"
     d="m 545.12992,753.98379 c 0,5.14453 -4.17188,9.31641 -9.31641,9.31641 -5.14453,0 -9.31641,-4.17188 -9.31641,-9.31641 0,-5.14453 4.17188,-9.3164 9.31641,-9.3164 5.14453,0 9.31641,4.17187 9.31641,9.3164 z m 0,0"
     id="path102" /><path
     style="fill:#c1282e;fill-opacity:1;fill-rule:nonzero;stroke:none"
     d="m 799.4346,753.98379 c 0,5.14453 -4.16796,9.31641 -9.3125,9.31641 -5.14843,0 -9.3164,-4.17188 -9.3164,-9.31641 0,-5.14453 4.16797,-9.3164 9.3164,-9.3164 5.14454,0 9.3125,4.17187 9.3125,9.3164 z m 0,0"
     id="path116" /><g
     clip-path="url(#clip9)"
     clip-rule="nonzero"
     id="g128"
     style="fill:#c1282e;fill-opacity:1"
     transform="translate(392.35648,225.88223)"><path
       style="fill:#c1282e;fill-opacity:1;stroke:#b8b8b8;stroke-width:3.86929;stroke-linecap:butt;stroke-linejoin:miter;stroke-miterlimit:4;stroke-dasharray:3.86929, 3.86929;stroke-opacity:1"
       d="M 143.09766,529.03516 V 675.85937"
       id="path126" /></g><path
     style="fill:#c1282e;fill-opacity:1;fill-rule:nonzero;stroke:none"
     d="m 545.12992,753.98379 c 0,5.14453 -4.17188,9.31641 -9.31641,9.31641 -5.14453,0 -9.31641,-4.17188 -9.31641,-9.31641 0,-5.14453 4.17188,-9.3164 9.31641,-9.3164 5.14453,0 9.31641,4.17187 9.31641,9.3164 z m 0,0"
     id="path132" /><g
     clip-path="url(#clip10)"
     clip-rule="nonzero"
     id="g136"
     style="fill:#c1282e;fill-opacity:1"
     transform="translate(392.35648,225.88223)"><path
       style="fill:#c1282e;fill-opacity:1;stroke:#b8b8b8;stroke-width:3.86929;stroke-linecap:butt;stroke-linejoin:miter;stroke-miterlimit:4;stroke-dasharray:3.86929, 3.86929;stroke-opacity:1"
       d="M 397.40625,529.03516 V 675.85937"
       id="path134" /></g><path
     style="fill:#c1282e;fill-opacity:1;fill-rule:nonzero;stroke:none"
     d="m 799.4346,753.98379 c 0,5.14453 -4.16796,9.31641 -9.3125,9.31641 -5.14843,0 -9.3164,-4.17188 -9.3164,-9.31641 0,-5.14453 4.16797,-9.3164 9.3164,-9.3164 5.14454,0 9.3125,4.17187 9.3125,9.3164 z m 0,0"
     id="path138" /><g
     clip-path="url(#clip11)"
     clip-rule="nonzero"
     id="g144"
     style="fill:#c1282e;fill-opacity:1"
     transform="translate(392.35648,225.88223)"><path
       style="fill:#c1282e;fill-opacity:1;fill-rule:nonzero;stroke:none"
       d="m 159.75781,528.10156 c 0,9.00391 -7.29687,16.30078 -16.30078,16.30078 -9.00391,0 -16.30469,-7.29687 -16.30469,-16.30078 0,-9.0039 7.30078,-16.30078 16.30469,-16.30078 9.00391,0 16.30078,7.29688 16.30078,16.30078 z m 0,0"
       id="path142" /></g><path
     style="fill:#c1282e;fill-opacity:1;fill-rule:nonzero;stroke:none"
     d="m 552.11429,313.51114 c 0,9.0039 -7.29687,16.30078 -16.30078,16.30078 -9.00391,0 -16.30469,-7.29688 -16.30469,-16.30078 0,-9.00391 7.30078,-16.30469 16.30469,-16.30469 9.00391,0 16.30078,7.30078 16.30078,16.30469 z m 0,0"
     id="path156" /><path
     style="fill:#c1282e;fill-opacity:1;fill-rule:nonzero;stroke:none"
     d="m 799.4346,313.51114 c 0,5.14453 -4.16796,9.3125 -9.3125,9.3125 -5.14843,0 -9.3164,-4.16797 -9.3164,-9.3125 0,-5.14454 4.16797,-9.31641 9.3164,-9.31641 5.14454,0 9.3125,4.17187 9.3125,9.31641 z m 0,0"
     id="path164" /><g
     clip-path="url(#clip13)"
     clip-rule="nonzero"
     id="g172"
     style="fill:#c1282e;fill-opacity:1"
     transform="translate(392.35648,225.88223)"><path
       style="fill:#c1282e;fill-opacity:1;fill-rule:nonzero;stroke:none"
       d="m 414.06641,528.10156 c 0,9.00391 -7.30079,16.30078 -16.30079,16.30078 -9.0039,0 -16.30468,-7.29687 -16.30468,-16.30078 0,-9.0039 7.30078,-16.30078 16.30468,-16.30078 9,0 16.30079,7.29688 16.30079,16.30078 z m 0,0"
       id="path170" /></g><path
     style="fill:#c1282e;fill-opacity:1;fill-rule:nonzero;stroke:none"
     d="m 806.42289,313.51114 c 0,9.0039 -7.30079,16.30078 -16.30079,16.30078 -9.0039,0 -16.30468,-7.29688 -16.30468,-16.30078 0,-9.00391 7.30078,-16.30469 16.30468,-16.30469 9,0 16.30079,7.30078 16.30079,16.30469 z m 0,0"
     id="path182" /><g
     clip-path="url(#clip16)"
     clip-rule="nonzero"
     id="g188"
     style="fill:#c1282e;fill-opacity:1"
     transform="translate(392.35648,225.88223)"><path
       style="fill:#c1282e;fill-opacity:1;fill-rule:nonzero;stroke:none"
       d="m 541.21875,307.86328 c 0,9.00391 -7.29688,16.30469 -16.30078,16.30469 -9.00391,0 -16.30078,-7.30078 -16.30078,-16.30469 0,-9 7.29687,-16.30078 16.30078,-16.30078 9.0039,0 16.30078,7.30078 16.30078,16.30078 z m 0,0"
       id="path186" /></g><path
     style="fill:#c1282e;fill-opacity:1;fill-rule:nonzero;stroke:none"
     d="m 472.93851,337.90176 v -18.80078 c 0,-2.65234 0.11719,-3.13672 3.73438,-3.13672 h 9.52343 c 7.47266,0 10.1211,6.51172 10.1211,10.60938 0,4.9414 -3.73438,11.32812 -12.29297,11.32812 z m 18.07813,0.72266 c 7.47265,-1.44531 12.77343,-6.38672 12.77343,-12.05078 0,-6.62891 -7.10937,-13.01954 -17.11328,-13.01954 h -28.08203 v 2.41016 h 1.80859 c 5.90235,0 6.14454,0.84375 6.14454,3.61719 v 40.49609 c 0,2.77344 -0.24219,3.61719 -6.14454,3.61719 h -1.80859 v 2.41016 h 30.13281 c 10.24219,0 17.11329,-6.8711 17.11329,-14.10157 0,-6.6289 -6.26954,-12.41406 -14.82422,-13.3789 z m -4.70313,25.07031 h -9.64062 c -3.61719,0 -3.73438,-0.48438 -3.73438,-3.01172 v -20.97265 h 14.46094 c 7.59375,0 10.84766,7.10937 10.84766,12.29296 0,5.42188 -4.09766,11.69141 -11.9336,11.69141 z m 0,0"
     id="path192" /><path
     style="fill:#000000;fill-opacity:1;fill-rule:nonzero;stroke:none"
     d="m 722.4307,587.59707 c -1.39453,-2.78906 -3.48438,-4.76562 -6.85547,-4.76562 -8.59375,0 -17.77344,10.92187 -17.77344,21.72656 0,6.96875 4.06641,11.84766 9.75781,11.84766 1.51172,0 5.23047,-0.34766 9.64454,-5.57422 0.57812,3.13672 3.25,5.57422 6.73828,5.57422 2.67187,0 4.29687,-1.74219 5.57422,-4.06641 1.16015,-2.67187 2.20703,-7.20312 2.20703,-7.31641 0,-0.8164 -0.69532,-0.8164 -0.92969,-0.8164 -0.69531,0 -0.8125,0.35156 -1.04297,1.39453 -1.28125,4.76562 -2.55859,9.17969 -5.57812,9.17969 -2.08985,0 -2.20704,-1.97657 -2.20704,-3.3711 0,-1.625 0.11719,-2.32031 0.92969,-5.57422 0.8125,-3.01953 0.92969,-3.83593 1.625,-6.62109 l 2.67188,-10.33984 c 0.46484,-2.08985 0.46484,-2.20703 0.46484,-2.55469 0,-1.28125 -0.8125,-1.97656 -2.08984,-1.97656 -1.85938,0 -2.90625,1.625 -3.13672,3.2539 z m -4.76172,19.16797 c -0.46484,1.39453 -0.46484,1.50781 -1.51172,2.78906 -3.25391,4.0625 -6.27344,5.22657 -8.36328,5.22657 -3.71875,0 -4.76563,-4.06641 -4.76563,-6.97266 0,-3.71484 2.32422,-12.77734 4.06641,-16.26172 2.32422,-4.29687 5.57813,-7.08594 8.59766,-7.08594 4.76172,0 5.80859,6.03907 5.80859,6.50391 0,0.46484 -0.11719,0.92969 -0.23047,1.27734 z m 0,0"
     id="path194" /><path
     style="fill:none;stroke:#000000;stroke-width:3.0189;stroke-linecap:butt;stroke-linejoin:miter;stroke-miterlimit:4;stroke-opacity:1"
     d="m 685.16507,540.18301 -0.34375,129.81641"
     id="path196" /><path
     style="fill:#000000;fill-opacity:1;fill-rule:evenodd;stroke:#000000;stroke-width:1.61008;stroke-linecap:butt;stroke-linejoin:miter;stroke-miterlimit:4;stroke-opacity:1"
     d="m 685.13382,552.26113 6.01953,6.05079 -5.98046,-21.14844 -6.09375,21.11719 z m 0,0"
     id="path198" /><path
     style="fill:#0000a6;fill-opacity:1;fill-rule:nonzero;stroke:none"
     d="m 671.6846,243.50723 c 0,5.14453 -4.17187,9.31641 -9.3164,9.31641 -5.14453,0 -9.31641,-4.17188 -9.31641,-9.31641 0,-5.14453 4.17188,-9.3125 9.31641,-9.3125 5.14453,0 9.3164,4.16797 9.3164,9.3125 z m 0,0"
     id="path80" /><path
     style="fill:#0000a6;fill-opacity:1;fill-rule:nonzero;stroke:none"
     d="m 552.3057,462.42129 c 0,9.00391 -7.29688,16.30078 -16.30078,16.30078 -9.00391,0 -16.30469,-7.29687 -16.30469,-16.30078 0,-9.0039 7.30078,-16.30078 16.30469,-16.30078 9.0039,0 16.30078,7.29688 16.30078,16.30078 z m 0,0"
     id="path86" /><path
     style="fill:#0000a6;fill-opacity:1;fill-rule:nonzero;stroke:none"
     d="m 417.37601,243.50723 c 0,5.14453 -4.17187,9.31641 -9.31641,9.31641 -5.14453,0 -9.3164,-4.17188 -9.3164,-9.31641 0,-5.14453 4.17187,-9.3125 9.3164,-9.3125 5.14454,0 9.31641,4.16797 9.31641,9.3125 z m 0,0"
     id="path90" /><path
     style="fill:#0000a6;fill-opacity:1;fill-rule:nonzero;stroke:none"
     d="m 672.47367,682.65957 c 0,5.14453 -4.17188,9.3125 -9.31641,9.3125 -5.14453,0 -9.31641,-4.16797 -9.31641,-9.3125 0,-5.14453 4.17188,-9.3164 9.31641,-9.3164 5.14453,0 9.31641,4.17187 9.31641,9.3164 z m 0,0"
     id="path100" /><path
     style="fill:#0000a6;fill-opacity:1;fill-rule:nonzero;stroke:none"
     d="m 418.16507,682.65957 c 0,5.14453 -4.17187,9.3125 -9.3164,9.3125 -5.14453,0 -9.3125,-4.16797 -9.3125,-9.3125 0,-5.14453 4.16797,-9.3164 9.3125,-9.3164 5.14453,0 9.3164,4.17187 9.3164,9.3164 z m 0,0"
     id="path104" /><path
     style="fill:#0000a6;fill-opacity:1;fill-rule:nonzero;stroke:none"
     d="m 926.7823,682.65957 c 0,5.14453 -4.1719,9.3125 -9.3165,9.3125 -5.1445,0 -9.3164,-4.16797 -9.3164,-9.3125 0,-5.14453 4.1719,-9.3164 9.3164,-9.3164 5.1446,0 9.3165,4.17187 9.3165,9.3164 z m 0,0"
     id="path114" /><path
     style="fill:#0000a6;fill-opacity:1;fill-rule:nonzero;stroke:none"
     d="m 679.45804,682.65957 c 0,9.00391 -7.29687,16.30078 -16.30078,16.30078 -9.00391,0 -16.30078,-7.29687 -16.30078,-16.30078 0,-9.0039 7.29687,-16.30468 16.30078,-16.30468 9.00391,0 16.30078,7.30078 16.30078,16.30468 z m 0,0"
     id="path130" /><path
     style="fill:#0000a6;fill-opacity:1;fill-rule:nonzero;stroke:none"
     d="m 425.15335,682.65957 c 0,9.00391 -7.30078,16.30078 -16.30468,16.30078 -9.00391,0 -16.30078,-7.29687 -16.30078,-16.30078 0,-9.0039 7.29687,-16.30468 16.30078,-16.30468 9.0039,0 16.30468,7.30078 16.30468,16.30468 z m 0,0"
     id="path140" /><path
     style="fill:#0000a6;fill-opacity:1;fill-rule:nonzero;stroke:none"
     d="m 418.16507,242.18301 c 0,5.14453 -4.17187,9.31641 -9.3164,9.31641 -5.14453,0 -9.3125,-4.17188 -9.3125,-9.31641 0,-5.14453 4.16797,-9.3125 9.3125,-9.3125 5.14453,0 9.3164,4.16797 9.3164,9.3125 z m 0,0"
     id="path148" /><path
     style="fill:#0000a6;fill-opacity:1;fill-rule:nonzero;stroke:none"
     d="m 425.15335,242.18301 c 0,9.00391 -7.30078,16.30469 -16.30468,16.30469 -9.00391,0 -16.30078,-7.30078 -16.30078,-16.30469 0,-9.00391 7.29687,-16.30078 16.30078,-16.30078 9.0039,0 16.30468,7.29687 16.30468,16.30078 z m 0,0"
     id="path150" /><path
     style="fill:#0000a6;fill-opacity:1;fill-rule:nonzero;stroke:none"
     d="m 672.47367,242.18301 c 0,5.14453 -4.17188,9.31641 -9.31641,9.31641 -5.14453,0 -9.31641,-4.17188 -9.31641,-9.31641 0,-5.14453 4.17188,-9.3125 9.31641,-9.3125 5.14453,0 9.31641,4.16797 9.31641,9.3125 z m 0,0"
     id="path154" /><path
     style="fill:#0000a6;fill-opacity:1;fill-rule:nonzero;stroke:none"
     d="m 679.45804,242.18301 c 0,9.00391 -7.29687,16.30469 -16.30078,16.30469 -9.00391,0 -16.30078,-7.30078 -16.30078,-16.30469 0,-9.00391 7.29687,-16.30078 16.30078,-16.30078 9.00391,0 16.30078,7.29687 16.30078,16.30078 z m 0,0"
     id="path158" /><path
     style="fill:#0000a6;fill-opacity:1;fill-rule:nonzero;stroke:none"
     d="m 926.7823,242.18301 c 0,5.14453 -4.1719,9.31641 -9.3165,9.31641 -5.1445,0 -9.3164,-4.17188 -9.3164,-9.31641 0,-5.14453 4.1719,-9.3125 9.3164,-9.3125 5.1446,0 9.3165,4.16797 9.3165,9.3125 z m 0,0"
     id="path162" /><g
     clip-path="url(#clip12)"
     clip-rule="nonzero"
     id="g168"
     style="fill:#0000a6;fill-opacity:1"
     transform="translate(392.35648,225.88223)"><path
       style="fill:#0000a6;fill-opacity:1;fill-rule:nonzero;stroke:none"
       d="m 541.41016,456.77734 c 0,9.00391 -7.29688,16.30078 -16.30079,16.30078 -9.0039,0 -16.30078,-7.29687 -16.30078,-16.30078 0,-9.0039 7.29688,-16.30468 16.30078,-16.30468 9.00391,0 16.30079,7.30078 16.30079,16.30468 z m 0,0"
       id="path166" /></g><g
     clip-path="url(#clip15)"
     clip-rule="nonzero"
     id="g180"
     style="fill:#0000a6;fill-opacity:1"
     transform="translate(392.35648,225.88223)"><path
       style="fill:#0000a6;fill-opacity:1;fill-rule:nonzero;stroke:none"
       d="m 541.41016,16.300781 c 0,9.003907 -7.29688,16.304688 -16.30079,16.304688 -9.0039,0 -16.30078,-7.300781 -16.30078,-16.304688 C 508.80859,7.296875 516.10547,0 525.10937,0 c 9.00391,0 16.30079,7.296875 16.30079,16.300781 z m 0,0"
       id="path178" /></g><path
     style="fill:#0000a6;fill-opacity:1;fill-rule:nonzero;stroke:none"
     d="m 806.61429,462.42129 c 0,9.00391 -7.30078,16.30078 -16.30469,16.30078 -9,0 -16.30078,-7.29687 -16.30078,-16.30078 0,-9.0039 7.30078,-16.30078 16.30078,-16.30078 9.00391,0 16.30469,7.29688 16.30469,16.30078 z m 0,0"
     id="path184" /><path
     style="fill:#0000a6;fill-opacity:1;fill-rule:nonzero;stroke:none"
     d="m 482.14554,404.03457 c -0.36719,-0.97656 -0.60937,-1.58593 -1.82812,-1.58593 -1.21875,0 -1.46485,0.48828 -1.82813,1.58593 l -16.08984,46.4336 c -1.46094,4.01953 -4.50781,5.23828 -8.77344,5.23828 v 2.4375 c 1.82813,-0.1211 5.23828,-0.24219 7.92188,-0.24219 2.4375,0 6.45703,0.12109 9.01953,0.24219 v -2.4375 c -3.90235,0 -5.85157,-1.94922 -5.85157,-3.89844 0,-0.24609 0.1211,-1.09766 0.1211,-1.21875 l 3.65625,-10.11719 h 19.13672 l 4.14062,11.82422 c 0.125,0.36328 0.2461,0.85156 0.2461,1.09375 0,2.31641 -4.38672,2.31641 -6.46094,2.31641 v 2.4375 c 2.80469,-0.24219 8.28906,-0.24219 11.21484,-0.24219 3.28907,0 6.94532,0.12109 10.11328,0.24219 v -2.4375 h -1.33984 c -4.63281,0 -5.72656,-0.48828 -6.58203,-3.04688 z m -4.14453,8.65235 8.77344,25.34765 h -17.42578 z m 0,0"
     id="path190" /><path
     style="fill:#0000a6;fill-opacity:1;fill-rule:evenodd;stroke:#000000;stroke-width:1.61008;stroke-linecap:butt;stroke-linejoin:miter;stroke-miterlimit:4;stroke-opacity:1"
     d="m 684.85257,657.9252 -6.01953,-6.05469 5.98048,21.14844 6.09374,-21.11719 z m 0,0"
     id="path200" /><g
     clip-path="url(#clip3-3-6)"
     clip-rule="nonzero"
     id="g62-6-4"
     transform="translate(4.95797,-436.63792)"><path
       style="fill:none;stroke:#b8b8b8;stroke-width:3.86929;stroke-linecap:butt;stroke-linejoin:miter;stroke-miterlimit:4;stroke-dasharray:3.86929, 3.86929;stroke-opacity:1"
       d="M 397.40625,529.03516 270.25,455.62109"
       id="path60-1-6" /></g><g
     clip-path="url(#clip5-9-8)"
     clip-rule="nonzero"
     id="g98-5-2"
     transform="translate(4.95797,-436.63792)"><path
       style="fill:none;stroke:#b8b8b8;stroke-width:3.86929;stroke-linecap:butt;stroke-linejoin:miter;stroke-miterlimit:4;stroke-dasharray:3.86929, 3.86929;stroke-opacity:1"
       d="M 270.25,455.62109 143.09766,529.03516"
       id="path96-0-6" /></g><g
     clip-path="url(#clip6-2-7)"
     clip-rule="nonzero"
     id="g112-1-7"
     transform="translate(4.95797,-436.63792)"><path
       style="fill:none;stroke:#b8b8b8;stroke-width:3.86929;stroke-linecap:butt;stroke-linejoin:miter;stroke-miterlimit:4;stroke-dasharray:3.86929, 3.86929;stroke-opacity:1"
       d="M 524.55859,455.62109 397.40625,529.03516"
       id="path110-0-5" /></g><path
     style="fill:#c1282e;fill-opacity:1;fill-rule:nonzero;stroke:none"
     d="m 157.73141,91.46365 c 0,5.14453 -4.17188,9.31641 -9.31641,9.31641 -5.14453,0 -9.31641,-4.17188 -9.31641,-9.31641 0,-5.14453 4.17188,-9.3164 9.31641,-9.3164 5.14453,0 9.31641,4.17187 9.31641,9.3164 z m 0,0"
     id="path102-3-6" /><path
     style="fill:#c1282e;fill-opacity:1;fill-rule:nonzero;stroke:none"
     d="m 412.03608,91.46365 c 0,5.14453 -4.16796,9.31641 -9.3125,9.31641 -5.14843,0 -9.3164,-4.17188 -9.3164,-9.31641 0,-5.14453 4.16797,-9.3164 9.3164,-9.3164 5.14454,0 9.3125,4.17187 9.3125,9.3164 z m 0,0"
     id="path116-7-9" /><g
     clip-path="url(#clip9-2-4)"
     clip-rule="nonzero"
     id="g128-4-8"
     style="fill:#c1282e;fill-opacity:1"
     transform="translate(4.95797,-436.63792)"><path
       style="fill:#c1282e;fill-opacity:1;stroke:#b8b8b8;stroke-width:3.86929;stroke-linecap:butt;stroke-linejoin:miter;stroke-miterlimit:4;stroke-dasharray:3.86929, 3.86929;stroke-opacity:1"
       d="M 143.09766,529.03516 V 675.85937"
       id="path126-5-7" /></g><path
     style="fill:#c1282e;fill-opacity:1;fill-rule:nonzero;stroke:none"
     d="m 157.73141,91.46365 c 0,5.14453 -4.17188,9.31641 -9.31641,9.31641 -5.14453,0 -9.31641,-4.17188 -9.31641,-9.31641 0,-5.14453 4.17188,-9.3164 9.31641,-9.3164 5.14453,0 9.31641,4.17187 9.31641,9.3164 z m 0,0"
     id="path132-2-2" /><g
     clip-path="url(#clip10-1-6)"
     clip-rule="nonzero"
     id="g136-5-8"
     style="fill:#c1282e;fill-opacity:1"
     transform="translate(4.95797,-436.63792)"><path
       style="fill:#c1282e;fill-opacity:1;stroke:#b8b8b8;stroke-width:3.86929;stroke-linecap:butt;stroke-linejoin:miter;stroke-miterlimit:4;stroke-dasharray:3.86929, 3.86929;stroke-opacity:1"
       d="M 397.40625,529.03516 V 675.85937"
       id="path134-4-2" /></g><path
     style="fill:#c1282e;fill-opacity:1;fill-rule:nonzero;stroke:none"
     d="m 412.03608,91.46365 c 0,5.14453 -4.16796,9.31641 -9.3125,9.31641 -5.14843,0 -9.3164,-4.17188 -9.3164,-9.31641 0,-5.14453 4.16797,-9.3164 9.3164,-9.3164 5.14454,0 9.3125,4.17187 9.3125,9.3164 z m 0,0"
     id="path138-7-9" /><g
     clip-path="url(#clip11-7-9)"
     clip-rule="nonzero"
     id="g144-4-9"
     style="fill:#c1282e;fill-opacity:1"
     transform="translate(4.95797,-436.63792)"><path
       style="fill:#c1282e;fill-opacity:1;fill-rule:nonzero;stroke:none"
       d="m 159.75781,528.10156 c 0,9.00391 -7.29687,16.30078 -16.30078,16.30078 -9.00391,0 -16.30469,-7.29687 -16.30469,-16.30078 0,-9.0039 7.30078,-16.30078 16.30469,-16.30078 9.00391,0 16.30078,7.29688 16.30078,16.30078 z m 0,0"
       id="path142-4-6" /></g><g
     clip-path="url(#clip13-2-0)"
     clip-rule="nonzero"
     id="g172-7-0"
     style="fill:#c1282e;fill-opacity:1"
     transform="translate(4.95797,-436.63792)"><path
       style="fill:#c1282e;fill-opacity:1;fill-rule:nonzero;stroke:none"
       d="m 414.06641,528.10156 c 0,9.00391 -7.30079,16.30078 -16.30079,16.30078 -9.0039,0 -16.30468,-7.29687 -16.30468,-16.30078 0,-9.0039 7.30078,-16.30078 16.30468,-16.30078 9,0 16.30079,7.29688 16.30079,16.30078 z m 0,0"
       id="path170-8-2" /></g><path
     style="fill:#0000a6;fill-opacity:1;fill-rule:nonzero;stroke:none"
     d="m 285.07516,20.13943 c 0,5.14453 -4.17188,9.3125 -9.31641,9.3125 -5.14453,0 -9.31641,-4.16797 -9.31641,-9.3125 0,-5.14453 4.17188,-9.3164 9.31641,-9.3164 5.14453,0 9.31641,4.17187 9.31641,9.3164 z m 0,0"
     id="path100-6-7" /><path
     style="fill:#0000a6;fill-opacity:1;fill-rule:nonzero;stroke:none"
     d="m 292.05953,20.13943 c 0,9.00391 -7.29687,16.30078 -16.30078,16.30078 -9.00391,0 -16.30078,-7.29687 -16.30078,-16.30078 0,-9.0039 7.29687,-16.30468 16.30078,-16.30468 9.00391,0 16.30078,7.30078 16.30078,16.30468 z m 0,0"
     id="path130-2-6" /><g
     clip-path="url(#clip3-1)"
     clip-rule="nonzero"
     id="g62-1"
     transform="translate(517.60115,-440.47266)"><path
       style="fill:none;stroke:#b8b8b8;stroke-width:3.86929;stroke-linecap:butt;stroke-linejoin:miter;stroke-miterlimit:4;stroke-dasharray:3.86929, 3.86929;stroke-opacity:1"
       d="M 397.40625,529.03516 270.25,455.62109"
       id="path60-3" /></g><g
     clip-path="url(#clip4-1)"
     clip-rule="nonzero"
     id="g94-2"
     transform="translate(517.60115,-440.47266)"><path
       style="fill:none;stroke:#b8b8b8;stroke-width:3.86929;stroke-linecap:butt;stroke-linejoin:miter;stroke-miterlimit:4;stroke-dasharray:3.86929, 3.86929;stroke-opacity:1"
       d="M 143.09766,529.03516 15.941406,455.62109"
       id="path92-1" /></g><g
     clip-path="url(#clip5-0)"
     clip-rule="nonzero"
     id="g98-59"
     transform="translate(517.60115,-440.47266)"><path
       style="fill:none;stroke:#b8b8b8;stroke-width:3.86929;stroke-linecap:butt;stroke-linejoin:miter;stroke-miterlimit:4;stroke-dasharray:3.86929, 3.86929;stroke-opacity:1"
       d="M 270.25,455.62109 143.09766,529.03516"
       id="path96-9" /></g><g
     clip-path="url(#clip8-9)"
     clip-rule="nonzero"
     id="g124-7"
     transform="translate(517.60115,-440.47266)"><path
       style="fill:none;stroke:#b8b8b8;stroke-width:3.86929;stroke-linecap:butt;stroke-linejoin:miter;stroke-miterlimit:4;stroke-dasharray:3.86929, 3.86929;stroke-opacity:1"
       d="M 15.941406,455.62109 -111.21094,529.03516"
       id="path122-5" /></g><path
     style="fill:#c1282e;fill-opacity:1;fill-rule:nonzero;stroke:none"
     d="m 670.37459,87.6289 c 0,5.14453 -4.17188,9.31641 -9.31641,9.31641 -5.14453,0 -9.31641,-4.17188 -9.31641,-9.31641 0,-5.14453 4.17188,-9.3164 9.31641,-9.3164 5.14453,0 9.31641,4.17187 9.31641,9.3164 z m 0,0"
     id="path102-8" /><path
     style="fill:#c1282e;fill-opacity:1;fill-rule:nonzero;stroke:none"
     d="m 924.6793,87.6289 c 0,5.14453 -4.168,9.31641 -9.3125,9.31641 -5.1485,0 -9.3164,-4.17188 -9.3164,-9.31641 0,-5.14453 4.1679,-9.3164 9.3164,-9.3164 5.1445,0 9.3125,4.17187 9.3125,9.3164 z m 0,0"
     id="path116-70" /><g
     clip-path="url(#clip9-3)"
     clip-rule="nonzero"
     id="g128-48"
     style="fill:#c1282e;fill-opacity:1"
     transform="translate(517.60115,-440.47266)"><path
       style="fill:#c1282e;fill-opacity:1;stroke:#b8b8b8;stroke-width:3.86929;stroke-linecap:butt;stroke-linejoin:miter;stroke-miterlimit:4;stroke-dasharray:3.86929, 3.86929;stroke-opacity:1"
       d="M 143.09766,529.03516 V 675.85937"
       id="path126-0" /></g><path
     style="fill:#c1282e;fill-opacity:1;fill-rule:nonzero;stroke:none"
     d="m 670.37459,87.6289 c 0,5.14453 -4.17188,9.31641 -9.31641,9.31641 -5.14453,0 -9.31641,-4.17188 -9.31641,-9.31641 0,-5.14453 4.17188,-9.3164 9.31641,-9.3164 5.14453,0 9.31641,4.17187 9.31641,9.3164 z m 0,0"
     id="path132-4" /><g
     clip-path="url(#clip10-8)"
     clip-rule="nonzero"
     id="g136-2"
     style="fill:#c1282e;fill-opacity:1"
     transform="translate(517.60115,-440.47266)"><path
       style="fill:#c1282e;fill-opacity:1;stroke:#b8b8b8;stroke-width:3.86929;stroke-linecap:butt;stroke-linejoin:miter;stroke-miterlimit:4;stroke-dasharray:3.86929, 3.86929;stroke-opacity:1"
       d="M 397.40625,529.03516 V 675.85937"
       id="path134-9" /></g><path
     style="fill:#c1282e;fill-opacity:1;fill-rule:nonzero;stroke:none"
     d="m 924.6793,87.6289 c 0,5.14453 -4.168,9.31641 -9.3125,9.31641 -5.1485,0 -9.3164,-4.17188 -9.3164,-9.31641 0,-5.14453 4.1679,-9.3164 9.3164,-9.3164 5.1445,0 9.3125,4.17187 9.3125,9.3164 z m 0,0"
     id="path138-6" /><g
     clip-path="url(#clip11-5)"
     clip-rule="nonzero"
     id="g144-1"
     style="fill:#c1282e;fill-opacity:1"
     transform="translate(517.60115,-440.47266)"><path
       style="fill:#c1282e;fill-opacity:1;fill-rule:nonzero;stroke:none"
       d="m 159.75781,528.10156 c 0,9.00391 -7.29687,16.30078 -16.30078,16.30078 -9.00391,0 -16.30469,-7.29687 -16.30469,-16.30078 0,-9.0039 7.30078,-16.30078 16.30469,-16.30078 9.00391,0 16.30078,7.29688 16.30078,16.30078 z m 0,0"
       id="path142-0" /></g><g
     clip-path="url(#clip13-6)"
     clip-rule="nonzero"
     id="g172-4"
     style="fill:#c1282e;fill-opacity:1"
     transform="translate(517.60115,-440.47266)"><path
       style="fill:#c1282e;fill-opacity:1;fill-rule:nonzero;stroke:none"
       d="m 414.06641,528.10156 c 0,9.00391 -7.30079,16.30078 -16.30079,16.30078 -9.0039,0 -16.30468,-7.29687 -16.30468,-16.30078 0,-9.0039 7.30078,-16.30078 16.30468,-16.30078 9,0 16.30079,7.29688 16.30079,16.30078 z m 0,0"
       id="path170-2" /></g><path
     style="fill:#0000a6;fill-opacity:1;fill-rule:nonzero;stroke:none"
     d="m 797.71834,16.30468 c 0,5.14453 -4.17188,9.3125 -9.31641,9.3125 -5.14453,0 -9.31641,-4.16797 -9.31641,-9.3125 0,-5.14453 4.17188,-9.3164 9.31641,-9.3164 5.14453,0 9.31641,4.17187 9.31641,9.3164 z m 0,0"
     id="path100-2" /><path
     style="fill:#0000a6;fill-opacity:1;fill-rule:nonzero;stroke:none"
     d="m 543.40974,16.30468 c 0,5.14453 -4.17187,9.3125 -9.3164,9.3125 -5.14454,0 -9.3125,-4.16797 -9.3125,-9.3125 0,-5.14453 4.16796,-9.3164 9.3125,-9.3164 5.14453,0 9.3164,4.17187 9.3164,9.3164 z m 0,0"
     id="path104-2" /><path
     style="fill:#0000a6;fill-opacity:1;fill-rule:nonzero;stroke:none"
     d="m 804.70271,16.30468 c 0,9.00391 -7.29687,16.30078 -16.30078,16.30078 -9.00391,0 -16.30078,-7.29687 -16.30078,-16.30078 C 772.10115,7.30078 779.39802,0 788.40193,0 c 9.00391,0 16.30078,7.30078 16.30078,16.30468 z m 0,0"
     id="path130-5" /><path
     style="fill:#0000a6;fill-opacity:1;fill-rule:nonzero;stroke:none"
     d="m 550.39802,16.30468 c 0,9.00391 -7.30078,16.30078 -16.30468,16.30078 -9.00391,0 -16.30079,-7.29687 -16.30079,-16.30078 C 517.79255,7.30078 525.08943,0 534.09334,0 c 9.0039,0 16.30468,7.30078 16.30468,16.30468 z m 0,0"
     id="path140-5" /><path
     style="fill:#000000;fill-opacity:1;fill-rule:nonzero;stroke:none"
     d="m 815.9307,390.33926 c 0,1.59375 0,3.90234 5.2539,3.90234 h 2.46485 c 0.95703,0 1.59375,0 1.59375,-1.19531 0,-1.19531 -0.63672,-1.19531 -1.35156,-1.19531 -3.10547,-0.0781 -3.10547,-0.71484 -3.10547,-1.91016 v -10.90625 c 0,-4.53515 -3.58203,-7.80078 -11.14453,-7.80078 -2.86719,0 -9.07813,0.23828 -9.07813,4.69922 0,2.22656 1.75391,3.18359 3.10547,3.18359 1.59375,0 3.26562,-1.11718 3.26562,-3.18359 0,-1.51562 -0.95703,-2.39062 -1.11718,-2.55078 1.43359,-0.23828 3.02734,-0.31641 3.66406,-0.31641 3.74219,0 5.57031,2.14844 5.57031,5.96875 v 1.75391 c -3.66015,0.15625 -16.55469,0.63672 -16.55469,7.96094 0,4.85547 6.36719,5.80859 9.8711,5.80859 4.05859,0 6.44531,-2.07031 7.5625,-4.21875 z m -0.87891,-7.96094 v 4.77735 c 0,4.9375 -4.69531,5.57422 -5.96875,5.57422 -2.54687,0 -4.61719,-1.75391 -4.61719,-4.0625 0,-5.41407 8.03907,-6.12891 10.58594,-6.28907 z m 0,0"
     id="path202" /><path
     style="fill:#000000;fill-opacity:1;fill-rule:nonzero;stroke:none"
     d="m 837.14164,379.24551 c 0,-0.95703 0,-0.95703 -1.03516,-0.95703 -2.30859,2.23047 -5.49219,2.23047 -6.92578,2.23047 v 1.27344 c 0.79687,0 3.1875,0 5.09765,-0.95704 v 18.07032 c 0,1.19531 0,1.67187 -3.5039,1.67187 h -1.35156 v 1.27344 c 0.63671,0 5.01562,-0.15625 6.28906,-0.15625 1.11328,0 5.57031,0.15625 6.36719,0.15625 v -1.27344 h -1.35157 c -3.58593,0 -3.58593,-0.47656 -3.58593,-1.67187 z m 0,0"
     id="path204" /><path
     style="fill:#000000;fill-opacity:1;fill-rule:nonzero;stroke:none"
     d="m 700.36429,474.40957 c 0,1.625 0,3.98438 5.36328,3.98438 h 2.51953 c 0.97657,0 1.625,0 1.625,-1.21875 0,-1.21875 -0.64843,-1.21875 -1.38281,-1.21875 -3.16797,-0.082 -3.16797,-0.73438 -3.16797,-1.95313 v -11.1289 c 0,-4.63282 -3.65625,-7.96094 -11.375,-7.96094 -2.92187,0 -9.26172,0.24219 -9.26172,4.79297 0,2.27344 1.78907,3.25 3.16797,3.25 1.625,0 3.33203,-1.14063 3.33203,-3.25 0,-1.54297 -0.97265,-2.4375 -1.13671,-2.60156 1.46093,-0.24219 3.08593,-0.32422 3.73828,-0.32422 3.8164,0 5.6875,2.19531 5.6875,6.09375 v 1.78515 c -3.73828,0.16407 -16.90235,0.65235 -16.90235,8.125 0,4.95703 6.5,5.9336 10.07813,5.9336 4.14062,0 6.57812,-2.11328 7.71484,-4.3086 z m -0.89062,-8.125 v 4.875 c 0,5.03907 -4.79297,5.6875 -6.09375,5.6875 -2.60157,0 -4.71485,-1.78515 -4.71485,-4.14062 0,-5.52735 8.20703,-6.25781 10.8086,-6.42188 z m 0,0"
     id="path206" /><path
     style="fill:#000000;fill-opacity:1;fill-rule:nonzero;stroke:none"
     d="m 728.19242,479.58145 h -1.21875 c -0.082,0.8125 -0.48828,2.92187 -0.97657,3.24609 -0.24218,0.2461 -3.0039,0.2461 -3.57421,0.2461 h -6.66407 c 3.82032,-3.33204 5.1211,-4.38672 7.23438,-6.09375 2.67969,-2.11329 5.19922,-4.38672 5.19922,-7.80079 0,-4.38671 -3.82032,-7.0664 -8.44922,-7.0664 -4.46875,0 -7.5586,3.16797 -7.5586,6.5 0,1.78515 1.54297,2.03125 1.94922,2.03125 0.8125,0 1.8711,-0.65235 1.8711,-1.95313 0,-0.64843 -0.2461,-1.94922 -2.11328,-1.94922 1.13671,-2.51953 3.57421,-3.33203 5.28125,-3.33203 3.65625,0 5.52343,2.84375 5.52343,5.76953 0,3.16797 -2.27343,5.60547 -3.41015,6.90625 l -8.69532,8.69532 c -0.40625,0.32422 -0.40625,0.40625 -0.40625,1.3789 h 14.94922 z m 0,0"
     id="path208" /><path
     style="fill:#000000;fill-opacity:1;fill-rule:nonzero;stroke:none"
     d="m 873.23148,472.90957 c 0,1.51953 0,3.71875 5.00781,3.71875 h 2.35151 c 0.9102,0 1.5196,0 1.5196,-1.13672 0,-1.14062 -0.6094,-1.14062 -1.2891,-1.14062 -2.96091,-0.0742 -2.96091,-0.67969 -2.96091,-1.82031 v -10.39844 c 0,-4.32422 -3.41407,-7.4375 -10.625,-7.4375 -2.73438,0 -8.65235,0.23047 -8.65235,4.48047 0,2.125 1.66797,3.03515 2.96094,3.03515 1.51562,0 3.10937,-1.0625 3.10937,-3.03515 0,-1.44531 -0.91015,-2.27735 -1.0625,-2.42969 1.36719,-0.22656 2.88672,-0.30469 3.49219,-0.30469 3.56641,0 5.3125,2.05078 5.3125,5.69141 v 1.67187 c -3.49219,0.15235 -15.78515,0.60547 -15.78515,7.58985 0,4.6289 6.07031,5.53906 9.41015,5.53906 3.8711,0 6.14844,-1.97266 7.21094,-4.02344 z m -0.83594,-7.58984 v 4.55469 c 0,4.70703 -4.47656,5.3125 -5.6914,5.3125 -2.42969,0 -4.40235,-1.66797 -4.40235,-3.8711 0,-5.16015 7.66406,-5.84375 10.09375,-5.99609 z m 0,0"
     id="path210" /><path
     style="fill:#000000;fill-opacity:1;fill-rule:nonzero;stroke:none"
     d="m 891.4073,472.57754 c 2.6562,0 4.5507,1.82031 4.5507,5.46485 0,4.17578 -2.5039,5.46484 -4.4023,5.46484 -1.3633,0 -4.3984,-0.37891 -5.7656,-2.42969 1.5937,0 1.9726,-1.13672 1.9726,-1.89844 0,-1.0625 -0.8359,-1.82031 -1.8984,-1.82031 -0.9102,0 -1.8945,0.60547 -1.8945,1.97266 0,3.1875 3.4882,5.23828 7.5859,5.23828 4.707,0 7.9687,-3.1875 7.9687,-6.52734 0,-2.65625 -2.125,-5.3125 -5.8437,-6.07032 3.4922,-1.29297 4.7812,-3.79687 4.7812,-5.92187 0,-2.65625 -3.0351,-4.62891 -6.8281,-4.62891 -3.7187,0 -6.6015,1.82031 -6.6015,4.55469 0,1.13672 0.7578,1.74609 1.7421,1.74609 1.0625,0 1.7461,-0.76172 1.7461,-1.67187 0,-0.98438 -0.6836,-1.7461 -1.7461,-1.82031 1.2149,-1.44141 3.4922,-1.82032 4.7813,-1.82032 1.5195,0 3.6445,0.75782 3.6445,3.64063 0,1.4414 -0.457,3.03515 -1.3672,4.02344 -1.0625,1.28906 -2.0468,1.36718 -3.7187,1.51562 -0.832,0.0781 -0.9102,0.0781 -1.0625,0.0781 -0.074,0 -0.3789,0.0742 -0.3789,0.45312 0,0.45703 0.3047,0.45703 0.9101,0.45703 z m 0,0"
     id="path212" /><path
     style="fill:#000000;fill-opacity:1;fill-rule:nonzero;stroke:#000000;stroke-width:3.0189;stroke-linecap:butt;stroke-linejoin:miter;stroke-miterlimit:4;stroke-opacity:1"
     d="M 669.07914,530.39785 789.76273,461.26504"
     id="path214" /><path
     style="fill:#000000;fill-opacity:1;fill-rule:evenodd;stroke:#000000;stroke-width:1.61008;stroke-linecap:butt;stroke-linejoin:miter;stroke-miterlimit:4;stroke-opacity:1"
     d="m 663.03226,533.8627 6.0625,-10.42969 5.99995,10.4766 z m 0,0"
     id="path216" /><path
     style="fill:#000000;fill-opacity:1;fill-rule:nonzero;stroke:#000000;stroke-width:3.0189;stroke-linecap:butt;stroke-linejoin:miter;stroke-miterlimit:4;stroke-opacity:1"
     d="M 910.9971,527.9252 789.76273,461.26504"
     id="path218" /><path
     style="fill:#000000;fill-opacity:1;fill-rule:evenodd;stroke:#000000;stroke-width:1.61008;stroke-linecap:butt;stroke-linejoin:miter;stroke-miterlimit:4;stroke-opacity:1"
     d="m 917.1026,531.28457 -12.0625,0.25782 5.8207,-10.58181 z m 0,0"
     id="path220" /><path
     style="fill:#000000;fill-opacity:1;fill-rule:nonzero;stroke:#000000;stroke-width:3.0189;stroke-linecap:butt;stroke-linejoin:miter;stroke-miterlimit:4;stroke-opacity:1"
     d="m 790.67679,323.01504 -0.91406,138.25"
     id="path222" /><path
     style="fill:#000000;fill-opacity:1;fill-rule:evenodd;stroke:#000000;stroke-width:1.61008;stroke-linecap:butt;stroke-linejoin:miter;stroke-miterlimit:4;stroke-opacity:1"
     d="m 790.72367,316.0502 5.96874,10.48437 -12.07812,-0.082 z m 0,0"
     id="path224" /></svg>
