<?xml version="1.0" encoding="UTF-8" standalone="no"?>
<svg
   width="933.76666pt"
   height="774.11932pt"
   viewBox="0 0 933.76671 774.11932"
   version="1.2"
   id="svg227"
   sodipodi:docname="kekule_schema.svg"
   inkscape:version="1.3.2 (091e20ef0f, 2023-11-25, custom)"
   xml:space="preserve"
   inkscape:export-filename="kekule_schema_3.png"
   inkscape:export-xdpi="96"
   inkscape:export-ydpi="96"
   xmlns:inkscape="http://www.inkscape.org/namespaces/inkscape"
   xmlns:sodipodi="http://sodipodi.sourceforge.net/DTD/sodipodi-0.dtd"
   xmlns="http://www.w3.org/2000/svg"
   xmlns:svg="http://www.w3.org/2000/svg"
   xmlns:rdf="http://www.w3.org/1999/02/22-rdf-syntax-ns#"
   xmlns:cc="http://creativecommons.org/ns#"
   xmlns:dc="http://purl.org/dc/elements/1.1/"><sodipodi:namedview
     pagecolor="#ffffff"
     bordercolor="#666666"
     borderopacity="1"
     objecttolerance="10"
     gridtolerance="10"
     guidetolerance="10"
     inkscape:pageopacity="0"
     inkscape:pageshadow="2"
     inkscape:window-width="1920"
     inkscape:window-height="1025"
     id="namedview229"
     showgrid="false"
     inkscape:zoom="0.41693546"
     inkscape:cx="743.52035"
     inkscape:cy="590.01938"
     inkscape:window-x="0"
     inkscape:window-y="31"
     inkscape:window-maximized="1"
     inkscape:current-layer="svg227"
     inkscape:showpageshadow="0"
     inkscape:pagecheckerboard="0"
     inkscape:deskcolor="#d1d1d1"
     inkscape:document-units="pt" /><metadata
     id="metadata231"><rdf:RDF><cc:Work
         rdf:about=""><dc:format>image/svg+xml</dc:format><dc:type
           rdf:resource="http://purl.org/dc/dcmitype/StillImage" /></cc:Work></rdf:RDF></metadata><defs
     id="defs50"><clipPath
       id="clip1"><path
         d="m 502,213 h 39.41016 V 331 H 502 Z m 0,0"
         id="path2" /></clipPath><clipPath
       id="clip2"><path
         d="M 375,0 H 541.41016 V 111 H 375 Z m 0,0"
         id="path5" /></clipPath><clipPath
       id="clip3"><path
         d="M 248,433 H 420 V 544.40234 H 248 Z m 0,0"
         id="path8" /></clipPath><clipPath
       id="clip4"><path
         d="M 0,433 H 165 V 544.40234 H 0 Z m 0,0"
         id="path11" /></clipPath><clipPath
       id="clip5"><path
         d="M 121,433 H 293 V 544.40234 H 121 Z m 0,0"
         id="path14" /></clipPath><clipPath
       id="clip6"><path
         d="M 375,433 H 541.41016 V 544.40234 H 375 Z m 0,0"
         id="path17" /></clipPath><clipPath
       id="clip7"><path
         d="m 502,433 h 39.41016 V 544.40234 H 502 Z m 0,0"
         id="path20" /></clipPath><clipPath
       id="clip8"><path
         d="M 0,433 H 38 V 544.40234 H 0 Z m 0,0"
         id="path23" /></clipPath><clipPath
       id="clip9"><path
         d="m 141,527 h 5 v 17.40234 h -5 z m 0,0"
         id="path26" /></clipPath><clipPath
       id="clip10"><path
         d="m 395,527 h 5 v 17.40234 h -5 z m 0,0"
         id="path29" /></clipPath><clipPath
       id="clip11"><path
         d="m 127,511 h 33 v 33.40234 h -33 z m 0,0"
         id="path32" /></clipPath><clipPath
       id="clip12"><path
         d="m 508,440 h 33.41016 v 34 H 508 Z m 0,0"
         id="path35" /></clipPath><clipPath
       id="clip13"><path
         d="m 381,511 h 34 v 33.40234 h -34 z m 0,0"
         id="path38" /></clipPath><clipPath
       id="clip14"><path
         d="m 502,0 h 39.41016 V 111 H 502 Z m 0,0"
         id="path41" /></clipPath><clipPath
       id="clip15"><path
         d="m 508,0 h 33.41016 V 33 H 508 Z m 0,0"
         id="path44" /></clipPath><clipPath
       id="clip16"><path
         d="m 508,291 h 33.41016 v 34 H 508 Z m 0,0"
         id="path47" /></clipPath><clipPath
       id="clip1-3"><path
         d="m 502,213 h 39.41016 V 331 H 502 Z m 0,0"
         id="path2-6" /></clipPath><clipPath
       id="clip2-7"><path
         d="M 375,0 H 541.41016 V 111 H 375 Z m 0,0"
         id="path5-5" /></clipPath><clipPath
       id="clip3-3"><path
         d="M 248,433 H 420 V 544.40234 H 248 Z m 0,0"
         id="path8-5" /></clipPath><clipPath
       id="clip4-6"><path
         d="M 0,433 H 165 V 544.40234 H 0 Z m 0,0"
         id="path11-2" /></clipPath><clipPath
       id="clip5-9"><path
         d="M 121,433 H 293 V 544.40234 H 121 Z m 0,0"
         id="path14-1" /></clipPath><clipPath
       id="clip6-2"><path
         d="M 375,433 H 541.41016 V 544.40234 H 375 Z m 0,0"
         id="path17-7" /></clipPath><clipPath
       id="clip7-0"><path
         d="m 502,433 h 39.41016 V 544.40234 H 502 Z m 0,0"
         id="path20-9" /></clipPath><clipPath
       id="clip8-3"><path
         d="M 0,433 H 38 V 544.40234 H 0 Z m 0,0"
         id="path23-6" /></clipPath><clipPath
       id="clip14-0"><path
         d="m 502,0 h 39.41016 V 111 H 502 Z m 0,0"
         id="path41-6" /></clipPath><clipPath
       id="clip9-2"><path
         d="m 141,527 h 5 v 17.40234 h -5 z m 0,0"
         id="path26-6" /></clipPath><clipPath
       id="clip10-1"><path
         d="m 395,527 h 5 v 17.40234 h -5 z m 0,0"
         id="path29-8" /></clipPath><clipPath
       id="clip11-7"><path
         d="m 127,511 h 33 v 33.40234 h -33 z m 0,0"
         id="path32-9" /></clipPath><clipPath
       id="clip13-2"><path
         d="m 381,511 h 34 v 33.40234 h -34 z m 0,0"
         id="path38-0" /></clipPath><clipPath
       id="clip16-2"><path
         d="m 508,291 h 33.41016 v 34 H 508 Z m 0,0"
         id="path47-3" /></clipPath><clipPath
       id="clip12-7"><path
         d="m 508,440 h 33.41016 v 34 H 508 Z m 0,0"
         id="path35-5" /></clipPath><clipPath
       id="clip15-9"><path
         d="m 508,0 h 33.41016 V 33 H 508 Z m 0,0"
         id="path44-2" /></clipPath><clipPath
       id="clip5-1"><path
         d="M 121,433 H 293 V 544.40234 H 121 Z m 0,0"
         id="path14-15" /></clipPath><clipPath
       id="clip5-1-3"><path
         d="M 121,433 H 293 V 544.40234 H 121 Z m 0,0"
         id="path14-15-6" /></clipPath><clipPath
       id="clip3-3-6"><path
         d="M 248,433 H 420 V 544.40234 H 248 Z m 0,0"
         id="path8-5-2" /></clipPath><clipPath
       id="clip5-9-8"><path
         d="M 121,433 H 293 V 544.40234 H 121 Z m 0,0"
         id="path14-1-4" /></clipPath><clipPath
       id="clip6-2-7"><path
         d="M 375,433 H 541.41016 V 544.40234 H 375 Z m 0,0"
         id="path17-7-2" /></clipPath><clipPath
       id="clip9-2-4"><path
         d="m 141,527 h 5 v 17.40234 h -5 z m 0,0"
         id="path26-6-0" /></clipPath><clipPath
       id="clip10-1-6"><path
         d="m 395,527 h 5 v 17.40234 h -5 z m 0,0"
         id="path29-8-2" /></clipPath><clipPath
       id="clip11-7-9"><path
         d="m 127,511 h 33 v 33.40234 h -33 z m 0,0"
         id="path32-9-9" /></clipPath><clipPath
       id="clip13-2-0"><path
         d="m 381,511 h 34 v 33.40234 h -34 z m 0,0"
         id="path38-0-8" /></clipPath><clipPath
       id="clip3-1"><path
         d="M 248,433 H 420 V 544.40234 H 248 Z m 0,0"
         id="path8-3" /></clipPath><clipPath
       id="clip4-1"><path
         d="M 0,433 H 165 V 544.40234 H 0 Z m 0,0"
         id="path11-1" /></clipPath><clipPath
       id="clip5-0"><path
         d="M 121,433 H 293 V 544.40234 H 121 Z m 0,0"
         id="path14-3" /></clipPath><clipPath
       id="clip6-4"><path
         d="M 375,433 H 541.41016 V 544.40234 H 375 Z m 0,0"
         id="path17-0" /></clipPath><clipPath
       id="clip7-3"><path
         d="m 502,433 h 39.41016 V 544.40234 H 502 Z m 0,0"
         id="path20-91" /></clipPath><clipPath
       id="clip8-9"><path
         d="M 0,433 H 38 V 544.40234 H 0 Z m 0,0"
         id="path23-69" /></clipPath><clipPath
       id="clip9-3"><path
         d="m 141,527 h 5 v 17.40234 h -5 z m 0,0"
         id="path26-3" /></clipPath><clipPath
       id="clip10-8"><path
         d="m 395,527 h 5 v 17.40234 h -5 z m 0,0"
         id="path29-0" /></clipPath><clipPath
       id="clip11-5"><path
         d="m 127,511 h 33 v 33.40234 h -33 z m 0,0"
         id="path32-6" /></clipPath><clipPath
       id="clip13-6"><path
         d="m 381,511 h 34 v 33.40234 h -34 z m 0,0"
         id="path38-4" /></clipPath><clipPath
       id="clip12-0"><path
         d="m 508,440 h 33.41016 v 34 H 508 Z m 0,0"
         id="path35-0" /></clipPath><clipPath
       id="clip5-1-38"><path
         d="M 121,433 H 293 V 544.40234 H 121 Z m 0,0"
         id="path14-15-0" /></clipPath></defs><path
     style="fill:#000000;stroke:#b8b8b8;stroke-width:3.86929;stroke-linecap:butt;stroke-linejoin:miter;stroke-miterlimit:4;stroke-dasharray:3.86929, 3.86929;stroke-opacity:1;fill-opacity:1"
     d="M 792.17227,314.25 V 461.07422"
     id="path64-1-4" /><path
     style="fill:#000000;stroke:#b8b8b8;stroke-width:3.86929;stroke-linecap:butt;stroke-linejoin:miter;stroke-miterlimit:4;stroke-dasharray:3.86929, 3.86929;stroke-opacity:1;fill-opacity:1"
     d="M 918.74809,536.15184 791.59575,462.73778"
     id="path72-0" /><g
     clip-path="url(#clip5-1-38)"
     clip-rule="nonzero"
     id="g98-7-9"
     transform="translate(516.90235,9.0109)"
     style="fill:#000000;fill-opacity:1"><path
       style="fill:#000000;stroke:#b8b8b8;stroke-width:3.86929;stroke-linecap:butt;stroke-linejoin:miter;stroke-miterlimit:4;stroke-dasharray:3.86929, 3.86929;stroke-opacity:1;fill-opacity:1"
       d="M 270.25,455.62109 143.09766,529.03516"
       id="path96-7-1" /></g><path
     style="fill:#000000;stroke:#b8b8b8;stroke-width:3.86929;stroke-linecap:butt;stroke-linejoin:miter;stroke-miterlimit:4;stroke-dasharray:3.86929, 3.86929;stroke-opacity:1;fill-opacity:1"
     d="M 407.76155,537.91312 280.60921,464.49906"
     id="path72-6" /><g
     clip-path="url(#clip5-1-3)"
     clip-rule="nonzero"
     id="g98-7-3"
     transform="translate(5.91581,10.77218)"
     style="fill:#000000;fill-opacity:1"><path
       style="fill:#000000;stroke:#b8b8b8;stroke-width:3.86929;stroke-linecap:butt;stroke-linejoin:miter;stroke-miterlimit:4;stroke-dasharray:3.86929, 3.86929;stroke-opacity:1;fill-opacity:1"
       d="M 270.25,455.62109 143.09766,529.03516"
       id="path96-7-9" /></g><g
     clip-path="url(#clip2-7)"
     clip-rule="nonzero"
     id="g58-7"
     transform="translate(-120.2867,229.71697)"
     style="fill:#000000;fill-opacity:1"><path
       style="fill:#000000;stroke:#b8b8b8;stroke-width:3.86929;stroke-linecap:butt;stroke-linejoin:miter;stroke-miterlimit:4;stroke-dasharray:3.86929, 3.86929;stroke-opacity:1;fill-opacity:1"
       d="M 397.40625,88.558594 524.55859,15.148438"
       id="path56-3" /></g><g
     clip-path="url(#clip3-3)"
     clip-rule="nonzero"
     id="g62-6"
     transform="translate(-120.2867,229.71697)"
     style="fill:#000000;fill-opacity:1"><path
       style="fill:#000000;stroke:#b8b8b8;stroke-width:3.86929;stroke-linecap:butt;stroke-linejoin:miter;stroke-miterlimit:4;stroke-dasharray:3.86929, 3.86929;stroke-opacity:1;fill-opacity:1"
       d="M 397.40625,529.03516 270.25,455.62109"
       id="path60-1" /></g><path
     style="fill:#000000;stroke:#b8b8b8;stroke-width:3.86929;stroke-linecap:butt;stroke-linejoin:miter;stroke-miterlimit:4;stroke-dasharray:3.86929, 3.86929;stroke-opacity:1;fill-opacity:1"
     d="M 149.9633,538.51385 V 685.33807"
     id="path64-2" /><path
     style="fill:#000000;stroke:#b8b8b8;stroke-width:3.86929;stroke-linecap:butt;stroke-linejoin:miter;stroke-miterlimit:4;stroke-dasharray:3.86929, 3.86929;stroke-opacity:1;fill-opacity:1"
     d="M 277.12814,316.40665 V 463.23088"
     id="path64-2-7" /><path
     style="fill:#000000;stroke:#b8b8b8;stroke-width:3.86929;stroke-linecap:butt;stroke-linejoin:miter;stroke-miterlimit:4;stroke-dasharray:3.86929, 3.86929;stroke-opacity:1;fill-opacity:1"
     d="M 23.07433,319.03238 V 465.85661"
     id="path64-2-7-8" /><path
     style="fill:#000000;stroke:#b8b8b8;stroke-width:3.86929;stroke-linecap:butt;stroke-linejoin:miter;stroke-miterlimit:4;stroke-dasharray:3.86929, 3.86929;stroke-opacity:1;fill-opacity:1"
     d="m 149.9633,244.86541 127.15625,73.41015"
     id="path68-3" /><path
     style="fill:#000000;stroke:#b8b8b8;stroke-width:4.15276;stroke-linecap:butt;stroke-linejoin:miter;stroke-miterlimit:4;stroke-dasharray:4.15276, 4.15276;stroke-opacity:1;fill-opacity:1"
     d="M 22.81096,318.27556 149.9633,244.86541"
     id="path70-1" /><path
     style="fill:#000000;stroke:#b8b8b8;stroke-width:3.86929;stroke-linecap:butt;stroke-linejoin:miter;stroke-miterlimit:4;stroke-dasharray:3.86929, 3.86929;stroke-opacity:1;fill-opacity:1"
     d="M 149.9633,538.51385 22.81096,465.09979"
     id="path72-9" /><path
     style="fill:#000000;fill-opacity:1;fill-rule:nonzero;stroke:none"
     d="m 286.98283,466.25604 c 0,5.14453 -4.16797,9.31641 -9.31641,9.31641 -5.14453,0 -9.3125,-4.17188 -9.3125,-9.31641 0,-5.14453 4.16797,-9.3164 9.3125,-9.3164 5.14844,0 9.31641,4.17187 9.31641,9.3164 z m 0,0"
     id="path76-4" /><g
     clip-path="url(#clip5-9)"
     clip-rule="nonzero"
     id="g98-5"
     transform="translate(-120.2867,229.71697)"
     style="fill:#000000;fill-opacity:1"><path
       style="fill:#000000;stroke:#b8b8b8;stroke-width:3.86929;stroke-linecap:butt;stroke-linejoin:miter;stroke-miterlimit:4;stroke-dasharray:3.86929, 3.86929;stroke-opacity:1;fill-opacity:1"
       d="M 270.25,455.62109 143.09766,529.03516"
       id="path96-0" /></g><g
     clip-path="url(#clip6-2)"
     clip-rule="nonzero"
     id="g112-1"
     transform="translate(-120.2867,229.71697)"
     style="fill:#000000;fill-opacity:1"><path
       style="fill:#000000;stroke:#b8b8b8;stroke-width:3.86929;stroke-linecap:butt;stroke-linejoin:miter;stroke-miterlimit:4;stroke-dasharray:3.86929, 3.86929;stroke-opacity:1;fill-opacity:1"
       d="M 524.55859,455.62109 397.40625,529.03516"
       id="path110-0" /></g><path
     style="fill:#000000;stroke:#b8b8b8;stroke-width:3.86929;stroke-linecap:butt;stroke-linejoin:miter;stroke-miterlimit:4;stroke-dasharray:3.86929, 3.86929;stroke-opacity:1;fill-opacity:1"
     d="M 149.9633,98.0412 V 244.86541"
     id="path152-1" /><path
     style="fill:#000000;fill-opacity:1;fill-rule:nonzero;stroke:none"
     d="m 286.98283,319.41619 c 0,5.14453 -4.16797,9.31641 -9.31641,9.31641 -5.14453,0 -9.3125,-4.17188 -9.3125,-9.31641 0,-5.14453 4.16797,-9.31641 9.3125,-9.31641 5.14844,0 9.31641,4.17188 9.31641,9.31641 z m 0,0"
     id="path74-6" /><path
     style="fill:#000000;fill-opacity:1;fill-rule:nonzero;stroke:none"
     d="m 166.62346,537.58026 c 0,9.00391 -7.29688,16.30469 -16.30079,16.30469 -9.0039,0 -16.30078,-7.30078 -16.30078,-16.30469 0,-9 7.29688,-16.30078 16.30078,-16.30078 9.00391,0 16.30079,7.30078 16.30079,16.30078 z m 0,0"
     id="path78-5" /><path
     style="fill:#000000;fill-opacity:1;fill-rule:nonzero;stroke:none"
     d="m 32.67424,319.41619 c 0,5.14453 -4.16797,9.31641 -9.3125,9.31641 -5.14453,0 -9.31641,-4.17188 -9.31641,-9.31641 0,-5.14453 4.17188,-9.31641 9.31641,-9.31641 5.14453,0 9.3125,4.17188 9.3125,9.31641 z m 0,0"
     id="path84-6" /><path
     style="fill:#000000;fill-opacity:1;fill-rule:nonzero;stroke:none"
     d="m 32.48674,757.81854 c 0,5.14453 -4.17188,9.31641 -9.31641,9.31641 -5.14453,0 -9.31641,-4.17188 -9.31641,-9.31641 0,-5.14453 4.17188,-9.3164 9.31641,-9.3164 5.14453,0 9.31641,4.17187 9.31641,9.3164 z m 0,0"
     id="path102-3" /><path
     style="fill:#000000;fill-opacity:1;fill-rule:nonzero;stroke:none"
     d="m 286.79142,757.81854 c 0,5.14453 -4.16796,9.31641 -9.3125,9.31641 -5.14843,0 -9.3164,-4.17188 -9.3164,-9.31641 0,-5.14453 4.16797,-9.3164 9.3164,-9.3164 5.14454,0 9.3125,4.17187 9.3125,9.3164 z m 0,0"
     id="path116-7" /><g
     clip-path="url(#clip9-2)"
     clip-rule="nonzero"
     id="g128-4"
     style="fill:#000000;fill-opacity:1"
     transform="translate(-120.2867,229.71697)"><path
       style="fill:#000000;fill-opacity:1;stroke:#b8b8b8;stroke-width:3.86929;stroke-linecap:butt;stroke-linejoin:miter;stroke-miterlimit:4;stroke-dasharray:3.86929, 3.86929;stroke-opacity:1"
       d="M 143.09766,529.03516 V 675.85937"
       id="path126-5" /></g><path
     style="fill:#000000;fill-opacity:1;fill-rule:nonzero;stroke:none"
     d="m 32.48674,757.81854 c 0,5.14453 -4.17188,9.31641 -9.31641,9.31641 -5.14453,0 -9.31641,-4.17188 -9.31641,-9.31641 0,-5.14453 4.17188,-9.3164 9.31641,-9.3164 5.14453,0 9.31641,4.17187 9.31641,9.3164 z m 0,0"
     id="path132-2" /><g
     clip-path="url(#clip10-1)"
     clip-rule="nonzero"
     id="g136-5"
     style="fill:#000000;fill-opacity:1"
     transform="translate(-120.2867,229.71697)"><path
       style="fill:#000000;fill-opacity:1;stroke:#b8b8b8;stroke-width:3.86929;stroke-linecap:butt;stroke-linejoin:miter;stroke-miterlimit:4;stroke-dasharray:3.86929, 3.86929;stroke-opacity:1"
       d="M 397.40625,529.03516 V 675.85937"
       id="path134-4" /></g><path
     style="fill:#000000;fill-opacity:1;fill-rule:nonzero;stroke:none"
     d="m 286.79142,757.81854 c 0,5.14453 -4.16796,9.31641 -9.3125,9.31641 -5.14843,0 -9.3164,-4.17188 -9.3164,-9.31641 0,-5.14453 4.16797,-9.3164 9.3164,-9.3164 5.14454,0 9.3125,4.17187 9.3125,9.3164 z m 0,0"
     id="path138-7" /><g
     clip-path="url(#clip11-7)"
     clip-rule="nonzero"
     id="g144-4"
     style="fill:#000000;fill-opacity:1"
     transform="translate(-120.2867,229.71697)"><path
       style="fill:#000000;fill-opacity:1;fill-rule:nonzero;stroke:none"
       d="m 159.75781,528.10156 c 0,9.00391 -7.29687,16.30078 -16.30078,16.30078 -9.00391,0 -16.30469,-7.29687 -16.30469,-16.30078 0,-9.0039 7.30078,-16.30078 16.30469,-16.30078 9.00391,0 16.30078,7.29688 16.30078,16.30078 z m 0,0"
       id="path142-4" /></g><path
     style="fill:#000000;fill-opacity:1;fill-rule:nonzero;stroke:none"
     d="m 39.47111,317.34588 c 0,9.0039 -7.29687,16.30079 -16.30078,16.30079 -9.00391,0 -16.30469,-7.29689 -16.30469,-16.30079 0,-9.00391 7.30078,-16.30469 16.30469,-16.30469 9.00391,0 16.30078,7.30078 16.30078,16.30469 z m 0,0"
     id="path156-3" /><path
     style="fill:#000000;fill-opacity:1;fill-rule:nonzero;stroke:none"
     d="m 286.79142,317.34588 c 0,5.14453 -4.16796,9.3125 -9.3125,9.3125 -5.14843,0 -9.3164,-4.16797 -9.3164,-9.3125 0,-5.14453 4.16797,-9.31641 9.3164,-9.31641 5.14454,0 9.3125,4.17188 9.3125,9.31641 z m 0,0"
     id="path164-0" /><g
     clip-path="url(#clip13-2)"
     clip-rule="nonzero"
     id="g172-7"
     style="fill:#000000;fill-opacity:1"
     transform="translate(-120.2867,229.71697)"><path
       style="fill:#000000;fill-opacity:1;fill-rule:nonzero;stroke:none"
       d="m 414.06641,528.10156 c 0,9.00391 -7.30079,16.30078 -16.30079,16.30078 -9.0039,0 -16.30468,-7.29687 -16.30468,-16.30078 0,-9.0039 7.30078,-16.30078 16.30468,-16.30078 9,0 16.30079,7.29688 16.30079,16.30078 z m 0,0"
       id="path170-8" /></g><path
     style="fill:#000000;fill-opacity:1;fill-rule:nonzero;stroke:none"
     d="m 293.77971,317.34588 c 0,9.0039 -7.30079,16.30079 -16.30079,16.30079 -9.0039,0 -16.30468,-7.29689 -16.30468,-16.30079 0,-9.00391 7.30078,-16.30469 16.30468,-16.30469 9,0 16.30079,7.30078 16.30079,16.30469 z m 0,0"
     id="path182-6" /><path
     style="fill:#000000;fill-opacity:1;fill-rule:nonzero;stroke:none"
     d="m 159.04142,247.34197 c 0,5.14453 -4.17187,9.31641 -9.3164,9.31641 -5.14453,0 -9.31641,-4.17188 -9.31641,-9.31641 0,-5.14453 4.17188,-9.3125 9.31641,-9.3125 5.14453,0 9.3164,4.16797 9.3164,9.3125 z m 0,0"
     id="path80-9" /><path
     style="fill:#000000;fill-opacity:1;fill-rule:nonzero;stroke:none"
     d="m 39.66252,466.25604 c 0,9.00391 -7.29688,16.30078 -16.30078,16.30078 -9.00391,0 -16.30469,-7.29687 -16.30469,-16.30078 0,-9.0039 7.30078,-16.30078 16.30469,-16.30078 9.0039,0 16.30078,7.29688 16.30078,16.30078 z m 0,0"
     id="path86-2" /><path
     style="fill:#000000;fill-opacity:1;fill-rule:nonzero;stroke:none"
     d="m 159.83049,686.49432 c 0,5.14453 -4.17188,9.3125 -9.31641,9.3125 -5.14453,0 -9.31641,-4.16797 -9.31641,-9.3125 0,-5.14453 4.17188,-9.3164 9.31641,-9.3164 5.14453,0 9.31641,4.17187 9.31641,9.3164 z m 0,0"
     id="path100-6" /><path
     style="fill:#000000;fill-opacity:1;fill-rule:nonzero;stroke:none"
     d="m 166.81486,686.49432 c 0,9.00391 -7.29687,16.30078 -16.30078,16.30078 -9.00391,0 -16.30078,-7.29687 -16.30078,-16.30078 0,-9.0039 7.29687,-16.30468 16.30078,-16.30468 9.00391,0 16.30078,7.30078 16.30078,16.30468 z m 0,0"
     id="path130-2" /><path
     style="fill:#000000;fill-opacity:1;fill-rule:nonzero;stroke:none"
     d="m 159.83049,246.01775 c 0,5.14453 -4.17188,9.31641 -9.31641,9.31641 -5.14453,0 -9.31641,-4.17188 -9.31641,-9.31641 0,-5.14453 4.17188,-9.3125 9.31641,-9.3125 5.14453,0 9.31641,4.16797 9.31641,9.3125 z m 0,0"
     id="path154-9" /><path
     style="fill:#000000;fill-opacity:1;fill-rule:nonzero;stroke:none"
     d="m 166.81486,246.01775 c 0,9.00391 -7.29687,16.30469 -16.30078,16.30469 -9.00391,0 -16.30078,-7.30078 -16.30078,-16.30469 0,-9.0039 7.29687,-16.30078 16.30078,-16.30078 9.00391,0 16.30078,7.29688 16.30078,16.30078 z m 0,0"
     id="path158-5" /><path
     style="fill:#000000;fill-opacity:1;fill-rule:nonzero;stroke:none"
     d="m 293.97111,466.25604 c 0,9.00391 -7.30078,16.30078 -16.30469,16.30078 -9,0 -16.30078,-7.29687 -16.30078,-16.30078 0,-9.0039 7.30078,-16.30078 16.30078,-16.30078 9.00391,0 16.30469,7.29688 16.30469,16.30078 z m 0,0"
     id="path184-7" /><path
     style="fill:#000000;stroke:#b8b8b8;stroke-width:3.86929;stroke-linecap:butt;stroke-linejoin:miter;stroke-miterlimit:4;stroke-dasharray:3.86929, 3.86929;stroke-opacity:1;fill-opacity:1"
     d="M 146.39591,94.20849 19.24357,20.79443"
     id="path72-6-2" /><path
     style="fill:#000000;fill-opacity:1;fill-rule:nonzero;stroke:none"
     d="m 32.60547,22.55141 c 0,9.00391 -7.30078,16.30078 -16.30469,16.30078 C 7.30078,38.85219 0,31.55532 0,22.55141 0,13.54751 7.30078,6.25063 16.30078,6.25063 c 9.00391,0 16.30469,7.29688 16.30469,16.30078 z m 0,0"
     id="path184-7-8" /><path
     style="fill:#000000;stroke:#b8b8b8;stroke-width:3.86929;stroke-linecap:butt;stroke-linejoin:miter;stroke-miterlimit:4;stroke-dasharray:3.86929, 3.86929;stroke-opacity:1;fill-opacity:1"
     d="M 536.03066,312.77726 V 459.60148"
     id="path64-1" /><g
     clip-path="url(#clip1)"
     clip-rule="nonzero"
     id="g54"
     transform="translate(392.35648,225.88223)"
     style="fill:#000000;fill-opacity:1"><path
       style="fill:#000000;stroke:#b8b8b8;stroke-width:3.86929;stroke-linecap:butt;stroke-linejoin:miter;stroke-miterlimit:4;stroke-dasharray:3.86929, 3.86929;stroke-opacity:1;fill-opacity:1"
       d="M 524.55859,308.79687 651.71094,235.38281"
       id="path52" /></g><g
     clip-path="url(#clip2)"
     clip-rule="nonzero"
     id="g58"
     transform="translate(392.35648,225.88223)"
     style="fill:#000000;fill-opacity:1"><path
       style="fill:#000000;stroke:#b8b8b8;stroke-width:3.86929;stroke-linecap:butt;stroke-linejoin:miter;stroke-miterlimit:4;stroke-dasharray:3.86929, 3.86929;stroke-opacity:1;fill-opacity:1"
       d="M 397.40625,88.558594 524.55859,15.148438"
       id="path56" /></g><g
     clip-path="url(#clip3)"
     clip-rule="nonzero"
     id="g62"
     transform="translate(392.35648,225.88223)"
     style="fill:#000000;fill-opacity:1"><path
       style="fill:#000000;stroke:#b8b8b8;stroke-width:3.86929;stroke-linecap:butt;stroke-linejoin:miter;stroke-miterlimit:4;stroke-dasharray:3.86929, 3.86929;stroke-opacity:1;fill-opacity:1"
       d="M 397.40625,529.03516 270.25,455.62109"
       id="path60" /></g><path
     style="fill:#000000;stroke:#b8b8b8;stroke-width:3.86929;stroke-linecap:butt;stroke-linejoin:miter;stroke-miterlimit:4;stroke-dasharray:3.86929, 3.86929;stroke-opacity:1;fill-opacity:1"
     d="M 662.60648,534.6791 V 681.50332"
     id="path64" /><path
     style="fill:#000000;stroke:#b8b8b8;stroke-width:3.86929;stroke-linecap:butt;stroke-linejoin:miter;stroke-miterlimit:4;stroke-dasharray:3.86929, 3.86929;stroke-opacity:1;fill-opacity:1"
     d="M 408.29789,534.6791 V 681.50332"
     id="path66" /><path
     style="fill:#000000;stroke:#b8b8b8;stroke-width:3.86929;stroke-linecap:butt;stroke-linejoin:miter;stroke-miterlimit:4;stroke-dasharray:3.86929, 3.86929;stroke-opacity:1;fill-opacity:1"
     d="m 662.60648,241.03067 127.15625,73.41015"
     id="path68" /><path
     style="fill:#000000;stroke:#b8b8b8;stroke-width:3.86929;stroke-linecap:butt;stroke-linejoin:miter;stroke-miterlimit:4;stroke-dasharray:3.86929, 3.86929;stroke-opacity:1;fill-opacity:1"
     d="m 414.86501,241.8077 127.15625,73.41016"
     id="path68-7" /><path
     style="fill:#000000;stroke:#b8b8b8;stroke-width:4.15276;stroke-linecap:butt;stroke-linejoin:miter;stroke-miterlimit:4;stroke-dasharray:4.15276, 4.15276;stroke-opacity:1;fill-opacity:1"
     d="M 535.45414,314.44082 662.60648,241.03067"
     id="path70" /><path
     style="fill:#000000;stroke:#b8b8b8;stroke-width:3.86929;stroke-linecap:butt;stroke-linejoin:miter;stroke-miterlimit:4;stroke-dasharray:3.86929, 3.86929;stroke-opacity:1;fill-opacity:1"
     d="M 662.60648,534.6791 535.45414,461.26504"
     id="path72" /><path
     style="fill:#000000;fill-opacity:1;fill-rule:nonzero;stroke:none"
     d="m 799.62601,462.42129 c 0,5.14453 -4.16797,9.31641 -9.31641,9.31641 -5.14453,0 -9.3125,-4.17188 -9.3125,-9.31641 0,-5.14453 4.16797,-9.3164 9.3125,-9.3164 5.14844,0 9.31641,4.17187 9.31641,9.3164 z m 0,0"
     id="path76" /><g
     clip-path="url(#clip4)"
     clip-rule="nonzero"
     id="g94"
     transform="translate(392.35648,225.88223)"
     style="fill:#000000;fill-opacity:1"><path
       style="fill:#000000;stroke:#b8b8b8;stroke-width:3.86929;stroke-linecap:butt;stroke-linejoin:miter;stroke-miterlimit:4;stroke-dasharray:3.86929, 3.86929;stroke-opacity:1;fill-opacity:1"
       d="M 143.09766,529.03516 15.941406,455.62109"
       id="path92" /></g><g
     clip-path="url(#clip5)"
     clip-rule="nonzero"
     id="g98"
     transform="translate(392.35648,225.88223)"
     style="fill:#000000;fill-opacity:1"><path
       style="fill:#000000;stroke:#b8b8b8;stroke-width:3.86929;stroke-linecap:butt;stroke-linejoin:miter;stroke-miterlimit:4;stroke-dasharray:3.86929, 3.86929;stroke-opacity:1;fill-opacity:1"
       d="M 270.25,455.62109 143.09766,529.03516"
       id="path96" /></g><g
     clip-path="url(#clip5-1)"
     clip-rule="nonzero"
     id="g98-7"
     transform="translate(260.76074,7.53816)"
     style="fill:#000000;fill-opacity:1"><path
       style="fill:#000000;stroke:#b8b8b8;stroke-width:3.86929;stroke-linecap:butt;stroke-linejoin:miter;stroke-miterlimit:4;stroke-dasharray:3.86929, 3.86929;stroke-opacity:1;fill-opacity:1"
       d="M 270.25,455.62109 143.09766,529.03516"
       id="path96-7" /></g><path
     style="fill:#000000;stroke:#b8b8b8;stroke-width:3.86929;stroke-linecap:butt;stroke-linejoin:miter;stroke-miterlimit:4;stroke-dasharray:3.86929, 3.86929;stroke-opacity:1;fill-opacity:1"
     d="M 916.9151,534.6791 V 681.50332"
     id="path106" /><path
     style="fill:#000000;fill-opacity:1;fill-rule:nonzero;stroke:none"
     d="m 926.5908,533.74551 c 0,5.14453 -4.1718,9.31641 -9.3164,9.31641 -5.1445,0 -9.3164,-4.17188 -9.3164,-9.31641 0,-5.14453 4.1719,-9.3125 9.3164,-9.3125 5.1446,0 9.3164,4.16797 9.3164,9.3125 z m 0,0"
     id="path108" /><g
     clip-path="url(#clip6)"
     clip-rule="nonzero"
     id="g112"
     transform="translate(392.35648,225.88223)"
     style="fill:#000000;fill-opacity:1"><path
       style="fill:#000000;stroke:#b8b8b8;stroke-width:3.86929;stroke-linecap:butt;stroke-linejoin:miter;stroke-miterlimit:4;stroke-dasharray:3.86929, 3.86929;stroke-opacity:1;fill-opacity:1"
       d="M 524.55859,455.62109 397.40625,529.03516"
       id="path110" /></g><g
     clip-path="url(#clip7)"
     clip-rule="nonzero"
     id="g120"
     transform="translate(392.35648,225.88223)"
     style="fill:#000000;fill-opacity:1"><path
       style="fill:#000000;stroke:#b8b8b8;stroke-width:3.86929;stroke-linecap:butt;stroke-linejoin:miter;stroke-miterlimit:4;stroke-dasharray:3.86929, 3.86929;stroke-opacity:1;fill-opacity:1"
       d="M 651.71094,529.03516 524.55859,455.62109"
       id="path118" /></g><g
     clip-path="url(#clip8)"
     clip-rule="nonzero"
     id="g124"
     transform="translate(392.35648,225.88223)"
     style="fill:#000000;fill-opacity:1"><path
       style="fill:#000000;stroke:#b8b8b8;stroke-width:3.86929;stroke-linecap:butt;stroke-linejoin:miter;stroke-miterlimit:4;stroke-dasharray:3.86929, 3.86929;stroke-opacity:1;fill-opacity:1"
       d="M 15.941406,455.62109 -111.21094,529.03516"
       id="path122" /></g><path
     style="fill:#000000;stroke:#b8b8b8;stroke-width:3.86929;stroke-linecap:butt;stroke-linejoin:miter;stroke-miterlimit:4;stroke-dasharray:3.86929, 3.86929;stroke-opacity:1;fill-opacity:1"
     d="M 408.29789,94.20645 V 241.03067"
     id="path146" /><path
     style="fill:#000000;stroke:#b8b8b8;stroke-width:3.86929;stroke-linecap:butt;stroke-linejoin:miter;stroke-miterlimit:4;stroke-dasharray:3.86929, 3.86929;stroke-opacity:1;fill-opacity:1"
     d="M 662.60648,94.20645 V 241.03067"
     id="path152" /><path
     style="fill:#000000;stroke:#b8b8b8;stroke-width:3.86929;stroke-linecap:butt;stroke-linejoin:miter;stroke-miterlimit:4;stroke-dasharray:3.86929, 3.86929;stroke-opacity:1;fill-opacity:1"
     d="M 916.9151,94.20645 V 241.03067"
     id="path160" /><g
     clip-path="url(#clip14)"
     clip-rule="nonzero"
     id="g176"
     transform="translate(392.35648,225.88223)"
     style="fill:#000000;fill-opacity:1"><path
       style="fill:#000000;stroke:#b8b8b8;stroke-width:3.86929;stroke-linecap:butt;stroke-linejoin:miter;stroke-miterlimit:4;stroke-dasharray:3.86929, 3.86929;stroke-opacity:1;fill-opacity:1"
       d="M 651.71094,88.558594 524.55859,15.148438"
       id="path174" /></g><path
     style="fill:#000000;fill-opacity:1;fill-rule:nonzero;stroke:none"
     d="m 799.62601,315.58145 c 0,5.14453 -4.16797,9.3164 -9.31641,9.3164 -5.14453,0 -9.3125,-4.17187 -9.3125,-9.3164 0,-5.14453 4.16797,-9.31641 9.3125,-9.31641 5.14844,0 9.31641,4.17188 9.31641,9.31641 z m 0,0"
     id="path74" /><path
     style="fill:#000000;fill-opacity:1;fill-rule:nonzero;stroke:none"
     d="m 679.26664,533.74551 c 0,9.00391 -7.29688,16.30469 -16.30079,16.30469 -9.0039,0 -16.30078,-7.30078 -16.30078,-16.30469 0,-9 7.29688,-16.30078 16.30078,-16.30078 9.00391,0 16.30079,7.30078 16.30079,16.30078 z m 0,0"
     id="path78" /><path
     style="fill:#000000;fill-opacity:1;fill-rule:nonzero;stroke:none"
     d="m 545.31742,315.58145 c 0,5.14453 -4.16797,9.3164 -9.3125,9.3164 -5.14453,0 -9.31641,-4.17187 -9.31641,-9.3164 0,-5.14453 4.17188,-9.31641 9.31641,-9.31641 5.14453,0 9.3125,4.17188 9.3125,9.31641 z m 0,0"
     id="path84" /><path
     style="fill:#000000;fill-opacity:1;fill-rule:nonzero;stroke:none"
     d="m 424.96195,533.74551 c 0,9.00391 -7.30078,16.30469 -16.30469,16.30469 -9.00391,0 -16.30078,-7.30078 -16.30078,-16.30469 0,-9 7.29687,-16.30078 16.30078,-16.30078 9.00391,0 16.30469,7.30078 16.30469,16.30078 z m 0,0"
     id="path88" /><path
     style="fill:#000000;fill-opacity:1;fill-rule:nonzero;stroke:none"
     d="m 545.12992,753.98379 c 0,5.14453 -4.17188,9.31641 -9.31641,9.31641 -5.14453,0 -9.31641,-4.17188 -9.31641,-9.31641 0,-5.14453 4.17188,-9.3164 9.31641,-9.3164 5.14453,0 9.31641,4.17187 9.31641,9.3164 z m 0,0"
     id="path102" /><path
     style="fill:#000000;fill-opacity:1;fill-rule:nonzero;stroke:none"
     d="m 799.4346,753.98379 c 0,5.14453 -4.16796,9.31641 -9.3125,9.31641 -5.14843,0 -9.3164,-4.17188 -9.3164,-9.31641 0,-5.14453 4.16797,-9.3164 9.3164,-9.3164 5.14454,0 9.3125,4.17187 9.3125,9.3164 z m 0,0"
     id="path116" /><g
     clip-path="url(#clip9)"
     clip-rule="nonzero"
     id="g128"
     style="fill:#000000;fill-opacity:1"
     transform="translate(392.35648,225.88223)"><path
       style="fill:#000000;fill-opacity:1;stroke:#b8b8b8;stroke-width:3.86929;stroke-linecap:butt;stroke-linejoin:miter;stroke-miterlimit:4;stroke-dasharray:3.86929, 3.86929;stroke-opacity:1"
       d="M 143.09766,529.03516 V 675.85937"
       id="path126" /></g><path
     style="fill:#000000;fill-opacity:1;fill-rule:nonzero;stroke:none"
     d="m 545.12992,753.98379 c 0,5.14453 -4.17188,9.31641 -9.31641,9.31641 -5.14453,0 -9.31641,-4.17188 -9.31641,-9.31641 0,-5.14453 4.17188,-9.3164 9.31641,-9.3164 5.14453,0 9.31641,4.17187 9.31641,9.3164 z m 0,0"
     id="path132" /><g
     clip-path="url(#clip10)"
     clip-rule="nonzero"
     id="g136"
     style="fill:#000000;fill-opacity:1"
     transform="translate(392.35648,225.88223)"><path
       style="fill:#000000;fill-opacity:1;stroke:#b8b8b8;stroke-width:3.86929;stroke-linecap:butt;stroke-linejoin:miter;stroke-miterlimit:4;stroke-dasharray:3.86929, 3.86929;stroke-opacity:1"
       d="M 397.40625,529.03516 V 675.85937"
       id="path134" /></g><path
     style="fill:#000000;fill-opacity:1;fill-rule:nonzero;stroke:none"
     d="m 799.4346,753.98379 c 0,5.14453 -4.16796,9.31641 -9.3125,9.31641 -5.14843,0 -9.3164,-4.17188 -9.3164,-9.31641 0,-5.14453 4.16797,-9.3164 9.3164,-9.3164 5.14454,0 9.3125,4.17187 9.3125,9.3164 z m 0,0"
     id="path138" /><g
     clip-path="url(#clip11)"
     clip-rule="nonzero"
     id="g144"
     style="fill:#000000;fill-opacity:1"
     transform="translate(392.35648,225.88223)"><path
       style="fill:#000000;fill-opacity:1;fill-rule:nonzero;stroke:none"
       d="m 159.75781,528.10156 c 0,9.00391 -7.29687,16.30078 -16.30078,16.30078 -9.00391,0 -16.30469,-7.29687 -16.30469,-16.30078 0,-9.0039 7.30078,-16.30078 16.30469,-16.30078 9.00391,0 16.30078,7.29688 16.30078,16.30078 z m 0,0"
       id="path142" /></g><path
     style="fill:#000000;fill-opacity:1;fill-rule:nonzero;stroke:none"
     d="m 552.11429,313.51114 c 0,9.0039 -7.29687,16.30078 -16.30078,16.30078 -9.00391,0 -16.30469,-7.29688 -16.30469,-16.30078 0,-9.00391 7.30078,-16.30469 16.30469,-16.30469 9.00391,0 16.30078,7.30078 16.30078,16.30469 z m 0,0"
     id="path156" /><path
     style="fill:#000000;fill-opacity:1;fill-rule:nonzero;stroke:none"
     d="m 799.4346,313.51114 c 0,5.14453 -4.16796,9.3125 -9.3125,9.3125 -5.14843,0 -9.3164,-4.16797 -9.3164,-9.3125 0,-5.14454 4.16797,-9.31641 9.3164,-9.31641 5.14454,0 9.3125,4.17187 9.3125,9.31641 z m 0,0"
     id="path164" /><g
     clip-path="url(#clip13)"
     clip-rule="nonzero"
     id="g172"
     style="fill:#000000;fill-opacity:1"
     transform="translate(392.35648,225.88223)"><path
       style="fill:#000000;fill-opacity:1;fill-rule:nonzero;stroke:none"
       d="m 414.06641,528.10156 c 0,9.00391 -7.30079,16.30078 -16.30079,16.30078 -9.0039,0 -16.30468,-7.29687 -16.30468,-16.30078 0,-9.0039 7.30078,-16.30078 16.30468,-16.30078 9,0 16.30079,7.29688 16.30079,16.30078 z m 0,0"
       id="path170" /></g><path
     style="fill:#000000;fill-opacity:1;fill-rule:nonzero;stroke:none"
     d="m 806.42289,313.51114 c 0,9.0039 -7.30079,16.30078 -16.30079,16.30078 -9.0039,0 -16.30468,-7.29688 -16.30468,-16.30078 0,-9.00391 7.30078,-16.30469 16.30468,-16.30469 9,0 16.30079,7.30078 16.30079,16.30469 z m 0,0"
     id="path182" /><g
     clip-path="url(#clip16)"
     clip-rule="nonzero"
     id="g188"
     style="fill:#000000;fill-opacity:1"
     transform="translate(392.35648,225.88223)"><path
       style="fill:#000000;fill-opacity:1;fill-rule:nonzero;stroke:none"
       d="m 541.21875,307.86328 c 0,9.00391 -7.29688,16.30469 -16.30078,16.30469 -9.00391,0 -16.30078,-7.30078 -16.30078,-16.30469 0,-9 7.29687,-16.30078 16.30078,-16.30078 9.0039,0 16.30078,7.30078 16.30078,16.30078 z m 0,0"
       id="path186" /></g><path
     style="fill:#000000;fill-opacity:1;fill-rule:nonzero;stroke:none"
     d="m 874.88311,587.59707 c -1.39453,-2.78906 -3.48438,-4.76562 -6.85547,-4.76562 -8.59375,0 -17.77344,10.92187 -17.77344,21.72656 0,6.96875 4.06641,11.84766 9.75781,11.84766 1.51172,0 5.23047,-0.34766 9.64454,-5.57422 0.57812,3.13672 3.25,5.57422 6.73828,5.57422 2.67187,0 4.29687,-1.74219 5.57422,-4.06641 1.16015,-2.67187 2.20703,-7.20312 2.20703,-7.31641 0,-0.8164 -0.69532,-0.8164 -0.92969,-0.8164 -0.69531,0 -0.8125,0.35156 -1.04297,1.39453 -1.28125,4.76562 -2.55859,9.17969 -5.57812,9.17969 -2.08985,0 -2.20704,-1.97657 -2.20704,-3.3711 0,-1.625 0.11719,-2.32031 0.92969,-5.57422 0.8125,-3.01953 0.92969,-3.83593 1.625,-6.62109 l 2.67188,-10.33984 c 0.46484,-2.08985 0.46484,-2.20703 0.46484,-2.55469 0,-1.28125 -0.8125,-1.97656 -2.08984,-1.97656 -1.85938,0 -2.90625,1.625 -3.13672,3.2539 z m -4.76172,19.16797 c -0.46484,1.39453 -0.46484,1.50781 -1.51172,2.78906 -3.25391,4.0625 -6.27344,5.22657 -8.36328,5.22657 -3.71875,0 -4.76563,-4.06641 -4.76563,-6.97266 0,-3.71484 2.32422,-12.77734 4.06641,-16.26172 2.32422,-4.29687 5.57813,-7.08594 8.59766,-7.08594 4.76172,0 5.80859,6.03907 5.80859,6.50391 0,0.46484 -0.11719,0.92969 -0.23047,1.27734 z m 0,0"
     id="path194" /><path
     style="fill:#000000;stroke:#000000;stroke-width:3.0189;stroke-linecap:butt;stroke-linejoin:miter;stroke-miterlimit:4;stroke-opacity:1;fill-opacity:1"
     d="m 894.01274,540.18301 -0.34375,129.81641"
     id="path196" /><path
     style="fill:#000000;fill-opacity:1;fill-rule:evenodd;stroke:#000000;stroke-width:1.61008;stroke-linecap:butt;stroke-linejoin:miter;stroke-miterlimit:4;stroke-opacity:1"
     d="m 893.98149,552.26113 6.01953,6.05079 -5.98046,-21.14844 -6.09375,21.11719 z m 0,0"
     id="path198" /><path
     style="fill:#000000;fill-opacity:1;fill-rule:nonzero;stroke:none"
     d="m 671.6846,243.50723 c 0,5.14453 -4.17187,9.31641 -9.3164,9.31641 -5.14453,0 -9.31641,-4.17188 -9.31641,-9.31641 0,-5.14453 4.17188,-9.3125 9.31641,-9.3125 5.14453,0 9.3164,4.16797 9.3164,9.3125 z m 0,0"
     id="path80" /><path
     style="fill:#000000;fill-opacity:1;fill-rule:nonzero;stroke:none"
     d="m 552.3057,462.42129 c 0,9.00391 -7.29688,16.30078 -16.30078,16.30078 -9.00391,0 -16.30469,-7.29687 -16.30469,-16.30078 0,-9.0039 7.30078,-16.30078 16.30469,-16.30078 9.0039,0 16.30078,7.29688 16.30078,16.30078 z m 0,0"
     id="path86" /><path
     style="fill:#000000;fill-opacity:1;fill-rule:nonzero;stroke:none"
     d="m 417.37601,243.50723 c 0,5.14453 -4.17187,9.31641 -9.31641,9.31641 -5.14453,0 -9.3164,-4.17188 -9.3164,-9.31641 0,-5.14453 4.17187,-9.3125 9.3164,-9.3125 5.14454,0 9.31641,4.16797 9.31641,9.3125 z m 0,0"
     id="path90" /><path
     style="fill:#000000;fill-opacity:1;fill-rule:nonzero;stroke:none"
     d="m 672.47367,682.65957 c 0,5.14453 -4.17188,9.3125 -9.31641,9.3125 -5.14453,0 -9.31641,-4.16797 -9.31641,-9.3125 0,-5.14453 4.17188,-9.3164 9.31641,-9.3164 5.14453,0 9.31641,4.17187 9.31641,9.3164 z m 0,0"
     id="path100" /><path
     style="fill:#000000;fill-opacity:1;fill-rule:nonzero;stroke:none"
     d="m 418.16507,682.65957 c 0,5.14453 -4.17187,9.3125 -9.3164,9.3125 -5.14453,0 -9.3125,-4.16797 -9.3125,-9.3125 0,-5.14453 4.16797,-9.3164 9.3125,-9.3164 5.14453,0 9.3164,4.17187 9.3164,9.3164 z m 0,0"
     id="path104" /><path
     style="fill:#000000;fill-opacity:1;fill-rule:nonzero;stroke:none"
     d="m 926.7823,682.65957 c 0,5.14453 -4.1719,9.3125 -9.3165,9.3125 -5.1445,0 -9.3164,-4.16797 -9.3164,-9.3125 0,-5.14453 4.1719,-9.3164 9.3164,-9.3164 5.1446,0 9.3165,4.17187 9.3165,9.3164 z m 0,0"
     id="path114" /><path
     style="fill:#000000;fill-opacity:1;fill-rule:nonzero;stroke:none"
     d="m 679.45804,682.65957 c 0,9.00391 -7.29687,16.30078 -16.30078,16.30078 -9.00391,0 -16.30078,-7.29687 -16.30078,-16.30078 0,-9.0039 7.29687,-16.30468 16.30078,-16.30468 9.00391,0 16.30078,7.30078 16.30078,16.30468 z m 0,0"
     id="path130" /><path
     style="fill:#000000;fill-opacity:1;fill-rule:nonzero;stroke:none"
     d="m 425.15335,682.65957 c 0,9.00391 -7.30078,16.30078 -16.30468,16.30078 -9.00391,0 -16.30078,-7.29687 -16.30078,-16.30078 0,-9.0039 7.29687,-16.30468 16.30078,-16.30468 9.0039,0 16.30468,7.30078 16.30468,16.30468 z m 0,0"
     id="path140" /><path
     style="fill:#000000;fill-opacity:1;fill-rule:nonzero;stroke:none"
     d="m 418.16507,242.18301 c 0,5.14453 -4.17187,9.31641 -9.3164,9.31641 -5.14453,0 -9.3125,-4.17188 -9.3125,-9.31641 0,-5.14453 4.16797,-9.3125 9.3125,-9.3125 5.14453,0 9.3164,4.16797 9.3164,9.3125 z m 0,0"
     id="path148" /><path
     style="fill:#000000;fill-opacity:1;fill-rule:nonzero;stroke:none"
     d="m 425.15335,242.18301 c 0,9.00391 -7.30078,16.30469 -16.30468,16.30469 -9.00391,0 -16.30078,-7.30078 -16.30078,-16.30469 0,-9.00391 7.29687,-16.30078 16.30078,-16.30078 9.0039,0 16.30468,7.29687 16.30468,16.30078 z m 0,0"
     id="path150" /><path
     style="fill:#000000;fill-opacity:1;fill-rule:nonzero;stroke:none"
     d="m 672.47367,242.18301 c 0,5.14453 -4.17188,9.31641 -9.31641,9.31641 -5.14453,0 -9.31641,-4.17188 -9.31641,-9.31641 0,-5.14453 4.17188,-9.3125 9.31641,-9.3125 5.14453,0 9.31641,4.16797 9.31641,9.3125 z m 0,0"
     id="path154" /><path
     style="fill:#000000;fill-opacity:1;fill-rule:nonzero;stroke:none"
     d="m 679.45804,242.18301 c 0,9.00391 -7.29687,16.30469 -16.30078,16.30469 -9.00391,0 -16.30078,-7.30078 -16.30078,-16.30469 0,-9.00391 7.29687,-16.30078 16.30078,-16.30078 9.00391,0 16.30078,7.29687 16.30078,16.30078 z m 0,0"
     id="path158" /><path
     style="fill:#000000;fill-opacity:1;fill-rule:nonzero;stroke:none"
     d="m 926.7823,242.18301 c 0,5.14453 -4.1719,9.31641 -9.3165,9.31641 -5.1445,0 -9.3164,-4.17188 -9.3164,-9.31641 0,-5.14453 4.1719,-9.3125 9.3164,-9.3125 5.1446,0 9.3165,4.16797 9.3165,9.3125 z m 0,0"
     id="path162" /><g
     clip-path="url(#clip12)"
     clip-rule="nonzero"
     id="g168"
     style="fill:#000000;fill-opacity:1"
     transform="translate(392.35648,225.88223)"><path
       style="fill:#000000;fill-opacity:1;fill-rule:nonzero;stroke:none"
       d="m 541.41016,456.77734 c 0,9.00391 -7.29688,16.30078 -16.30079,16.30078 -9.0039,0 -16.30078,-7.29687 -16.30078,-16.30078 0,-9.0039 7.29688,-16.30468 16.30078,-16.30468 9.00391,0 16.30079,7.30078 16.30079,16.30468 z m 0,0"
       id="path166" /></g><g
     clip-path="url(#clip15)"
     clip-rule="nonzero"
     id="g180"
     style="fill:#000000;fill-opacity:1"
     transform="translate(392.35648,225.88223)"><path
       style="fill:#000000;fill-opacity:1;fill-rule:nonzero;stroke:none"
       d="m 541.41016,16.300781 c 0,9.003907 -7.29688,16.304688 -16.30079,16.304688 -9.0039,0 -16.30078,-7.300781 -16.30078,-16.304688 C 508.80859,7.296875 516.10547,0 525.10937,0 c 9.00391,0 16.30079,7.296875 16.30079,16.300781 z m 0,0"
       id="path178" /></g><path
     style="fill:#000000;fill-opacity:1;fill-rule:nonzero;stroke:none"
     d="m 806.61429,462.42129 c 0,9.00391 -7.30078,16.30078 -16.30469,16.30078 -9,0 -16.30078,-7.29687 -16.30078,-16.30078 0,-9.0039 7.30078,-16.30078 16.30078,-16.30078 9.00391,0 16.30469,7.29688 16.30469,16.30078 z m 0,0"
     id="path184" /><path
     style="fill:#000000;fill-opacity:1;fill-rule:evenodd;stroke:#000000;stroke-width:1.61008;stroke-linecap:butt;stroke-linejoin:miter;stroke-miterlimit:4;stroke-opacity:1"
     d="m 893.70024,657.9252 -6.01953,-6.05469 5.98048,21.14844 6.09374,-21.11719 z m 0,0"
     id="path200" /><g
     clip-path="url(#clip3-3-6)"
     clip-rule="nonzero"
     id="g62-6-4"
     transform="translate(4.95797,-436.63792)"
     style="fill:#000000;fill-opacity:1"><path
       style="fill:#000000;stroke:#b8b8b8;stroke-width:3.86929;stroke-linecap:butt;stroke-linejoin:miter;stroke-miterlimit:4;stroke-dasharray:3.86929, 3.86929;stroke-opacity:1;fill-opacity:1"
       d="M 397.40625,529.03516 270.25,455.62109"
       id="path60-1-6" /></g><g
     clip-path="url(#clip5-9-8)"
     clip-rule="nonzero"
     id="g98-5-2"
     transform="translate(4.95797,-436.63792)"
     style="fill:#000000;fill-opacity:1"><path
       style="fill:#000000;stroke:#b8b8b8;stroke-width:3.86929;stroke-linecap:butt;stroke-linejoin:miter;stroke-miterlimit:4;stroke-dasharray:3.86929, 3.86929;stroke-opacity:1;fill-opacity:1"
       d="M 270.25,455.62109 143.09766,529.03516"
       id="path96-0-6" /></g><g
     clip-path="url(#clip6-2-7)"
     clip-rule="nonzero"
     id="g112-1-7"
     transform="translate(4.95797,-436.63792)"
     style="fill:#000000;fill-opacity:1"><path
       style="fill:#000000;stroke:#b8b8b8;stroke-width:3.86929;stroke-linecap:butt;stroke-linejoin:miter;stroke-miterlimit:4;stroke-dasharray:3.86929, 3.86929;stroke-opacity:1;fill-opacity:1"
       d="M 524.55859,455.62109 397.40625,529.03516"
       id="path110-0-5" /></g><path
     style="fill:#000000;fill-opacity:1;fill-rule:nonzero;stroke:none"
     d="m 157.73141,91.46365 c 0,5.14453 -4.17188,9.31641 -9.31641,9.31641 -5.14453,0 -9.31641,-4.17188 -9.31641,-9.31641 0,-5.14453 4.17188,-9.3164 9.31641,-9.3164 5.14453,0 9.31641,4.17187 9.31641,9.3164 z m 0,0"
     id="path102-3-6" /><path
     style="fill:#000000;fill-opacity:1;fill-rule:nonzero;stroke:none"
     d="m 412.03608,91.46365 c 0,5.14453 -4.16796,9.31641 -9.3125,9.31641 -5.14843,0 -9.3164,-4.17188 -9.3164,-9.31641 0,-5.14453 4.16797,-9.3164 9.3164,-9.3164 5.14454,0 9.3125,4.17187 9.3125,9.3164 z m 0,0"
     id="path116-7-9" /><g
     clip-path="url(#clip9-2-4)"
     clip-rule="nonzero"
     id="g128-4-8"
     style="fill:#000000;fill-opacity:1"
     transform="translate(4.95797,-436.63792)"><path
       style="fill:#000000;fill-opacity:1;stroke:#b8b8b8;stroke-width:3.86929;stroke-linecap:butt;stroke-linejoin:miter;stroke-miterlimit:4;stroke-dasharray:3.86929, 3.86929;stroke-opacity:1"
       d="M 143.09766,529.03516 V 675.85937"
       id="path126-5-7" /></g><path
     style="fill:#000000;fill-opacity:1;fill-rule:nonzero;stroke:none"
     d="m 157.73141,91.46365 c 0,5.14453 -4.17188,9.31641 -9.31641,9.31641 -5.14453,0 -9.31641,-4.17188 -9.31641,-9.31641 0,-5.14453 4.17188,-9.3164 9.31641,-9.3164 5.14453,0 9.31641,4.17187 9.31641,9.3164 z m 0,0"
     id="path132-2-2" /><g
     clip-path="url(#clip10-1-6)"
     clip-rule="nonzero"
     id="g136-5-8"
     style="fill:#000000;fill-opacity:1"
     transform="translate(4.95797,-436.63792)"><path
       style="fill:#000000;fill-opacity:1;stroke:#b8b8b8;stroke-width:3.86929;stroke-linecap:butt;stroke-linejoin:miter;stroke-miterlimit:4;stroke-dasharray:3.86929, 3.86929;stroke-opacity:1"
       d="M 397.40625,529.03516 V 675.85937"
       id="path134-4-2" /></g><path
     style="fill:#000000;fill-opacity:1;fill-rule:nonzero;stroke:none"
     d="m 412.03608,91.46365 c 0,5.14453 -4.16796,9.31641 -9.3125,9.31641 -5.14843,0 -9.3164,-4.17188 -9.3164,-9.31641 0,-5.14453 4.16797,-9.3164 9.3164,-9.3164 5.14454,0 9.3125,4.17187 9.3125,9.3164 z m 0,0"
     id="path138-7-9" /><g
     clip-path="url(#clip11-7-9)"
     clip-rule="nonzero"
     id="g144-4-9"
     style="fill:#000000;fill-opacity:1"
     transform="translate(4.95797,-436.63792)"><path
       style="fill:#000000;fill-opacity:1;fill-rule:nonzero;stroke:none"
       d="m 159.75781,528.10156 c 0,9.00391 -7.29687,16.30078 -16.30078,16.30078 -9.00391,0 -16.30469,-7.29687 -16.30469,-16.30078 0,-9.0039 7.30078,-16.30078 16.30469,-16.30078 9.00391,0 16.30078,7.29688 16.30078,16.30078 z m 0,0"
       id="path142-4-6" /></g><g
     clip-path="url(#clip13-2-0)"
     clip-rule="nonzero"
     id="g172-7-0"
     style="fill:#000000;fill-opacity:1"
     transform="translate(4.95797,-436.63792)"><path
       style="fill:#000000;fill-opacity:1;fill-rule:nonzero;stroke:none"
       d="m 414.06641,528.10156 c 0,9.00391 -7.30079,16.30078 -16.30079,16.30078 -9.0039,0 -16.30468,-7.29687 -16.30468,-16.30078 0,-9.0039 7.30078,-16.30078 16.30468,-16.30078 9,0 16.30079,7.29688 16.30079,16.30078 z m 0,0"
       id="path170-8-2" /></g><path
     style="fill:#000000;fill-opacity:1;fill-rule:nonzero;stroke:none"
     d="m 285.07516,20.13943 c 0,5.14453 -4.17188,9.3125 -9.31641,9.3125 -5.14453,0 -9.31641,-4.16797 -9.31641,-9.3125 0,-5.14453 4.17188,-9.3164 9.31641,-9.3164 5.14453,0 9.31641,4.17187 9.31641,9.3164 z m 0,0"
     id="path100-6-7" /><path
     style="fill:#000000;fill-opacity:1;fill-rule:nonzero;stroke:none"
     d="m 292.05953,20.13943 c 0,9.00391 -7.29687,16.30078 -16.30078,16.30078 -9.00391,0 -16.30078,-7.29687 -16.30078,-16.30078 0,-9.0039 7.29687,-16.30468 16.30078,-16.30468 9.00391,0 16.30078,7.30078 16.30078,16.30468 z m 0,0"
     id="path130-2-6" /><g
     clip-path="url(#clip3-1)"
     clip-rule="nonzero"
     id="g62-1"
     transform="translate(517.60115,-440.47266)"
     style="fill:#000000;fill-opacity:1"><path
       style="fill:#000000;stroke:#b8b8b8;stroke-width:3.86929;stroke-linecap:butt;stroke-linejoin:miter;stroke-miterlimit:4;stroke-dasharray:3.86929, 3.86929;stroke-opacity:1;fill-opacity:1"
       d="M 397.40625,529.03516 270.25,455.62109"
       id="path60-3" /></g><g
     clip-path="url(#clip4-1)"
     clip-rule="nonzero"
     id="g94-2"
     transform="translate(517.60115,-440.47266)"
     style="fill:#000000;fill-opacity:1"><path
       style="fill:#000000;stroke:#b8b8b8;stroke-width:3.86929;stroke-linecap:butt;stroke-linejoin:miter;stroke-miterlimit:4;stroke-dasharray:3.86929, 3.86929;stroke-opacity:1;fill-opacity:1"
       d="M 143.09766,529.03516 15.941406,455.62109"
       id="path92-1" /></g><g
     clip-path="url(#clip5-0)"
     clip-rule="nonzero"
     id="g98-59"
     transform="translate(517.60115,-440.47266)"
     style="fill:#000000;fill-opacity:1"><path
       style="fill:#000000;stroke:#b8b8b8;stroke-width:3.86929;stroke-linecap:butt;stroke-linejoin:miter;stroke-miterlimit:4;stroke-dasharray:3.86929, 3.86929;stroke-opacity:1;fill-opacity:1"
       d="M 270.25,455.62109 143.09766,529.03516"
       id="path96-9" /></g><g
     clip-path="url(#clip8-9)"
     clip-rule="nonzero"
     id="g124-7"
     transform="translate(517.60115,-440.47266)"
     style="fill:#000000;fill-opacity:1"><path
       style="fill:#000000;stroke:#b8b8b8;stroke-width:3.86929;stroke-linecap:butt;stroke-linejoin:miter;stroke-miterlimit:4;stroke-dasharray:3.86929, 3.86929;stroke-opacity:1;fill-opacity:1"
       d="M 15.941406,455.62109 -111.21094,529.03516"
       id="path122-5" /></g><path
     style="fill:#000000;fill-opacity:1;fill-rule:nonzero;stroke:none"
     d="m 670.37459,87.6289 c 0,5.14453 -4.17188,9.31641 -9.31641,9.31641 -5.14453,0 -9.31641,-4.17188 -9.31641,-9.31641 0,-5.14453 4.17188,-9.3164 9.31641,-9.3164 5.14453,0 9.31641,4.17187 9.31641,9.3164 z m 0,0"
     id="path102-8" /><path
     style="fill:#000000;fill-opacity:1;fill-rule:nonzero;stroke:none"
     d="m 924.6793,87.6289 c 0,5.14453 -4.168,9.31641 -9.3125,9.31641 -5.1485,0 -9.3164,-4.17188 -9.3164,-9.31641 0,-5.14453 4.1679,-9.3164 9.3164,-9.3164 5.1445,0 9.3125,4.17187 9.3125,9.3164 z m 0,0"
     id="path116-70" /><g
     clip-path="url(#clip9-3)"
     clip-rule="nonzero"
     id="g128-48"
     style="fill:#000000;fill-opacity:1"
     transform="translate(517.60115,-440.47266)"><path
       style="fill:#000000;fill-opacity:1;stroke:#b8b8b8;stroke-width:3.86929;stroke-linecap:butt;stroke-linejoin:miter;stroke-miterlimit:4;stroke-dasharray:3.86929, 3.86929;stroke-opacity:1"
       d="M 143.09766,529.03516 V 675.85937"
       id="path126-0" /></g><path
     style="fill:#000000;fill-opacity:1;fill-rule:nonzero;stroke:none"
     d="m 670.37459,87.6289 c 0,5.14453 -4.17188,9.31641 -9.31641,9.31641 -5.14453,0 -9.31641,-4.17188 -9.31641,-9.31641 0,-5.14453 4.17188,-9.3164 9.31641,-9.3164 5.14453,0 9.31641,4.17187 9.31641,9.3164 z m 0,0"
     id="path132-4" /><g
     clip-path="url(#clip10-8)"
     clip-rule="nonzero"
     id="g136-2"
     style="fill:#000000;fill-opacity:1"
     transform="translate(517.60115,-440.47266)"><path
       style="fill:#000000;fill-opacity:1;stroke:#b8b8b8;stroke-width:3.86929;stroke-linecap:butt;stroke-linejoin:miter;stroke-miterlimit:4;stroke-dasharray:3.86929, 3.86929;stroke-opacity:1"
       d="M 397.40625,529.03516 V 675.85937"
       id="path134-9" /></g><path
     style="fill:#000000;fill-opacity:1;fill-rule:nonzero;stroke:none"
     d="m 924.6793,87.6289 c 0,5.14453 -4.168,9.31641 -9.3125,9.31641 -5.1485,0 -9.3164,-4.17188 -9.3164,-9.31641 0,-5.14453 4.1679,-9.3164 9.3164,-9.3164 5.1445,0 9.3125,4.17187 9.3125,9.3164 z m 0,0"
     id="path138-6" /><g
     clip-path="url(#clip11-5)"
     clip-rule="nonzero"
     id="g144-1"
     style="fill:#000000;fill-opacity:1"
     transform="translate(517.60115,-440.47266)"><path
       style="fill:#000000;fill-opacity:1;fill-rule:nonzero;stroke:none"
       d="m 159.75781,528.10156 c 0,9.00391 -7.29687,16.30078 -16.30078,16.30078 -9.00391,0 -16.30469,-7.29687 -16.30469,-16.30078 0,-9.0039 7.30078,-16.30078 16.30469,-16.30078 9.00391,0 16.30078,7.29688 16.30078,16.30078 z m 0,0"
       id="path142-0" /></g><g
     clip-path="url(#clip13-6)"
     clip-rule="nonzero"
     id="g172-4"
     style="fill:#000000;fill-opacity:1"
     transform="translate(517.60115,-440.47266)"><path
       style="fill:#000000;fill-opacity:1;fill-rule:nonzero;stroke:none"
       d="m 414.06641,528.10156 c 0,9.00391 -7.30079,16.30078 -16.30079,16.30078 -9.0039,0 -16.30468,-7.29687 -16.30468,-16.30078 0,-9.0039 7.30078,-16.30078 16.30468,-16.30078 9,0 16.30079,7.29688 16.30079,16.30078 z m 0,0"
       id="path170-2" /></g><path
     style="fill:#000000;fill-opacity:1;fill-rule:nonzero;stroke:none"
     d="m 797.71834,16.30468 c 0,5.14453 -4.17188,9.3125 -9.31641,9.3125 -5.14453,0 -9.31641,-4.16797 -9.31641,-9.3125 0,-5.14453 4.17188,-9.3164 9.31641,-9.3164 5.14453,0 9.31641,4.17187 9.31641,9.3164 z m 0,0"
     id="path100-2" /><path
     style="fill:#000000;fill-opacity:1;fill-rule:nonzero;stroke:none"
     d="m 543.40974,16.30468 c 0,5.14453 -4.17187,9.3125 -9.3164,9.3125 -5.14454,0 -9.3125,-4.16797 -9.3125,-9.3125 0,-5.14453 4.16796,-9.3164 9.3125,-9.3164 5.14453,0 9.3164,4.17187 9.3164,9.3164 z m 0,0"
     id="path104-2" /><path
     style="fill:#000000;fill-opacity:1;fill-rule:nonzero;stroke:none"
     d="m 804.70271,16.30468 c 0,9.00391 -7.29687,16.30078 -16.30078,16.30078 -9.00391,0 -16.30078,-7.29687 -16.30078,-16.30078 C 772.10115,7.30078 779.39802,0 788.40193,0 c 9.00391,0 16.30078,7.30078 16.30078,16.30468 z m 0,0"
     id="path130-5" /><path
     style="fill:#000000;fill-opacity:1;fill-rule:nonzero;stroke:none"
     d="m 550.39802,16.30468 c 0,9.00391 -7.30078,16.30078 -16.30468,16.30078 -9.00391,0 -16.30079,-7.29687 -16.30079,-16.30078 C 517.79255,7.30078 525.08943,0 534.09334,0 c 9.0039,0 16.30468,7.30078 16.30468,16.30468 z m 0,0"
     id="path140-5" /><g
     inkscape:label=""
     transform="matrix(3.1585387,0,0,3.1585387,1076.572,356.80405)"
     id="g10"><g
   fill="#000000"
   fill-opacity="1"
   id="g7"
   transform="translate(-2.44613,-1.79575)">
    <g
   id="g6"
   transform="translate(1.993,14.702)">
      <path
   d="m 4.15625,-8.296875 h 1.890625 c 0.390625,0 0.609375,0 0.609375,-0.375 0,-0.234375 -0.125,-0.234375 -0.546875,-0.234375 h -1.8125 L 5.0625,-11.921875 c 0.078125,-0.28125 0.078125,-0.328125 0.078125,-0.46875 0,-0.328125 -0.265625,-0.515625 -0.53125,-0.515625 -0.171875,0 -0.640625,0.0625 -0.8125,0.71875 L 3,-8.90625 H 1.046875 c -0.40625,0 -0.59375,0 -0.59375,0.390625 0,0.21875 0.140625,0.21875 0.53125,0.21875 h 1.84375 L 1.46875,-2.84375 c -0.171875,0.71875 -0.234375,0.921875 -0.234375,1.1875 0,0.96875 0.6875,1.859375 1.84375,1.859375 2.09375,0 3.203125,-3.015625 3.203125,-3.15625 0,-0.125 -0.078125,-0.1875 -0.203125,-0.1875 -0.046875,0 -0.125,0 -0.171875,0.078125 -0.015625,0.03125 -0.046875,0.046875 -0.1875,0.375 -0.4375,1.03125 -1.375,2.484375 -2.578125,2.484375 -0.625,0 -0.65625,-0.515625 -0.65625,-0.96875 0,-0.03125 0,-0.421875 0.0625,-0.671875 z m 0,0"
   id="path6" />
    </g>
  </g>
  <g
   fill="#000000"
   fill-opacity="1"
   id="g9"
   transform="translate(-2.44613,-1.79575)">
    <g
   id="g8"
   transform="translate(9.2980003,17.801001)">
      <path
   d="m 4.125,-9.1875 c 0,-0.34375 0,-0.34375 -0.28125,-0.34375 C 3.5,-9.15625 2.78125,-8.625 1.3125,-8.625 v 0.421875 c 0.328125,0 1.046875,0 1.828125,-0.375 v 7.46875 c 0,0.515625 -0.046875,0.6875 -1.296875,0.6875 H 1.390625 V 0 c 0.390625,-0.03125 1.78125,-0.03125 2.25,-0.03125 0.46875,0 1.859375,0 2.234375,0.03125 V -0.421875 H 5.4375 c -1.265625,0 -1.3125,-0.171875 -1.3125,-0.6875 z m 0,0"
   id="path7" />
    </g>
  </g>
</g><path
     sodipodi:type="star"
     style="fill:none;stroke:#000000;stroke-width:6;stroke-linecap:round;stroke-linejoin:round;stroke-miterlimit:4.3;stroke-dasharray:none"
     id="path1"
     inkscape:flatsided="true"
     sodipodi:sides="6"
     sodipodi:cx="295.62338"
     sodipodi:cy="296.44083"
     sodipodi:r1="149.00315"
     sodipodi:r2="100.39838"
     sodipodi:arg1="0.52359878"
     sodipodi:arg2="1.0471976"
     inkscape:rounded="0"
     inkscape:randomized="0"
     d="m 424.66389,370.9424 -129.04051,74.50157 -129.04051,-74.50157 10e-6,-149.00315 129.0405,-74.50157 129.04051,74.50158 z"
     transform="translate(112.31027,91.959467)" /><path
     sodipodi:type="star"
     style="fill:none;stroke:#000000;stroke-width:6;stroke-linecap:round;stroke-linejoin:round;stroke-miterlimit:4.3;stroke-dasharray:none"
     id="path1-4"
     inkscape:flatsided="true"
     sodipodi:sides="6"
     sodipodi:cx="295.62338"
     sodipodi:cy="296.44083"
     sodipodi:r1="149.00314"
     sodipodi:r2="100.39838"
     sodipodi:arg1="0.52359878"
     sodipodi:arg2="1.0471976"
     inkscape:rounded="0"
     inkscape:randomized="0"
     d="m 424.66389,370.9424 -129.04051,74.50157 -129.04051,-74.50157 10e-6,-149.00315 129.0405,-74.50157 129.04051,74.50158 z"
     transform="translate(491.05252,-133.8651)" /><path
     sodipodi:type="star"
     style="fill:none;stroke:#000000;stroke-width:6;stroke-linecap:round;stroke-linejoin:round;stroke-miterlimit:4.3;stroke-dasharray:none"
     id="path1-6"
     inkscape:flatsided="true"
     sodipodi:sides="6"
     sodipodi:cx="295.62338"
     sodipodi:cy="296.44083"
     sodipodi:r1="149.00314"
     sodipodi:r2="100.39838"
     sodipodi:arg1="0.52359878"
     sodipodi:arg2="1.0471976"
     inkscape:rounded="0"
     inkscape:randomized="0"
     d="m 424.66389,370.9424 -129.04051,74.50157 -129.04051,-74.50157 10e-6,-149.00315 129.0405,-74.50157 129.04051,74.50158 z"
     transform="translate(495.1275,312.54152)" /><path
     sodipodi:type="star"
     style="fill:none;stroke:#000000;stroke-width:6;stroke-linecap:round;stroke-linejoin:round;stroke-miterlimit:4.3;stroke-dasharray:none"
     id="path1-9"
     inkscape:flatsided="true"
     sodipodi:sides="6"
     sodipodi:cx="295.62338"
     sodipodi:cy="296.44083"
     sodipodi:r1="149.00314"
     sodipodi:r2="100.39838"
     sodipodi:arg1="0.52359878"
     sodipodi:arg2="1.0471976"
     inkscape:rounded="0"
     inkscape:randomized="0"
     d="m 424.66389,370.9424 -129.04051,74.50157 -129.04051,-74.50157 10e-6,-149.00315 129.0405,-74.50157 129.04051,74.50158 z"
     transform="translate(-273.15815,-125.01582)" /><path
     sodipodi:type="star"
     style="fill:none;stroke:#000000;stroke-width:6;stroke-linecap:round;stroke-linejoin:round;stroke-miterlimit:4.3;stroke-dasharray:none"
     id="path1-42"
     inkscape:flatsided="true"
     sodipodi:sides="6"
     sodipodi:cx="295.62338"
     sodipodi:cy="296.44083"
     sodipodi:r1="149.00314"
     sodipodi:r2="100.39838"
     sodipodi:arg1="0.52359878"
     sodipodi:arg2="1.0471976"
     inkscape:rounded="0"
     inkscape:randomized="0"
     d="m 424.66389,370.9424 -129.04051,74.50157 -129.04051,-74.50157 10e-6,-149.00315 129.0405,-74.50157 129.04051,74.50158 z"
     transform="translate(-275.95456,317.8591)" /><path
     sodipodi:type="star"
     style="fill:none;stroke:#000000;stroke-width:6;stroke-linecap:round;stroke-linejoin:round;stroke-miterlimit:4.3;stroke-dasharray:none"
     id="path1-2"
     inkscape:flatsided="true"
     sodipodi:sides="6"
     sodipodi:cx="295.62338"
     sodipodi:cy="296.44083"
     sodipodi:r1="149.00314"
     sodipodi:r2="100.39838"
     sodipodi:arg1="0.52359878"
     sodipodi:arg2="1.0471976"
     inkscape:rounded="0"
     inkscape:randomized="0"
     d="m 424.66389,370.9424 -129.04051,74.50157 -129.04051,-74.50157 10e-6,-149.00315 129.0405,-74.50157 129.04051,74.50158 z"
     transform="translate(105.99735,-351.51128)" /><path
     sodipodi:type="star"
     style="fill:none;stroke:#000000;stroke-width:6;stroke-linecap:round;stroke-linejoin:round;stroke-miterlimit:4.3;stroke-dasharray:none"
     id="path1-64"
     inkscape:flatsided="true"
     sodipodi:sides="6"
     sodipodi:cx="295.62338"
     sodipodi:cy="296.44083"
     sodipodi:r1="149.00314"
     sodipodi:r2="100.39838"
     sodipodi:arg1="0.52359878"
     sodipodi:arg2="1.0471976"
     inkscape:rounded="0"
     inkscape:randomized="0"
     d="m 424.66389,370.9424 -129.04051,74.50157 -129.04051,-74.50157 10e-6,-149.00315 129.0405,-74.50157 129.04051,74.50158 z"
     transform="translate(115.99311,533.76715)" /><g
     inkscape:label=""
     transform="matrix(4.090132,0,0,4.090132,354.54046,284.06546)"
     id="g20"><g
   fill="#000000"
   fill-opacity="1"
   id="g17"
   transform="translate(-2.44613,-1.79575)">
    <g
   id="g16"
   transform="translate(1.993,14.702)">
      <path
   d="m 4.15625,-8.296875 h 1.890625 c 0.390625,0 0.609375,0 0.609375,-0.375 0,-0.234375 -0.125,-0.234375 -0.546875,-0.234375 h -1.8125 L 5.0625,-11.921875 c 0.078125,-0.28125 0.078125,-0.328125 0.078125,-0.46875 0,-0.328125 -0.265625,-0.515625 -0.53125,-0.515625 -0.171875,0 -0.640625,0.0625 -0.8125,0.71875 L 3,-8.90625 H 1.046875 c -0.40625,0 -0.59375,0 -0.59375,0.390625 0,0.21875 0.140625,0.21875 0.53125,0.21875 h 1.84375 L 1.46875,-2.84375 c -0.171875,0.71875 -0.234375,0.921875 -0.234375,1.1875 0,0.96875 0.6875,1.859375 1.84375,1.859375 2.09375,0 3.203125,-3.015625 3.203125,-3.15625 0,-0.125 -0.078125,-0.1875 -0.203125,-0.1875 -0.046875,0 -0.125,0 -0.171875,0.078125 -0.015625,0.03125 -0.046875,0.046875 -0.1875,0.375 -0.4375,1.03125 -1.375,2.484375 -2.578125,2.484375 -0.625,0 -0.65625,-0.515625 -0.65625,-0.96875 0,-0.03125 0,-0.421875 0.0625,-0.671875 z m 0,0"
   id="path10" />
    </g>
  </g>
  <g
   fill="#000000"
   fill-opacity="1"
   id="g19"
   transform="translate(-2.44613,-1.79575)">
    <g
   id="g18"
   transform="translate(9.2980003,17.801001)">
      <path
   d="m 4.125,-9.1875 c 0,-0.34375 0,-0.34375 -0.28125,-0.34375 C 3.5,-9.15625 2.78125,-8.625 1.3125,-8.625 v 0.421875 c 0.328125,0 1.046875,0 1.828125,-0.375 v 7.46875 c 0,0.515625 -0.046875,0.6875 -1.296875,0.6875 H 1.390625 V 0 c 0.390625,-0.03125 1.78125,-0.03125 2.25,-0.03125 0.46875,0 1.859375,0 2.234375,0.03125 V -0.421875 H 5.4375 c -1.265625,0 -1.3125,-0.171875 -1.3125,-0.6875 z m 0,0"
   id="path18" />
    </g>
  </g>
</g><g
     id="g26"><path
       style="fill:none;stroke:#000000;stroke-width:6;stroke-linecap:butt;stroke-linejoin:miter;stroke-opacity:1;stroke-dasharray:3,3;stroke-dashoffset:0"
       d="m 153.52333,247.56376 123.46122,71.28036"
       id="path15" /><path
       style="fill:none;stroke:#000000;stroke-width:6;stroke-linecap:butt;stroke-linejoin:miter;stroke-dasharray:3, 3;stroke-dashoffset:0;stroke-opacity:1"
       d="m 535.4855,460.56123 123.46122,71.28036"
       id="path15-1" /><path
       style="fill:none;stroke:#000000;stroke-width:6;stroke-linecap:butt;stroke-linejoin:miter;stroke-dasharray:3, 3;stroke-dashoffset:0;stroke-opacity:1"
       d="m 156.6915,689.17588 123.46122,71.28036"
       id="path15-2" /><path
       style="fill:none;stroke:#000000;stroke-width:6;stroke-linecap:butt;stroke-linejoin:miter;stroke-dasharray:3, 3;stroke-dashoffset:0;stroke-opacity:1"
       d="m 534.41557,16.124085 123.46122,71.28036"
       id="path15-8" /><path
       style="fill:none;stroke:#000000;stroke-width:6;stroke-linecap:butt;stroke-linejoin:miter;stroke-dasharray:3, 3;stroke-dashoffset:0;stroke-opacity:1"
       d="M 657.39439,243.45029 533.93318,314.73067"
       id="path15-8-8" /><path
       style="fill:none;stroke:#000000;stroke-width:6;stroke-linecap:butt;stroke-linejoin:miter;stroke-dasharray:3, 3;stroke-dashoffset:0;stroke-opacity:1"
       d="M 274.73689,17.426001 151.27568,88.706381"
       id="path15-8-8-9" /><path
       style="fill:none;stroke:#000000;stroke-width:6;stroke-linecap:butt;stroke-linejoin:miter;stroke-dasharray:3, 3;stroke-dashoffset:0;stroke-opacity:1"
       d="M 264.60959,473.59808 141.14838,544.87846"
       id="path15-8-8-2" /><path
       style="fill:none;stroke:#000000;stroke-width:6;stroke-linecap:butt;stroke-linejoin:miter;stroke-dasharray:3, 3;stroke-dashoffset:0;stroke-opacity:1"
       d="M 670.58522,677.0938 547.12401,748.37418"
       id="path15-8-8-8" /><path
       style="fill:none;stroke:#000000;stroke-width:6;stroke-linecap:butt;stroke-linejoin:miter;stroke-dasharray:3, 3;stroke-dashoffset:0;stroke-opacity:1"
       d="m 409.3189,536.29128 1e-5,142.56073"
       id="path15-8-8-88" /><path
       style="fill:none;stroke:#000000;stroke-width:6;stroke-linecap:butt;stroke-linejoin:miter;stroke-dasharray:3, 3;stroke-dashoffset:0;stroke-opacity:1"
       d="m 791.99963,312.03553 10e-6,142.56073"
       id="path15-8-8-88-6"
       inkscape:transform-center-x="29.441973"
       inkscape:transform-center-y="19.024494" /><path
       style="fill:none;stroke:#000000;stroke-width:6;stroke-linecap:butt;stroke-linejoin:miter;stroke-dasharray:3, 3;stroke-dashoffset:0;stroke-opacity:1"
       d="m 406.52367,91.509299 1e-5,142.560731"
       id="path15-8-8-88-8" /><path
       style="fill:none;stroke:#000000;stroke-width:6;stroke-linecap:butt;stroke-linejoin:miter;stroke-dasharray:3, 3;stroke-dashoffset:0;stroke-opacity:1"
       d="m 22.781355,321.84348 10e-6,142.56073"
       id="path15-8-8-88-3"
       inkscape:transform-center-x="-13.168418"
       inkscape:transform-center-y="16.894927" /><g
       inkscape:label=""
       transform="matrix(4.090132,0,0,4.090132,212.56093,508.4516)"
       id="g25"><g
   fill="#000000"
   fill-opacity="1"
   id="g22"
   transform="translate(-2.44613,-1.79575)">
    <g
   id="g21"
   transform="translate(1.993,14.702)">
      <path
   d="m 4.15625,-8.296875 h 1.890625 c 0.390625,0 0.609375,0 0.609375,-0.375 0,-0.234375 -0.125,-0.234375 -0.546875,-0.234375 h -1.8125 L 5.0625,-11.921875 c 0.078125,-0.28125 0.078125,-0.328125 0.078125,-0.46875 0,-0.328125 -0.265625,-0.515625 -0.53125,-0.515625 -0.171875,0 -0.640625,0.0625 -0.8125,0.71875 L 3,-8.90625 H 1.046875 c -0.40625,0 -0.59375,0 -0.59375,0.390625 0,0.21875 0.140625,0.21875 0.53125,0.21875 h 1.84375 L 1.46875,-2.84375 c -0.171875,0.71875 -0.234375,0.921875 -0.234375,1.1875 0,0.96875 0.6875,1.859375 1.84375,1.859375 2.09375,0 3.203125,-3.015625 3.203125,-3.15625 0,-0.125 -0.078125,-0.1875 -0.203125,-0.1875 -0.046875,0 -0.125,0 -0.171875,0.078125 -0.015625,0.03125 -0.046875,0.046875 -0.1875,0.375 -0.4375,1.03125 -1.375,2.484375 -2.578125,2.484375 -0.625,0 -0.65625,-0.515625 -0.65625,-0.96875 0,-0.03125 0,-0.421875 0.0625,-0.671875 z m 0,0"
   id="path21" />
    </g>
  </g>
  <g
   fill="#000000"
   fill-opacity="1"
   id="g24"
   transform="translate(-2.44613,-1.79575)">
    <g
   id="g23"
   transform="translate(9.2980003,17.801001)">
      <path
   d="M 6.3125,-2.40625 H 6 c -0.046875,0.234375 -0.15625,1.03125 -0.3125,1.265625 -0.09375,0.125 -0.90625,0.125 -1.34375,0.125 H 1.6875 c 0.390625,-0.328125 1.265625,-1.25 1.640625,-1.59375 2.1875,-2.015625 2.984375,-2.75 2.984375,-4.171875 0,-1.65625 -1.3125,-2.75 -2.96875,-2.75 -1.671875,0 -2.640625,1.40625 -2.640625,2.640625 0,0.734375 0.625,0.734375 0.671875,0.734375 0.296875,0 0.671875,-0.21875 0.671875,-0.671875 C 2.046875,-7.234375 1.78125,-7.5 1.375,-7.5 1.25,-7.5 1.21875,-7.5 1.171875,-7.484375 1.453125,-8.46875 2.21875,-9.125 3.15625,-9.125 4.375,-9.125 5.125,-8.109375 5.125,-6.78125 5.125,-5.5625 4.421875,-4.5 3.59375,-3.578125 L 0.703125,-0.34375 V 0 H 5.9375 Z m 0,0"
   id="path22" />
    </g>
  </g>
</g></g></svg>
